%!PS-Adobe-3.0 EPSF-3.0
%%Creator: (MATLAB, The Mathworks, Inc. Version 8.4.0.150421 \(R2014b\). Operating System: Mac OS X)
%%Title: /Users/rkk/softrobotics-git/papers/recipessoftfluidicrobotspaper/figures/actuators/morphologiescharacterization/BendAngleVsEnergyColor.eps
%%CreationDate: 2015-01-14T14:06:31
%%Pages: (atend)
%%BoundingBox: 0 0 560 420
%%LanguageLevel: 2
%%EndComments
%%BeginProlog
%%BeginResource: procset (Apache XML Graphics Std ProcSet) 1.2 0
%%Version: 1.2 0
%%Copyright: (Copyright 2001-2003,2010 The Apache Software Foundation. License terms: http://www.apache.org/licenses/LICENSE-2.0)
/bd{bind def}bind def
/ld{load def}bd
/GR/grestore ld
/M/moveto ld
/LJ/setlinejoin ld
/C/curveto ld
/f/fill ld
/LW/setlinewidth ld
/GC/setgray ld
/t/show ld
/N/newpath ld
/CT/concat ld
/cp/closepath ld
/S/stroke ld
/L/lineto ld
/CC/setcmykcolor ld
/A/ashow ld
/GS/gsave ld
/RC/setrgbcolor ld
/RM/rmoveto ld
/ML/setmiterlimit ld
/re {4 2 roll M
1 index 0 rlineto
0 exch rlineto
neg 0 rlineto
cp } bd
/_ctm matrix def
/_tm matrix def
/BT { _ctm currentmatrix pop matrix _tm copy pop 0 0 moveto } bd
/ET { _ctm setmatrix } bd
/iTm { _ctm setmatrix _tm concat } bd
/Tm { _tm astore pop iTm 0 0 moveto } bd
/ux 0.0 def
/uy 0.0 def
/F {
  /Tp exch def
  /Tf exch def
  Tf findfont Tp scalefont setfont
  /cf Tf def  /cs Tp def
} bd
/ULS {currentpoint /uy exch def /ux exch def} bd
/ULE {
  /Tcx currentpoint pop def
  gsave
  newpath
  cf findfont cs scalefont dup
  /FontMatrix get 0 get /Ts exch def /FontInfo get dup
  /UnderlinePosition get Ts mul /To exch def
  /UnderlineThickness get Ts mul /Tt exch def
  ux uy To add moveto  Tcx uy To add lineto
  Tt setlinewidth stroke
  grestore
} bd
/OLE {
  /Tcx currentpoint pop def
  gsave
  newpath
  cf findfont cs scalefont dup
  /FontMatrix get 0 get /Ts exch def /FontInfo get dup
  /UnderlinePosition get Ts mul /To exch def
  /UnderlineThickness get Ts mul /Tt exch def
  ux uy To add cs add moveto Tcx uy To add cs add lineto
  Tt setlinewidth stroke
  grestore
} bd
/SOE {
  /Tcx currentpoint pop def
  gsave
  newpath
  cf findfont cs scalefont dup
  /FontMatrix get 0 get /Ts exch def /FontInfo get dup
  /UnderlinePosition get Ts mul /To exch def
  /UnderlineThickness get Ts mul /Tt exch def
  ux uy To add cs 10 mul 26 idiv add moveto Tcx uy To add cs 10 mul 26 idiv add lineto
  Tt setlinewidth stroke
  grestore
} bd
/QT {
/Y22 exch store
/X22 exch store
/Y21 exch store
/X21 exch store
currentpoint
/Y21 load 2 mul add 3 div exch
/X21 load 2 mul add 3 div exch
/X21 load 2 mul /X22 load add 3 div
/Y21 load 2 mul /Y22 load add 3 div
/X22 load /Y22 load curveto
} bd
/SSPD {
dup length /d exch dict def
{
/v exch def
/k exch def
currentpagedevice k known {
/cpdv currentpagedevice k get def
v cpdv ne {
/upd false def
/nullv v type /nulltype eq def
/nullcpdv cpdv type /nulltype eq def
nullv nullcpdv or
{
/upd true def
} {
/sametype v type cpdv type eq def
sametype {
v type /arraytype eq {
/vlen v length def
/cpdvlen cpdv length def
vlen cpdvlen eq {
0 1 vlen 1 sub {
/i exch def
/obj v i get def
/cpdobj cpdv i get def
obj cpdobj ne {
/upd true def
exit
} if
} for
} {
/upd true def
} ifelse
} {
v type /dicttype eq {
v {
/dv exch def
/dk exch def
/cpddv cpdv dk get def
dv cpddv ne {
/upd true def
exit
} if
} forall
} {
/upd true def
} ifelse
} ifelse
} if
} ifelse
upd true eq {
d k v put
} if
} if
} if
} forall
d length 0 gt {
d setpagedevice
} if
} bd
%%EndResource
%%BeginResource: procset (Apache XML Graphics EPS ProcSet) 1.0 0
%%Version: 1.0 0
%%Copyright: (Copyright 2002-2003 The Apache Software Foundation. License terms: http://www.apache.org/licenses/LICENSE-2.0)
/BeginEPSF { %def
/b4_Inc_state save def         % Save state for cleanup
/dict_count countdictstack def % Count objects on dict stack
/op_count count 1 sub def      % Count objects on operand stack
userdict begin                 % Push userdict on dict stack
/showpage { } def              % Redefine showpage, { } = null proc
0 setgray 0 setlinecap         % Prepare graphics state
1 setlinewidth 0 setlinejoin
10 setmiterlimit [ ] 0 setdash newpath
/languagelevel where           % If level not equal to 1 then
{pop languagelevel             % set strokeadjust and
1 ne                           % overprint to their defaults.
{false setstrokeadjust false setoverprint
} if
} if
} bd
/EndEPSF { %def
count op_count sub {pop} repeat            % Clean up stacks
countdictstack dict_count sub {end} repeat
b4_Inc_state restore
} bd
%%EndResource
%FOPBeginFontDict
%%IncludeResource: font Courier-Bold
%%IncludeResource: font Helvetica
%%IncludeResource: font Courier-BoldOblique
%%IncludeResource: font Courier-Oblique
%%IncludeResource: font Times-Roman
%%IncludeResource: font Helvetica-BoldOblique
%%IncludeResource: font Helvetica-Bold
%%IncludeResource: font Helvetica-Oblique
%%IncludeResource: font Times-BoldItalic
%%IncludeResource: font Courier
%%IncludeResource: font Times-Italic
%%IncludeResource: font Times-Bold
%%IncludeResource: font Symbol
%%IncludeResource: font ZapfDingbats
%FOPEndFontDict
%%BeginResource: encoding WinAnsiEncoding
/WinAnsiEncoding [
/.notdef /.notdef /.notdef /.notdef /.notdef
/.notdef /.notdef /.notdef /.notdef /.notdef
/.notdef /.notdef /.notdef /.notdef /.notdef
/.notdef /.notdef /.notdef /.notdef /.notdef
/.notdef /.notdef /.notdef /.notdef /.notdef
/.notdef /.notdef /.notdef /.notdef /.notdef
/.notdef /.notdef /space /exclam /quotedbl
/numbersign /dollar /percent /ampersand /quotesingle
/parenleft /parenright /asterisk /plus /comma
/hyphen /period /slash /zero /one
/two /three /four /five /six
/seven /eight /nine /colon /semicolon
/less /equal /greater /question /at
/A /B /C /D /E
/F /G /H /I /J
/K /L /M /N /O
/P /Q /R /S /T
/U /V /W /X /Y
/Z /bracketleft /backslash /bracketright /asciicircum
/underscore /quoteleft /a /b /c
/d /e /f /g /h
/i /j /k /l /m
/n /o /p /q /r
/s /t /u /v /w
/x /y /z /braceleft /bar
/braceright /asciitilde /bullet /Euro /bullet
/quotesinglbase /florin /quotedblbase /ellipsis /dagger
/daggerdbl /circumflex /perthousand /Scaron /guilsinglleft
/OE /bullet /Zcaron /bullet /bullet
/quoteleft /quoteright /quotedblleft /quotedblright /bullet
/endash /emdash /asciitilde /trademark /scaron
/guilsinglright /oe /bullet /zcaron /Ydieresis
/space /exclamdown /cent /sterling /currency
/yen /brokenbar /section /dieresis /copyright
/ordfeminine /guillemotleft /logicalnot /sfthyphen /registered
/macron /degree /plusminus /twosuperior /threesuperior
/acute /mu /paragraph /middot /cedilla
/onesuperior /ordmasculine /guillemotright /onequarter /onehalf
/threequarters /questiondown /Agrave /Aacute /Acircumflex
/Atilde /Adieresis /Aring /AE /Ccedilla
/Egrave /Eacute /Ecircumflex /Edieresis /Igrave
/Iacute /Icircumflex /Idieresis /Eth /Ntilde
/Ograve /Oacute /Ocircumflex /Otilde /Odieresis
/multiply /Oslash /Ugrave /Uacute /Ucircumflex
/Udieresis /Yacute /Thorn /germandbls /agrave
/aacute /acircumflex /atilde /adieresis /aring
/ae /ccedilla /egrave /eacute /ecircumflex
/edieresis /igrave /iacute /icircumflex /idieresis
/eth /ntilde /ograve /oacute /ocircumflex
/otilde /odieresis /divide /oslash /ugrave
/uacute /ucircumflex /udieresis /yacute /thorn
/ydieresis
] def
%%EndResource
%FOPBeginFontReencode
/Courier-Bold findfont
dup length dict begin
  {1 index /FID ne {def} {pop pop} ifelse} forall
  /Encoding WinAnsiEncoding def
  currentdict
end
/Courier-Bold exch definefont pop
/Helvetica findfont
dup length dict begin
  {1 index /FID ne {def} {pop pop} ifelse} forall
  /Encoding WinAnsiEncoding def
  currentdict
end
/Helvetica exch definefont pop
/Courier-BoldOblique findfont
dup length dict begin
  {1 index /FID ne {def} {pop pop} ifelse} forall
  /Encoding WinAnsiEncoding def
  currentdict
end
/Courier-BoldOblique exch definefont pop
/Courier-Oblique findfont
dup length dict begin
  {1 index /FID ne {def} {pop pop} ifelse} forall
  /Encoding WinAnsiEncoding def
  currentdict
end
/Courier-Oblique exch definefont pop
/Times-Roman findfont
dup length dict begin
  {1 index /FID ne {def} {pop pop} ifelse} forall
  /Encoding WinAnsiEncoding def
  currentdict
end
/Times-Roman exch definefont pop
/Helvetica-BoldOblique findfont
dup length dict begin
  {1 index /FID ne {def} {pop pop} ifelse} forall
  /Encoding WinAnsiEncoding def
  currentdict
end
/Helvetica-BoldOblique exch definefont pop
/Helvetica-Bold findfont
dup length dict begin
  {1 index /FID ne {def} {pop pop} ifelse} forall
  /Encoding WinAnsiEncoding def
  currentdict
end
/Helvetica-Bold exch definefont pop
/Helvetica-Oblique findfont
dup length dict begin
  {1 index /FID ne {def} {pop pop} ifelse} forall
  /Encoding WinAnsiEncoding def
  currentdict
end
/Helvetica-Oblique exch definefont pop
/Times-BoldItalic findfont
dup length dict begin
  {1 index /FID ne {def} {pop pop} ifelse} forall
  /Encoding WinAnsiEncoding def
  currentdict
end
/Times-BoldItalic exch definefont pop
/Courier findfont
dup length dict begin
  {1 index /FID ne {def} {pop pop} ifelse} forall
  /Encoding WinAnsiEncoding def
  currentdict
end
/Courier exch definefont pop
/Times-Italic findfont
dup length dict begin
  {1 index /FID ne {def} {pop pop} ifelse} forall
  /Encoding WinAnsiEncoding def
  currentdict
end
/Times-Italic exch definefont pop
/Times-Bold findfont
dup length dict begin
  {1 index /FID ne {def} {pop pop} ifelse} forall
  /Encoding WinAnsiEncoding def
  currentdict
end
/Times-Bold exch definefont pop
%FOPEndFontReencode
%%EndProlog
%%Page: 1 1
%%PageBoundingBox: 0 0 560 420
%%BeginPageSetup
[1 0 0 -1 0 420] CT
%%EndPageSetup
GS
1 GC
N
0 0 560 420 re
f
GR
GS
1 GC
N
0 0 560 420 re
f
GR
GS
1 GC
N
73 374 M
507 374 L
507 31 L
73 31 L
cp
f
GR
GS
0.873 GC
2 setlinecap
10.0 ML
N
73 374 M
73 31 L
S
GR
GS
0.873 GC
2 setlinecap
10.0 ML
N
121.222 374 M
121.222 31 L
S
GR
GS
0.873 GC
2 setlinecap
10.0 ML
N
169.444 374 M
169.444 31 L
S
GR
GS
0.873 GC
2 setlinecap
10.0 ML
N
217.667 374 M
217.667 31 L
S
GR
GS
0.873 GC
2 setlinecap
10.0 ML
N
265.889 374 M
265.889 31 L
S
GR
GS
0.873 GC
2 setlinecap
10.0 ML
N
314.111 374 M
314.111 31 L
S
GR
GS
0.873 GC
2 setlinecap
10.0 ML
N
362.333 374 M
362.333 31 L
S
GR
GS
0.873 GC
2 setlinecap
10.0 ML
N
410.556 374 M
410.556 31 L
S
GR
GS
0.873 GC
2 setlinecap
10.0 ML
N
458.778 374 M
458.778 31 L
S
GR
GS
0.873 GC
2 setlinecap
10.0 ML
N
507 374 M
507 31 L
S
GR
GS
0.873 GC
2 setlinecap
10.0 ML
N
507 374 M
73 374 L
S
GR
GS
0.873 GC
2 setlinecap
10.0 ML
N
507 339.7 M
73 339.7 L
S
GR
GS
0.873 GC
2 setlinecap
10.0 ML
N
507 305.4 M
73 305.4 L
S
GR
GS
0.873 GC
2 setlinecap
10.0 ML
N
507 271.1 M
73 271.1 L
S
GR
GS
0.873 GC
2 setlinecap
10.0 ML
N
507 236.8 M
73 236.8 L
S
GR
GS
0.873 GC
2 setlinecap
10.0 ML
N
507 202.5 M
73 202.5 L
S
GR
GS
0.873 GC
2 setlinecap
10.0 ML
N
507 168.2 M
73 168.2 L
S
GR
GS
0.873 GC
2 setlinecap
10.0 ML
N
507 133.9 M
73 133.9 L
S
GR
GS
0.873 GC
2 setlinecap
10.0 ML
N
507 99.6 M
73 99.6 L
S
GR
GS
0.873 GC
2 setlinecap
10.0 ML
N
507 65.3 M
73 65.3 L
S
GR
GS
0.873 GC
2 setlinecap
10.0 ML
N
507 31 M
73 31 L
S
GR
GS
[1 0 0 1 290 392.79999] CT
0.149 GC
/Helvetica 20 F
GS
[1 0 0 1 0 0] CT
-69.473 15.4 moveto 
1 -1 scale
(Fluid Energy [J]) t 
GR
GR
GS
0.149 GC
2 setlinecap
10.0 ML
N
73 374 M
507 374 L
S
GR
GS
0.149 GC
2 setlinecap
10.0 ML
N
73 374 M
73 369.66 L
S
GR
GS
0.149 GC
2 setlinecap
10.0 ML
N
121.222 374 M
121.222 369.66 L
S
GR
GS
0.149 GC
2 setlinecap
10.0 ML
N
169.444 374 M
169.444 369.66 L
S
GR
GS
0.149 GC
2 setlinecap
10.0 ML
N
217.667 374 M
217.667 369.66 L
S
GR
GS
0.149 GC
2 setlinecap
10.0 ML
N
265.889 374 M
265.889 369.66 L
S
GR
GS
0.149 GC
2 setlinecap
10.0 ML
N
314.111 374 M
314.111 369.66 L
S
GR
GS
0.149 GC
2 setlinecap
10.0 ML
N
362.333 374 M
362.333 369.66 L
S
GR
GS
0.149 GC
2 setlinecap
10.0 ML
N
410.556 374 M
410.556 369.66 L
S
GR
GS
0.149 GC
2 setlinecap
10.0 ML
N
458.778 374 M
458.778 369.66 L
S
GR
GS
0.149 GC
2 setlinecap
10.0 ML
N
507 374 M
507 369.66 L
S
GR
GS
[1 0 0 1 73 378.79999] CT
0.149 GC
/Helvetica 14 F
GS
[1 0 0 1 0 0] CT
-3.893 10.78 moveto 
1 -1 scale
(0) t 
GR
GR
GS
[1 0 0 1 121.22222 378.79999] CT
0.149 GC
/Helvetica 14 F
GS
[1 0 0 1 0 0] CT
-9.731 10.78 moveto 
1 -1 scale
(0.2) t 
GR
GR
GS
[1 0 0 1 169.44444 378.79999] CT
0.149 GC
/Helvetica 14 F
GS
[1 0 0 1 0 0] CT
-9.731 10.78 moveto 
1 -1 scale
(0.4) t 
GR
GR
GS
[1 0 0 1 217.66667 378.79999] CT
0.149 GC
/Helvetica 14 F
GS
[1 0 0 1 0 0] CT
-9.731 10.78 moveto 
1 -1 scale
(0.6) t 
GR
GR
GS
[1 0 0 1 265.88889 378.79999] CT
0.149 GC
/Helvetica 14 F
GS
[1 0 0 1 0 0] CT
-9.731 10.78 moveto 
1 -1 scale
(0.8) t 
GR
GR
GS
[1 0 0 1 314.11111 378.79999] CT
0.149 GC
/Helvetica 14 F
GS
[1 0 0 1 0 0] CT
-3.893 10.78 moveto 
1 -1 scale
(1) t 
GR
GR
GS
[1 0 0 1 362.33334 378.79999] CT
0.149 GC
/Helvetica 14 F
GS
[1 0 0 1 0 0] CT
-9.731 10.78 moveto 
1 -1 scale
(1.2) t 
GR
GR
GS
[1 0 0 1 410.55554 378.79999] CT
0.149 GC
/Helvetica 14 F
GS
[1 0 0 1 0 0] CT
-9.731 10.78 moveto 
1 -1 scale
(1.4) t 
GR
GR
GS
[1 0 0 1 458.77777 378.79999] CT
0.149 GC
/Helvetica 14 F
GS
[1 0 0 1 0 0] CT
-9.731 10.78 moveto 
1 -1 scale
(1.6) t 
GR
GR
GS
[1 0 0 1 507 378.79999] CT
0.149 GC
/Helvetica 14 F
GS
[1 0 0 1 0 0] CT
-9.731 10.78 moveto 
1 -1 scale
(1.8) t 
GR
GR
GS
[0 -1 1 0 41.8416 202.5] CT
0.149 GC
/Helvetica 20 F
GS
[1 0 0 1 0 0] CT
-91.182 -3.6 moveto 
1 -1 scale
(Bend Angle [degree]) t 
GR
GR
GS
0.149 GC
2 setlinecap
10.0 ML
N
73 374 M
73 31 L
S
GR
GS
0.149 GC
2 setlinecap
10.0 ML
N
73 374 M
77.34 374 L
S
GR
GS
0.149 GC
2 setlinecap
10.0 ML
N
73 339.7 M
77.34 339.7 L
S
GR
GS
0.149 GC
2 setlinecap
10.0 ML
N
73 305.4 M
77.34 305.4 L
S
GR
GS
0.149 GC
2 setlinecap
10.0 ML
N
73 271.1 M
77.34 271.1 L
S
GR
GS
0.149 GC
2 setlinecap
10.0 ML
N
73 236.8 M
77.34 236.8 L
S
GR
GS
0.149 GC
2 setlinecap
10.0 ML
N
73 202.5 M
77.34 202.5 L
S
GR
GS
0.149 GC
2 setlinecap
10.0 ML
N
73 168.2 M
77.34 168.2 L
S
GR
GS
0.149 GC
2 setlinecap
10.0 ML
N
73 133.9 M
77.34 133.9 L
S
GR
GS
0.149 GC
2 setlinecap
10.0 ML
N
73 99.6 M
77.34 99.6 L
S
GR
GS
0.149 GC
2 setlinecap
10.0 ML
N
73 65.3 M
77.34 65.3 L
S
GR
GS
0.149 GC
2 setlinecap
10.0 ML
N
73 31 M
77.34 31 L
S
GR
GS
[1 0 0 1 68.2 374] CT
0.149 GC
/Helvetica 14 F
GS
[1 0 0 1 0 0] CT
-7.786 4.28 moveto 
1 -1 scale
(0) t 
GR
GR
GS
[1 0 0 1 68.2 339.70001] CT
0.149 GC
/Helvetica 14 F
GS
[1 0 0 1 0 0] CT
-15.572 4.28 moveto 
1 -1 scale
(10) t 
GR
GR
GS
[1 0 0 1 68.2 305.39999] CT
0.149 GC
/Helvetica 14 F
GS
[1 0 0 1 0 0] CT
-15.572 4.28 moveto 
1 -1 scale
(20) t 
GR
GR
GS
[1 0 0 1 68.2 271.10001] CT
0.149 GC
/Helvetica 14 F
GS
[1 0 0 1 0 0] CT
-15.572 4.28 moveto 
1 -1 scale
(30) t 
GR
GR
GS
[1 0 0 1 68.2 236.8] CT
0.149 GC
/Helvetica 14 F
GS
[1 0 0 1 0 0] CT
-15.572 4.28 moveto 
1 -1 scale
(40) t 
GR
GR
GS
[1 0 0 1 68.2 202.5] CT
0.149 GC
/Helvetica 14 F
GS
[1 0 0 1 0 0] CT
-15.572 4.28 moveto 
1 -1 scale
(50) t 
GR
GR
GS
[1 0 0 1 68.2 168.2] CT
0.149 GC
/Helvetica 14 F
GS
[1 0 0 1 0 0] CT
-15.572 4.28 moveto 
1 -1 scale
(60) t 
GR
GR
GS
[1 0 0 1 68.2 133.89999] CT
0.149 GC
/Helvetica 14 F
GS
[1 0 0 1 0 0] CT
-15.572 4.28 moveto 
1 -1 scale
(70) t 
GR
GR
GS
[1 0 0 1 68.2 99.6] CT
0.149 GC
/Helvetica 14 F
GS
[1 0 0 1 0 0] CT
-15.572 4.28 moveto 
1 -1 scale
(80) t 
GR
GR
GS
[1 0 0 1 68.2 65.3] CT
0.149 GC
/Helvetica 14 F
GS
[1 0 0 1 0 0] CT
-15.572 4.28 moveto 
1 -1 scale
(90) t 
GR
GR
GS
[1 0 0 1 68.2 31] CT
0.149 GC
/Helvetica 14 F
GS
[1 0 0 1 0 0] CT
-23.358 4.28 moveto 
1 -1 scale
(100) t 
GR
GR
GS
2 setlinecap
10.0 ML
2 LW
N
73 374 M
74.301 373.827 L
78.396 373.569 L
85.268 373.125 L
94.811 372.373 L
107.305 370.932 L
122.748 368.184 L
141.314 357.488 L
162.31 315.593 L
184.087 284.665 L
206.211 263.471 L
229.028 240.552 L
252.887 219.235 L
278.308 198.657 L
305.29 177.463 L
333.834 159.349 L
364.373 141.975 L
396.735 125.34 L
430.831 110.307 L
466.663 95.767 L
S
GR
GS
2 setlinecap
10.0 ML
2 LW
N
76.5 373.5 M
75.621 371.379 L
73.5 370.5 L
71.379 371.379 L
70.5 373.5 L
71.379 375.621 L
73.5 376.5 L
75.621 375.621 L
76.5 373.5 L
S
GR
GS
2 setlinecap
10.0 ML
2 LW
N
77.5 373.5 M
76.621 371.379 L
74.5 370.5 L
72.379 371.379 L
71.5 373.5 L
72.379 375.621 L
74.5 376.5 L
76.621 375.621 L
77.5 373.5 L
S
GR
GS
2 setlinecap
10.0 ML
2 LW
N
81.5 373.5 M
80.621 371.379 L
78.5 370.5 L
76.379 371.379 L
75.5 373.5 L
76.379 375.621 L
78.5 376.5 L
80.621 375.621 L
81.5 373.5 L
S
GR
GS
2 setlinecap
10.0 ML
2 LW
N
88.5 373.5 M
87.621 371.379 L
85.5 370.5 L
83.379 371.379 L
82.5 373.5 L
83.379 375.621 L
85.5 376.5 L
87.621 375.621 L
88.5 373.5 L
S
GR
GS
2 setlinecap
10.0 ML
2 LW
N
97.5 372.5 M
96.621 370.379 L
94.5 369.5 L
92.379 370.379 L
91.5 372.5 L
92.379 374.621 L
94.5 375.5 L
96.621 374.621 L
97.5 372.5 L
S
GR
GS
2 setlinecap
10.0 ML
2 LW
N
110.5 370.5 M
109.621 368.379 L
107.5 367.5 L
105.379 368.379 L
104.5 370.5 L
105.379 372.621 L
107.5 373.5 L
109.621 372.621 L
110.5 370.5 L
S
GR
GS
2 setlinecap
10.0 ML
2 LW
N
125.5 368.5 M
124.621 366.379 L
122.5 365.5 L
120.379 366.379 L
119.5 368.5 L
120.379 370.621 L
122.5 371.5 L
124.621 370.621 L
125.5 368.5 L
S
GR
GS
2 setlinecap
10.0 ML
2 LW
N
144.5 357.5 M
143.621 355.379 L
141.5 354.5 L
139.379 355.379 L
138.5 357.5 L
139.379 359.621 L
141.5 360.5 L
143.621 359.621 L
144.5 357.5 L
S
GR
GS
2 setlinecap
10.0 ML
2 LW
N
165.5 315.5 M
164.621 313.379 L
162.5 312.5 L
160.379 313.379 L
159.5 315.5 L
160.379 317.621 L
162.5 318.5 L
164.621 317.621 L
165.5 315.5 L
S
GR
GS
2 setlinecap
10.0 ML
2 LW
N
187.5 284.5 M
186.621 282.379 L
184.5 281.5 L
182.379 282.379 L
181.5 284.5 L
182.379 286.621 L
184.5 287.5 L
186.621 286.621 L
187.5 284.5 L
S
GR
GS
2 setlinecap
10.0 ML
2 LW
N
209.5 263.5 M
208.621 261.379 L
206.5 260.5 L
204.379 261.379 L
203.5 263.5 L
204.379 265.621 L
206.5 266.5 L
208.621 265.621 L
209.5 263.5 L
S
GR
GS
2 setlinecap
10.0 ML
2 LW
N
232.5 240.5 M
231.621 238.379 L
229.5 237.5 L
227.379 238.379 L
226.5 240.5 L
227.379 242.621 L
229.5 243.5 L
231.621 242.621 L
232.5 240.5 L
S
GR
GS
2 setlinecap
10.0 ML
2 LW
N
255.5 219.5 M
254.621 217.379 L
252.5 216.5 L
250.379 217.379 L
249.5 219.5 L
250.379 221.621 L
252.5 222.5 L
254.621 221.621 L
255.5 219.5 L
S
GR
GS
2 setlinecap
10.0 ML
2 LW
N
281.5 198.5 M
280.621 196.379 L
278.5 195.5 L
276.379 196.379 L
275.5 198.5 L
276.379 200.621 L
278.5 201.5 L
280.621 200.621 L
281.5 198.5 L
S
GR
GS
2 setlinecap
10.0 ML
2 LW
N
308.5 177.5 M
307.621 175.379 L
305.5 174.5 L
303.379 175.379 L
302.5 177.5 L
303.379 179.621 L
305.5 180.5 L
307.621 179.621 L
308.5 177.5 L
S
GR
GS
2 setlinecap
10.0 ML
2 LW
N
336.5 159.5 M
335.621 157.379 L
333.5 156.5 L
331.379 157.379 L
330.5 159.5 L
331.379 161.621 L
333.5 162.5 L
335.621 161.621 L
336.5 159.5 L
S
GR
GS
2 setlinecap
10.0 ML
2 LW
N
367.5 141.5 M
366.621 139.379 L
364.5 138.5 L
362.379 139.379 L
361.5 141.5 L
362.379 143.621 L
364.5 144.5 L
366.621 143.621 L
367.5 141.5 L
S
GR
GS
2 setlinecap
10.0 ML
2 LW
N
399.5 125.5 M
398.621 123.379 L
396.5 122.5 L
394.379 123.379 L
393.5 125.5 L
394.379 127.621 L
396.5 128.5 L
398.621 127.621 L
399.5 125.5 L
S
GR
GS
2 setlinecap
10.0 ML
2 LW
N
433.5 110.5 M
432.621 108.379 L
430.5 107.5 L
428.379 108.379 L
427.5 110.5 L
428.379 112.621 L
430.5 113.5 L
432.621 112.621 L
433.5 110.5 L
S
GR
GS
2 setlinecap
10.0 ML
2 LW
N
469.5 95.5 M
468.621 93.379 L
466.5 92.5 L
464.379 93.379 L
463.5 95.5 L
464.379 97.621 L
466.5 98.5 L
468.621 97.621 L
469.5 95.5 L
S
GR
GS
1 0 0 RC
2 setlinecap
10.0 ML
2 LW
N
73 374 M
74.171 370.045 L
77.859 365.347 L
84.149 359.964 L
92.738 353.212 L
103.149 343.578 L
115.903 330.733 L
130.738 312.395 L
146.963 287.466 L
164.054 262.115 L
182.013 234.819 L
201.274 202.2 L
221.142 178.116 L
241.791 147.948 L
263.307 126.399 L
S
GR
GS
1 0 0 RC
2 setlinecap
10.0 ML
2 LW
N
68 373.5 M
79 373.5 L
S
GR
GS
1 0 0 RC
2 setlinecap
10.0 ML
2 LW
N
73.5 379 M
73.5 368 L
S
GR
GS
1 0 0 RC
2 setlinecap
10.0 ML
2 LW
N
69 370.5 M
80 370.5 L
S
GR
GS
1 0 0 RC
2 setlinecap
10.0 ML
2 LW
N
74.5 376 M
74.5 365 L
S
GR
GS
1 0 0 RC
2 setlinecap
10.0 ML
2 LW
N
72 365.5 M
83 365.5 L
S
GR
GS
1 0 0 RC
2 setlinecap
10.0 ML
2 LW
N
77.5 371 M
77.5 360 L
S
GR
GS
1 0 0 RC
2 setlinecap
10.0 ML
2 LW
N
79 359.5 M
90 359.5 L
S
GR
GS
1 0 0 RC
2 setlinecap
10.0 ML
2 LW
N
84.5 365 M
84.5 354 L
S
GR
GS
1 0 0 RC
2 setlinecap
10.0 ML
2 LW
N
87 353.5 M
98 353.5 L
S
GR
GS
1 0 0 RC
2 setlinecap
10.0 ML
2 LW
N
92.5 359 M
92.5 348 L
S
GR
GS
1 0 0 RC
2 setlinecap
10.0 ML
2 LW
N
98 343.5 M
109 343.5 L
S
GR
GS
1 0 0 RC
2 setlinecap
10.0 ML
2 LW
N
103.5 349 M
103.5 338 L
S
GR
GS
1 0 0 RC
2 setlinecap
10.0 ML
2 LW
N
110 330.5 M
121 330.5 L
S
GR
GS
1 0 0 RC
2 setlinecap
10.0 ML
2 LW
N
115.5 336 M
115.5 325 L
S
GR
GS
1 0 0 RC
2 setlinecap
10.0 ML
2 LW
N
125 312.5 M
136 312.5 L
S
GR
GS
1 0 0 RC
2 setlinecap
10.0 ML
2 LW
N
130.5 318 M
130.5 307 L
S
GR
GS
1 0 0 RC
2 setlinecap
10.0 ML
2 LW
N
141 287.5 M
152 287.5 L
S
GR
GS
1 0 0 RC
2 setlinecap
10.0 ML
2 LW
N
146.5 293 M
146.5 282 L
S
GR
GS
1 0 0 RC
2 setlinecap
10.0 ML
2 LW
N
159 262.5 M
170 262.5 L
S
GR
GS
1 0 0 RC
2 setlinecap
10.0 ML
2 LW
N
164.5 268 M
164.5 257 L
S
GR
GS
1 0 0 RC
2 setlinecap
10.0 ML
2 LW
N
177 234.5 M
188 234.5 L
S
GR
GS
1 0 0 RC
2 setlinecap
10.0 ML
2 LW
N
182.5 240 M
182.5 229 L
S
GR
GS
1 0 0 RC
2 setlinecap
10.0 ML
2 LW
N
196 202.5 M
207 202.5 L
S
GR
GS
1 0 0 RC
2 setlinecap
10.0 ML
2 LW
N
201.5 208 M
201.5 197 L
S
GR
GS
1 0 0 RC
2 setlinecap
10.0 ML
2 LW
N
216 178.5 M
227 178.5 L
S
GR
GS
1 0 0 RC
2 setlinecap
10.0 ML
2 LW
N
221.5 184 M
221.5 173 L
S
GR
GS
1 0 0 RC
2 setlinecap
10.0 ML
2 LW
N
236 147.5 M
247 147.5 L
S
GR
GS
1 0 0 RC
2 setlinecap
10.0 ML
2 LW
N
241.5 153 M
241.5 142 L
S
GR
GS
1 0 0 RC
2 setlinecap
10.0 ML
2 LW
N
258 126.5 M
269 126.5 L
S
GR
GS
1 0 0 RC
2 setlinecap
10.0 ML
2 LW
N
263.5 132 M
263.5 121 L
S
GR
GS
0 0 1 RC
2 setlinecap
10.0 ML
2 LW
N
73 374 M
74.345 363.548 L
77.859 352.379 L
83.498 341.701 L
91.567 331.853 L
101.978 317.778 L
114.645 303.629 L
129.741 285.894 L
147.787 268.613 L
168.869 242.275 L
192.988 216.673 L
220.057 187.016 L
249.903 156.094 L
282.264 119.493 L
317.055 83.647 L
353.754 67.988 L
392.275 51.385 L
432.792 36.104 L
S
GR
GS
0 0 1 RC
2 setlinecap
10.0 ML
2 LW
N
71.16 375.84 M
71.16 371.16 L
75.84 371.16 L
75.84 375.84 L
71.16 375.84 L
S
GR
GS
0 0 1 RC
2 setlinecap
10.0 ML
2 LW
N
72.16 365.84 M
72.16 361.16 L
76.84 361.16 L
76.84 365.84 L
72.16 365.84 L
S
GR
GS
0 0 1 RC
2 setlinecap
10.0 ML
2 LW
N
75.16 354.84 M
75.16 350.16 L
79.84 350.16 L
79.84 354.84 L
75.16 354.84 L
S
GR
GS
0 0 1 RC
2 setlinecap
10.0 ML
2 LW
N
81.16 343.84 M
81.16 339.16 L
85.84 339.16 L
85.84 343.84 L
81.16 343.84 L
S
GR
GS
0 0 1 RC
2 setlinecap
10.0 ML
2 LW
N
89.16 333.84 M
89.16 329.16 L
93.84 329.16 L
93.84 333.84 L
89.16 333.84 L
S
GR
GS
0 0 1 RC
2 setlinecap
10.0 ML
2 LW
N
99.16 319.84 M
99.16 315.16 L
103.84 315.16 L
103.84 319.84 L
99.16 319.84 L
S
GR
GS
0 0 1 RC
2 setlinecap
10.0 ML
2 LW
N
112.16 305.84 M
112.16 301.16 L
116.84 301.16 L
116.84 305.84 L
112.16 305.84 L
S
GR
GS
0 0 1 RC
2 setlinecap
10.0 ML
2 LW
N
127.16 287.84 M
127.16 283.16 L
131.84 283.16 L
131.84 287.84 L
127.16 287.84 L
S
GR
GS
0 0 1 RC
2 setlinecap
10.0 ML
2 LW
N
145.16 270.84 M
145.16 266.16 L
149.84 266.16 L
149.84 270.84 L
145.16 270.84 L
S
GR
GS
0 0 1 RC
2 setlinecap
10.0 ML
2 LW
N
166.16 244.84 M
166.16 240.16 L
170.84 240.16 L
170.84 244.84 L
166.16 244.84 L
S
GR
GS
0 0 1 RC
2 setlinecap
10.0 ML
2 LW
N
190.16 218.84 M
190.16 214.16 L
194.84 214.16 L
194.84 218.84 L
190.16 218.84 L
S
GR
GS
0 0 1 RC
2 setlinecap
10.0 ML
2 LW
N
218.16 189.84 M
218.16 185.16 L
222.84 185.16 L
222.84 189.84 L
218.16 189.84 L
S
GR
GS
0 0 1 RC
2 setlinecap
10.0 ML
2 LW
N
247.16 158.84 M
247.16 154.16 L
251.84 154.16 L
251.84 158.84 L
247.16 158.84 L
S
GR
GS
0 0 1 RC
2 setlinecap
10.0 ML
2 LW
N
280.16 121.84 M
280.16 117.16 L
284.84 117.16 L
284.84 121.84 L
280.16 121.84 L
S
GR
GS
0 0 1 RC
2 setlinecap
10.0 ML
2 LW
N
315.16 85.84 M
315.16 81.16 L
319.84 81.16 L
319.84 85.84 L
315.16 85.84 L
S
GR
GS
0 0 1 RC
2 setlinecap
10.0 ML
2 LW
N
351.16 69.84 M
351.16 65.16 L
355.84 65.16 L
355.84 69.84 L
351.16 69.84 L
S
GR
GS
0 0 1 RC
2 setlinecap
10.0 ML
2 LW
N
390.16 53.84 M
390.16 49.16 L
394.84 49.16 L
394.84 53.84 L
390.16 53.84 L
S
GR
GS
0 0 1 RC
2 setlinecap
10.0 ML
2 LW
N
430.16 38.84 M
430.16 34.16 L
434.84 34.16 L
434.84 38.84 L
430.16 38.84 L
S
GR
GS
1 GC
N
83 103 M
83 41 L
217 41 L
217 103 L
cp
f
GR
GS
[1 0 0 1 121.9285 52.5] CT
/Helvetica 20 F
GS
[1 0 0 1 0 0] CT
0 5.9 moveto 
1 -1 scale
(Cylindrical) t 
GR
GR
GS
2 setlinecap
10.0 ML
2 LW
N
88.989 52.5 M
118.934 52.5 L
S
GR
GS
2 setlinecap
10.0 ML
2 LW
N
106.5 52.5 M
105.621 50.379 L
103.5 49.5 L
101.379 50.379 L
100.5 52.5 L
101.379 54.621 L
103.5 55.5 L
105.621 54.621 L
106.5 52.5 L
S
GR
GS
[1 0 0 1 121.9285 72] CT
/Helvetica 20 F
GS
[1 0 0 1 0 0] CT
0 5.9 moveto 
1 -1 scale
(Ribbed) t 
GR
GR
GS
1 0 0 RC
2 setlinecap
10.0 ML
2 LW
N
88.989 72 M
118.934 72 L
S
GR
GS
1 0 0 RC
2 setlinecap
10.0 ML
2 LW
N
98 71.5 M
109 71.5 L
S
GR
GS
1 0 0 RC
2 setlinecap
10.0 ML
2 LW
N
103.5 77 M
103.5 66 L
S
GR
GS
[1 0 0 1 121.9285 91.5] CT
/Helvetica 20 F
GS
[1 0 0 1 0 0] CT
0 5.9 moveto 
1 -1 scale
(Pleated) t 
GR
GR
GS
0 0 1 RC
2 setlinecap
10.0 ML
2 LW
N
88.989 91.5 M
118.934 91.5 L
S
GR
GS
0 0 1 RC
2 setlinecap
10.0 ML
2 LW
N
101.16 93.84 M
101.16 89.16 L
105.84 89.16 L
105.84 93.84 L
101.16 93.84 L
S
GR
GS
0.149 GC
2 setlinecap
10.0 ML
N
83 103 M
83 41 L
217 41 L
217 103 L
83 103 L
S
GR
%%Trailer
%%Pages: 1
%%EOF
