%!PS-Adobe-3.0 EPSF-3.0
%%Creator: MATLAB, The MathWorks, Inc. Version 8.1.0.604 (R2013a). Operating System: Microsoft Windows 7.
%%Title: C:\Users\Andy\Desktop\thesis\Document\planar_multi_segment\2Dcharacterization\Matlab\BendAngleVsVolume.eps
%%CreationDate: 12/01/2014  22:45:12
%%DocumentNeededFonts: Helvetica
%%DocumentProcessColors: Cyan Magenta Yellow Black
%%LanguageLevel: 2
%%Pages: 1
%%BoundingBox:    13   166   597   626
%%EndComments

%%BeginProlog
% MathWorks dictionary
/MathWorks 160 dict begin
% definition operators
/bdef {bind def} bind def
/ldef {load def} bind def
/xdef {exch def} bdef
/xstore {exch store} bdef
% operator abbreviations
/c  /clip ldef
/cc /concat ldef
/cp /closepath ldef
/gr /grestore ldef
/gs /gsave ldef
/mt /moveto ldef
/np /newpath ldef
/cm /currentmatrix ldef
/sm /setmatrix ldef
/rm /rmoveto ldef
/rl /rlineto ldef
/s {show newpath} bdef
/sc {setcmykcolor} bdef
/sr /setrgbcolor ldef
/sg /setgray ldef
/w /setlinewidth ldef
/j /setlinejoin ldef
/cap /setlinecap ldef
/rc {rectclip} bdef
/rf {rectfill} bdef
% page state control
/pgsv () def
/bpage {/pgsv save def} bdef
/epage {pgsv restore} bdef
/bplot /gsave ldef
/eplot {stroke grestore} bdef
% orientation switch
/portraitMode 0 def /landscapeMode 1 def /rotateMode 2 def
% coordinate system mappings
/dpi2point 0 def
% font control
/FontSize 0 def
/FMS {/FontSize xstore findfont [FontSize 0 0 FontSize neg 0 0]
  makefont setfont} bdef
/ISOLatin1Encoding where {pop /WindowsLatin1Encoding 256 array bdef
ISOLatin1Encoding WindowsLatin1Encoding copy pop
/.notdef/.notdef/quotesinglbase/florin/quotedblbase/ellipsis/dagger
/daggerdbl/circumflex/perthousand/Scaron/guilsinglleft/OE/.notdef/.notdef
/.notdef/.notdef/quoteleft/quoteright/quotedblleft/quotedblright/bullet
/endash/emdash/tilde/trademark/scaron/guilsinglright/oe/.notdef/.notdef
/Ydieresis WindowsLatin1Encoding 128 32 getinterval astore pop}
{/WindowsLatin1Encoding StandardEncoding bdef} ifelse
/reencode {exch dup where {pop load} {pop StandardEncoding} ifelse
  exch dup 3 1 roll findfont dup length dict begin
  { 1 index /FID ne {def}{pop pop} ifelse } forall
  /Encoding exch def currentdict end definefont pop} bdef
/isroman {findfont /CharStrings get /Agrave known} bdef
/FMSR {3 1 roll 1 index dup isroman {reencode} {pop pop} ifelse
  exch FMS} bdef
/csm {1 dpi2point div -1 dpi2point div scale neg translate
 dup landscapeMode eq {pop -90 rotate}
  {rotateMode eq {90 rotate} if} ifelse} bdef
% line types: solid, dotted, dashed, dotdash
/SO { [] 0 setdash } bdef
/DO { [.5 dpi2point mul 4 dpi2point mul] 0 setdash } bdef
/DA { [6 dpi2point mul] 0 setdash } bdef
/DD { [.5 dpi2point mul 4 dpi2point mul 6 dpi2point mul 4
  dpi2point mul] 0 setdash } bdef
% macros for lines and objects
/L {lineto stroke} bdef
/MP {3 1 roll moveto 1 sub {rlineto} repeat} bdef
/AP {{rlineto} repeat} bdef
/PDlw -1 def
/W {/PDlw currentlinewidth def setlinewidth} def
/PP {closepath eofill} bdef
/DP {closepath stroke} bdef
/MR {4 -2 roll moveto dup  0 exch rlineto exch 0 rlineto
  neg 0 exch rlineto closepath} bdef
/FR {MR stroke} bdef
/PR {MR fill} bdef
/L1i {{currentfile picstr readhexstring pop} image} bdef
/tMatrix matrix def
/MakeOval {newpath tMatrix currentmatrix pop translate scale
0 0 1 0 360 arc tMatrix setmatrix} bdef
/FO {MakeOval stroke} bdef
/PO {MakeOval fill} bdef
/PD {currentlinewidth 2 div 0 360 arc fill
   PDlw -1 eq not {PDlw w /PDlw -1 def} if} def
/FA {newpath tMatrix currentmatrix pop translate scale
  0 0 1 5 -2 roll arc tMatrix setmatrix stroke} bdef
/PA {newpath tMatrix currentmatrix pop	translate 0 0 moveto scale
  0 0 1 5 -2 roll arc closepath tMatrix setmatrix fill} bdef
/FAn {newpath tMatrix currentmatrix pop translate scale
  0 0 1 5 -2 roll arcn tMatrix setmatrix stroke} bdef
/PAn {newpath tMatrix currentmatrix pop translate 0 0 moveto scale
  0 0 1 5 -2 roll arcn closepath tMatrix setmatrix fill} bdef
/vradius 0 def /hradius 0 def /lry 0 def
/lrx 0 def /uly 0 def /ulx 0 def /rad 0 def
/MRR {/vradius xdef /hradius xdef /lry xdef /lrx xdef /uly xdef
  /ulx xdef newpath tMatrix currentmatrix pop ulx hradius add uly
  vradius add translate hradius vradius scale 0 0 1 180 270 arc 
  tMatrix setmatrix lrx hradius sub uly vradius add translate
  hradius vradius scale 0 0 1 270 360 arc tMatrix setmatrix
  lrx hradius sub lry vradius sub translate hradius vradius scale
  0 0 1 0 90 arc tMatrix setmatrix ulx hradius add lry vradius sub
  translate hradius vradius scale 0 0 1 90 180 arc tMatrix setmatrix
  closepath} bdef
/FRR {MRR stroke } bdef
/PRR {MRR fill } bdef
/MlrRR {/lry xdef /lrx xdef /uly xdef /ulx xdef /rad lry uly sub 2 div def
  newpath tMatrix currentmatrix pop ulx rad add uly rad add translate
  rad rad scale 0 0 1 90 270 arc tMatrix setmatrix lrx rad sub lry rad
  sub translate rad rad scale 0 0 1 270 90 arc tMatrix setmatrix
  closepath} bdef
/FlrRR {MlrRR stroke } bdef
/PlrRR {MlrRR fill } bdef
/MtbRR {/lry xdef /lrx xdef /uly xdef /ulx xdef /rad lrx ulx sub 2 div def
  newpath tMatrix currentmatrix pop ulx rad add uly rad add translate
  rad rad scale 0 0 1 180 360 arc tMatrix setmatrix lrx rad sub lry rad
  sub translate rad rad scale 0 0 1 0 180 arc tMatrix setmatrix
  closepath} bdef
/FtbRR {MtbRR stroke } bdef
/PtbRR {MtbRR fill } bdef
/stri 6 array def /dtri 6 array def
/smat 6 array def /dmat 6 array def
/tmat1 6 array def /tmat2 6 array def /dif 3 array def
/asub {/ind2 exch def /ind1 exch def dup dup
  ind1 get exch ind2 get sub exch } bdef
/tri_to_matrix {
  2 0 asub 3 1 asub 4 0 asub 5 1 asub
  dup 0 get exch 1 get 7 -1 roll astore } bdef
/compute_transform {
  dmat dtri tri_to_matrix tmat1 invertmatrix 
  smat stri tri_to_matrix tmat2 concatmatrix } bdef
/ds {stri astore pop} bdef
/dt {dtri astore pop} bdef
/db {2 copy /cols xdef /rows xdef mul dup 3 mul string
  currentfile 
  3 index 0 eq {/ASCIIHexDecode filter}
  {/ASCII85Decode filter 3 index 2 eq {/RunLengthDecode filter} if }
  ifelse exch readstring pop
  dup 0 3 index getinterval /rbmap xdef
  dup 2 index dup getinterval /gbmap xdef
  1 index dup 2 mul exch getinterval /bbmap xdef pop pop}bdef
/it {gs np dtri aload pop moveto lineto lineto cp c
  cols rows 8 compute_transform 
  rbmap gbmap bbmap true 3 colorimage gr}bdef
/il {newpath moveto lineto stroke}bdef
currentdict end def
%%EndProlog

%%BeginSetup
MathWorks begin

0 cap

end
%%EndSetup

%%Page: 1 1
%%BeginPageSetup
%%PageBoundingBox:    13   166   597   626
MathWorks begin
bpage
%%EndPageSetup

%%BeginObject: obj1
bplot

/dpi2point 8.33333 def
portraitMode 0108 5216 csm

    0     0  4873  3832 rc
85 dict begin %Colortable dictionary
/c0 { 0.000000 0.000000 0.000000 sr} bdef
/c1 { 1.000000 1.000000 1.000000 sr} bdef
/c2 { 0.900000 0.000000 0.000000 sr} bdef
/c3 { 0.000000 0.820000 0.000000 sr} bdef
/c4 { 0.000000 0.000000 0.800000 sr} bdef
/c5 { 0.910000 0.820000 0.320000 sr} bdef
/c6 { 1.000000 0.260000 0.820000 sr} bdef
/c7 { 0.000000 0.820000 0.820000 sr} bdef
c0
1 j
1 sg
   0    0 4874 3833 rf
16.6667 w
0 3123 3777 0 0 -3123 633 3410 4 MP
PP
-3777 0 0 3123 3777 0 0 -3123 633 3410 5 MP stroke
11.1111 w
DO
0 sg
 633 3410 mt  633  287 L
 633  287 mt  633  287 L
1262 3410 mt 1262  287 L
1262  287 mt 1262  287 L
1892 3410 mt 1892  287 L
1892  287 mt 1892  287 L
2521 3410 mt 2521  287 L
2521  287 mt 2521  287 L
3151 3410 mt 3151  287 L
3151  287 mt 3151  287 L
3780 3410 mt 3780  287 L
3780  287 mt 3780  287 L
4410 3410 mt 4410  287 L
4410  287 mt 4410  287 L
 633 3410 mt 4410 3410 L
4410 3410 mt 4410 3410 L
 633 3097 mt 4410 3097 L
4410 3097 mt 4410 3097 L
 633 2785 mt 4410 2785 L
4410 2785 mt 4410 2785 L
 633 2473 mt 4410 2473 L
4410 2473 mt 4410 2473 L
 633 2160 mt 4410 2160 L
4410 2160 mt 4410 2160 L
 633 1848 mt 4410 1848 L
4410 1848 mt 4410 1848 L
 633 1536 mt 4410 1536 L
4410 1536 mt 4410 1536 L
 633 1223 mt 4410 1223 L
4410 1223 mt 4410 1223 L
 633  911 mt 4410  911 L
4410  911 mt 4410  911 L
 633  599 mt 4410  599 L
4410  599 mt 4410  599 L
 633  287 mt 4410  287 L
4410  287 mt 4410  287 L
SO
16.6667 w
 633 3410 mt 4410 3410 L
 633 3410 mt  633  287 L
 633 3410 mt  633 3372 L
%%IncludeResource: font Helvetica
/Helvetica /WindowsLatin1Encoding 116.667 FMSR

 601 3542 mt 
(0) s
1262 3410 mt 1262 3372 L
1198 3542 mt 
(10) s
1892 3410 mt 1892 3372 L
1828 3542 mt 
(20) s
2521 3410 mt 2521 3372 L
2457 3542 mt 
(30) s
3151 3410 mt 3151 3372 L
3087 3542 mt 
(40) s
3780 3410 mt 3780 3372 L
3716 3542 mt 
(50) s
4410 3410 mt 4410 3372 L
4346 3542 mt 
(60) s
 633 3410 mt  670 3410 L
 545 3453 mt 
(0) s
 633 3097 mt  670 3097 L
 480 3140 mt 
(10) s
 633 2785 mt  670 2785 L
 480 2828 mt 
(20) s
 633 2473 mt  670 2473 L
 480 2516 mt 
(30) s
 633 2160 mt  670 2160 L
 480 2203 mt 
(40) s
 633 1848 mt  670 1848 L
 480 1891 mt 
(50) s
 633 1536 mt  670 1536 L
 480 1579 mt 
(60) s
 633 1223 mt  670 1223 L
 480 1266 mt 
(70) s
 633  911 mt  670  911 L
 480  954 mt 
(80) s
 633  599 mt  670  599 L
 480  642 mt 
(90) s
 633  287 mt  670  287 L
 415  330 mt 
(100) s
%%IncludeResource: font Helvetica
/Helvetica /WindowsLatin1Encoding 166.667 FMSR

 339 2650 mt  -90 rotate
(Bend Angle [degrees]) s
90 rotate
2059 3703 mt 
(Volume [mL]) s
gs 633 287 3778 3124 rc
176 -133 175 -136 175 -152 175 -158 175 -165 176 -193 175 -187 175 -194 
175 -209 176 -193 175 -282 175 -381 175 -98 175 -25 176 -13 175 -7 
175 -4 175 -2 175 -2 633 3410 20 MP stroke
gr

gs 531 774 3534 2739 rc
  41   41  633 3410 FO
  41   41  808 3408 FO
  41   41  983 3406 FO
  41   41 1158 3402 FO
  41   41 1333 3395 FO
  41   41 1509 3382 FO
  41   41 1684 3357 FO
  41   41 1859 3259 FO
  41   41 2034 2878 FO
  41   41 2209 2596 FO
  41   41 2385 2403 FO
  41   41 2560 2194 FO
  41   41 2735 2000 FO
  41   41 2910 1813 FO
  41   41 3086 1620 FO
  41   41 3261 1455 FO
  41   41 3436 1297 FO
  41   41 3611 1145 FO
  41   41 3786 1009 FO
  41   41 3962  876 FO
gr

gs 633 287 3778 3124 rc
176 -196 175 -275 175 -219 175 -297 176 -249 175 -231 175 -227 175 -167 
175 -117 176 -87 175 -62 175 -49 175 -42 175 -37 633 3410 15 MP stroke
gr

gs 531 1053 2658 2460 rc
 592 3410 mt  674 3410 L
 633 3369 mt  633 3451 L
 767 3373 mt  849 3373 L
 808 3332 mt  808 3414 L
 942 3331 mt 1024 3331 L
 983 3290 mt  983 3372 L
1117 3282 mt 1199 3282 L
1158 3241 mt 1158 3323 L
1292 3220 mt 1374 3220 L
1333 3179 mt 1333 3261 L
1468 3133 mt 1550 3133 L
1509 3092 mt 1509 3174 L
1643 3016 mt 1725 3016 L
1684 2975 mt 1684 3057 L
1818 2849 mt 1900 2849 L
1859 2808 mt 1859 2890 L
1993 2622 mt 2075 2622 L
2034 2581 mt 2034 2663 L
2168 2391 mt 2250 2391 L
2209 2350 mt 2209 2432 L
2344 2142 mt 2426 2142 L
2385 2101 mt 2385 2183 L
2519 1845 mt 2601 1845 L
2560 1804 mt 2560 1886 L
2694 1626 mt 2776 1626 L
2735 1585 mt 2735 1667 L
2869 1351 mt 2951 1351 L
2910 1310 mt 2910 1392 L
3045 1155 mt 3127 1155 L
3086 1114 mt 3086 1196 L
gr

gs 633 287 3778 3124 rc
175 -139 175 -151 175 -143 176 -326 175 -333 175 -282 175 -270 176 -233 
175 -240 175 -157 175 -162 175 -129 176 -128 175 -89 175 -98 175 -101 
175 -96 633 3410 18 MP stroke
gr

gs 531 231 3183 3282 rc
0 j
0 -64 -64 0 0 64 64 0 601 3378 5 MP
DP
0 -64 -64 0 0 64 64 0 776 3282 5 MP
DP
0 -64 -64 0 0 64 64 0 951 3181 5 MP
DP
0 -64 -64 0 0 64 64 0 1126 3083 5 MP
DP
0 -64 -64 0 0 64 64 0 1301 2994 5 MP
DP
0 -64 -64 0 0 64 64 0 1477 2866 5 MP
DP
0 -64 -64 0 0 64 64 0 1652 2737 5 MP
DP
0 -64 -64 0 0 64 64 0 1827 2575 5 MP
DP
0 -64 -64 0 0 64 64 0 2002 2418 5 MP
DP
0 -64 -64 0 0 64 64 0 2177 2178 5 MP
DP
0 -64 -64 0 0 64 64 0 2353 1945 5 MP
DP
0 -64 -64 0 0 64 64 0 2528 1675 5 MP
DP
0 -64 -64 0 0 64 64 0 2703 1393 5 MP
DP
0 -64 -64 0 0 64 64 0 2878 1060 5 MP
DP
0 -64 -64 0 0 64 64 0 3054 734 5 MP
DP
0 -64 -64 0 0 64 64 0 3229 591 5 MP
DP
0 -64 -64 0 0 64 64 0 3404 440 5 MP
DP
0 -64 -64 0 0 64 64 0 3579 301 5 MP
DP
gr

gs 633 287 3778 3124 rc
gr

%%IncludeResource: font Helvetica
/Helvetica /WindowsLatin1Encoding 83.3333 FMSR

 621 3441 mt 
( ) s
4399  317 mt 
( ) s
1 sg
0 624 1123 0 0 -624 674 953 4 MP
PP
-1123 0 0 624 1123 0 0 -624 674 953 5 MP stroke
11.1111 w
DO
SO
16.6667 w
0 sg
 674  329 mt 1797  329 L
 674  953 mt 1797  953 L
1797  953 mt 1797  329 L
 674  953 mt  674  329 L
 674  953 mt 1797  953 L
 674  953 mt  674  329 L
 674  329 mt 1797  329 L
 674  953 mt 1797  953 L
1797  953 mt 1797  329 L
 674  953 mt  674  329 L
%%IncludeResource: font Helvetica
/Helvetica /WindowsLatin1Encoding 166.667 FMSR

 998  501 mt 
(Cylindrical) s
gs 674 329 1124 625 rc
250 0 723 442 2 MP stroke
gs 746 340 205 205 rc
  41   41  848  442 FO
gr

gr

 998  701 mt 
(Ribbed) s
gs 674 329 1124 625 rc
250 0 723 641 2 MP stroke
gs 746 539 205 205 rc
 807  641 mt  889  641 L
 848  600 mt  848  682 L
gr

gr

 998  900 mt 
(Pleated) s
gs 674 329 1124 625 rc
250 0 723 839 2 MP stroke
gs 746 737 205 205 rc
0 j
0 -64 -64 0 0 64 64 0 816 807 5 MP
DP
gr

gr

4.16667 w

end %%Color Dict

eplot
%%EndObject

epage
end

showpage

%%Trailer
%%EOF
