%!PS-Adobe-3.0 EPSF-3.0
%%Creator: (MATLAB, The Mathworks, Inc. Version 8.4.0.150421 \(R2014b\). Operating System: Mac OS X)
%%Title: /Users/rkk/softrobotics-git/papers/recipessoftfluidicrobotspaper/figures/actuators/morphologiescharacterization/BendAngleVsVolumeColor.eps
%%CreationDate: 2015-01-14T14:06:41
%%Pages: (atend)
%%BoundingBox: 0 0 560 420
%%LanguageLevel: 2
%%EndComments
%%BeginProlog
%%BeginResource: procset (Apache XML Graphics Std ProcSet) 1.2 0
%%Version: 1.2 0
%%Copyright: (Copyright 2001-2003,2010 The Apache Software Foundation. License terms: http://www.apache.org/licenses/LICENSE-2.0)
/bd{bind def}bind def
/ld{load def}bd
/GR/grestore ld
/M/moveto ld
/LJ/setlinejoin ld
/C/curveto ld
/f/fill ld
/LW/setlinewidth ld
/GC/setgray ld
/t/show ld
/N/newpath ld
/CT/concat ld
/cp/closepath ld
/S/stroke ld
/L/lineto ld
/CC/setcmykcolor ld
/A/ashow ld
/GS/gsave ld
/RC/setrgbcolor ld
/RM/rmoveto ld
/ML/setmiterlimit ld
/re {4 2 roll M
1 index 0 rlineto
0 exch rlineto
neg 0 rlineto
cp } bd
/_ctm matrix def
/_tm matrix def
/BT { _ctm currentmatrix pop matrix _tm copy pop 0 0 moveto } bd
/ET { _ctm setmatrix } bd
/iTm { _ctm setmatrix _tm concat } bd
/Tm { _tm astore pop iTm 0 0 moveto } bd
/ux 0.0 def
/uy 0.0 def
/F {
  /Tp exch def
  /Tf exch def
  Tf findfont Tp scalefont setfont
  /cf Tf def  /cs Tp def
} bd
/ULS {currentpoint /uy exch def /ux exch def} bd
/ULE {
  /Tcx currentpoint pop def
  gsave
  newpath
  cf findfont cs scalefont dup
  /FontMatrix get 0 get /Ts exch def /FontInfo get dup
  /UnderlinePosition get Ts mul /To exch def
  /UnderlineThickness get Ts mul /Tt exch def
  ux uy To add moveto  Tcx uy To add lineto
  Tt setlinewidth stroke
  grestore
} bd
/OLE {
  /Tcx currentpoint pop def
  gsave
  newpath
  cf findfont cs scalefont dup
  /FontMatrix get 0 get /Ts exch def /FontInfo get dup
  /UnderlinePosition get Ts mul /To exch def
  /UnderlineThickness get Ts mul /Tt exch def
  ux uy To add cs add moveto Tcx uy To add cs add lineto
  Tt setlinewidth stroke
  grestore
} bd
/SOE {
  /Tcx currentpoint pop def
  gsave
  newpath
  cf findfont cs scalefont dup
  /FontMatrix get 0 get /Ts exch def /FontInfo get dup
  /UnderlinePosition get Ts mul /To exch def
  /UnderlineThickness get Ts mul /Tt exch def
  ux uy To add cs 10 mul 26 idiv add moveto Tcx uy To add cs 10 mul 26 idiv add lineto
  Tt setlinewidth stroke
  grestore
} bd
/QT {
/Y22 exch store
/X22 exch store
/Y21 exch store
/X21 exch store
currentpoint
/Y21 load 2 mul add 3 div exch
/X21 load 2 mul add 3 div exch
/X21 load 2 mul /X22 load add 3 div
/Y21 load 2 mul /Y22 load add 3 div
/X22 load /Y22 load curveto
} bd
/SSPD {
dup length /d exch dict def
{
/v exch def
/k exch def
currentpagedevice k known {
/cpdv currentpagedevice k get def
v cpdv ne {
/upd false def
/nullv v type /nulltype eq def
/nullcpdv cpdv type /nulltype eq def
nullv nullcpdv or
{
/upd true def
} {
/sametype v type cpdv type eq def
sametype {
v type /arraytype eq {
/vlen v length def
/cpdvlen cpdv length def
vlen cpdvlen eq {
0 1 vlen 1 sub {
/i exch def
/obj v i get def
/cpdobj cpdv i get def
obj cpdobj ne {
/upd true def
exit
} if
} for
} {
/upd true def
} ifelse
} {
v type /dicttype eq {
v {
/dv exch def
/dk exch def
/cpddv cpdv dk get def
dv cpddv ne {
/upd true def
exit
} if
} forall
} {
/upd true def
} ifelse
} ifelse
} if
} ifelse
upd true eq {
d k v put
} if
} if
} if
} forall
d length 0 gt {
d setpagedevice
} if
} bd
%%EndResource
%%BeginResource: procset (Apache XML Graphics EPS ProcSet) 1.0 0
%%Version: 1.0 0
%%Copyright: (Copyright 2002-2003 The Apache Software Foundation. License terms: http://www.apache.org/licenses/LICENSE-2.0)
/BeginEPSF { %def
/b4_Inc_state save def         % Save state for cleanup
/dict_count countdictstack def % Count objects on dict stack
/op_count count 1 sub def      % Count objects on operand stack
userdict begin                 % Push userdict on dict stack
/showpage { } def              % Redefine showpage, { } = null proc
0 setgray 0 setlinecap         % Prepare graphics state
1 setlinewidth 0 setlinejoin
10 setmiterlimit [ ] 0 setdash newpath
/languagelevel where           % If level not equal to 1 then
{pop languagelevel             % set strokeadjust and
1 ne                           % overprint to their defaults.
{false setstrokeadjust false setoverprint
} if
} if
} bd
/EndEPSF { %def
count op_count sub {pop} repeat            % Clean up stacks
countdictstack dict_count sub {end} repeat
b4_Inc_state restore
} bd
%%EndResource
%FOPBeginFontDict
%%IncludeResource: font Courier-Bold
%%IncludeResource: font Helvetica
%%IncludeResource: font Courier-BoldOblique
%%IncludeResource: font Courier-Oblique
%%IncludeResource: font Times-Roman
%%IncludeResource: font Helvetica-BoldOblique
%%IncludeResource: font Helvetica-Bold
%%IncludeResource: font Helvetica-Oblique
%%IncludeResource: font Times-BoldItalic
%%IncludeResource: font Courier
%%IncludeResource: font Times-Italic
%%IncludeResource: font Times-Bold
%%IncludeResource: font Symbol
%%IncludeResource: font ZapfDingbats
%FOPEndFontDict
%%BeginResource: encoding WinAnsiEncoding
/WinAnsiEncoding [
/.notdef /.notdef /.notdef /.notdef /.notdef
/.notdef /.notdef /.notdef /.notdef /.notdef
/.notdef /.notdef /.notdef /.notdef /.notdef
/.notdef /.notdef /.notdef /.notdef /.notdef
/.notdef /.notdef /.notdef /.notdef /.notdef
/.notdef /.notdef /.notdef /.notdef /.notdef
/.notdef /.notdef /space /exclam /quotedbl
/numbersign /dollar /percent /ampersand /quotesingle
/parenleft /parenright /asterisk /plus /comma
/hyphen /period /slash /zero /one
/two /three /four /five /six
/seven /eight /nine /colon /semicolon
/less /equal /greater /question /at
/A /B /C /D /E
/F /G /H /I /J
/K /L /M /N /O
/P /Q /R /S /T
/U /V /W /X /Y
/Z /bracketleft /backslash /bracketright /asciicircum
/underscore /quoteleft /a /b /c
/d /e /f /g /h
/i /j /k /l /m
/n /o /p /q /r
/s /t /u /v /w
/x /y /z /braceleft /bar
/braceright /asciitilde /bullet /Euro /bullet
/quotesinglbase /florin /quotedblbase /ellipsis /dagger
/daggerdbl /circumflex /perthousand /Scaron /guilsinglleft
/OE /bullet /Zcaron /bullet /bullet
/quoteleft /quoteright /quotedblleft /quotedblright /bullet
/endash /emdash /asciitilde /trademark /scaron
/guilsinglright /oe /bullet /zcaron /Ydieresis
/space /exclamdown /cent /sterling /currency
/yen /brokenbar /section /dieresis /copyright
/ordfeminine /guillemotleft /logicalnot /sfthyphen /registered
/macron /degree /plusminus /twosuperior /threesuperior
/acute /mu /paragraph /middot /cedilla
/onesuperior /ordmasculine /guillemotright /onequarter /onehalf
/threequarters /questiondown /Agrave /Aacute /Acircumflex
/Atilde /Adieresis /Aring /AE /Ccedilla
/Egrave /Eacute /Ecircumflex /Edieresis /Igrave
/Iacute /Icircumflex /Idieresis /Eth /Ntilde
/Ograve /Oacute /Ocircumflex /Otilde /Odieresis
/multiply /Oslash /Ugrave /Uacute /Ucircumflex
/Udieresis /Yacute /Thorn /germandbls /agrave
/aacute /acircumflex /atilde /adieresis /aring
/ae /ccedilla /egrave /eacute /ecircumflex
/edieresis /igrave /iacute /icircumflex /idieresis
/eth /ntilde /ograve /oacute /ocircumflex
/otilde /odieresis /divide /oslash /ugrave
/uacute /ucircumflex /udieresis /yacute /thorn
/ydieresis
] def
%%EndResource
%FOPBeginFontReencode
/Courier-Bold findfont
dup length dict begin
  {1 index /FID ne {def} {pop pop} ifelse} forall
  /Encoding WinAnsiEncoding def
  currentdict
end
/Courier-Bold exch definefont pop
/Helvetica findfont
dup length dict begin
  {1 index /FID ne {def} {pop pop} ifelse} forall
  /Encoding WinAnsiEncoding def
  currentdict
end
/Helvetica exch definefont pop
/Courier-BoldOblique findfont
dup length dict begin
  {1 index /FID ne {def} {pop pop} ifelse} forall
  /Encoding WinAnsiEncoding def
  currentdict
end
/Courier-BoldOblique exch definefont pop
/Courier-Oblique findfont
dup length dict begin
  {1 index /FID ne {def} {pop pop} ifelse} forall
  /Encoding WinAnsiEncoding def
  currentdict
end
/Courier-Oblique exch definefont pop
/Times-Roman findfont
dup length dict begin
  {1 index /FID ne {def} {pop pop} ifelse} forall
  /Encoding WinAnsiEncoding def
  currentdict
end
/Times-Roman exch definefont pop
/Helvetica-BoldOblique findfont
dup length dict begin
  {1 index /FID ne {def} {pop pop} ifelse} forall
  /Encoding WinAnsiEncoding def
  currentdict
end
/Helvetica-BoldOblique exch definefont pop
/Helvetica-Bold findfont
dup length dict begin
  {1 index /FID ne {def} {pop pop} ifelse} forall
  /Encoding WinAnsiEncoding def
  currentdict
end
/Helvetica-Bold exch definefont pop
/Helvetica-Oblique findfont
dup length dict begin
  {1 index /FID ne {def} {pop pop} ifelse} forall
  /Encoding WinAnsiEncoding def
  currentdict
end
/Helvetica-Oblique exch definefont pop
/Times-BoldItalic findfont
dup length dict begin
  {1 index /FID ne {def} {pop pop} ifelse} forall
  /Encoding WinAnsiEncoding def
  currentdict
end
/Times-BoldItalic exch definefont pop
/Courier findfont
dup length dict begin
  {1 index /FID ne {def} {pop pop} ifelse} forall
  /Encoding WinAnsiEncoding def
  currentdict
end
/Courier exch definefont pop
/Times-Italic findfont
dup length dict begin
  {1 index /FID ne {def} {pop pop} ifelse} forall
  /Encoding WinAnsiEncoding def
  currentdict
end
/Times-Italic exch definefont pop
/Times-Bold findfont
dup length dict begin
  {1 index /FID ne {def} {pop pop} ifelse} forall
  /Encoding WinAnsiEncoding def
  currentdict
end
/Times-Bold exch definefont pop
%FOPEndFontReencode
%%EndProlog
%%Page: 1 1
%%PageBoundingBox: 0 0 560 420
%%BeginPageSetup
[1 0 0 -1 0 420] CT
%%EndPageSetup
GS
1 GC
N
0 0 560 420 re
f
GR
GS
1 GC
N
0 0 560 420 re
f
GR
GS
1 GC
N
73 374 M
507 374 L
507 31 L
73 31 L
cp
f
GR
GS
0.873 GC
2 setlinecap
10.0 ML
N
73 374 M
73 31 L
S
GR
GS
0.873 GC
2 setlinecap
10.0 ML
N
145.333 374 M
145.333 31 L
S
GR
GS
0.873 GC
2 setlinecap
10.0 ML
N
217.667 374 M
217.667 31 L
S
GR
GS
0.873 GC
2 setlinecap
10.0 ML
N
290 374 M
290 31 L
S
GR
GS
0.873 GC
2 setlinecap
10.0 ML
N
362.333 374 M
362.333 31 L
S
GR
GS
0.873 GC
2 setlinecap
10.0 ML
N
434.667 374 M
434.667 31 L
S
GR
GS
0.873 GC
2 setlinecap
10.0 ML
N
507 374 M
507 31 L
S
GR
GS
0.873 GC
2 setlinecap
10.0 ML
N
507 374 M
73 374 L
S
GR
GS
0.873 GC
2 setlinecap
10.0 ML
N
507 339.7 M
73 339.7 L
S
GR
GS
0.873 GC
2 setlinecap
10.0 ML
N
507 305.4 M
73 305.4 L
S
GR
GS
0.873 GC
2 setlinecap
10.0 ML
N
507 271.1 M
73 271.1 L
S
GR
GS
0.873 GC
2 setlinecap
10.0 ML
N
507 236.8 M
73 236.8 L
S
GR
GS
0.873 GC
2 setlinecap
10.0 ML
N
507 202.5 M
73 202.5 L
S
GR
GS
0.873 GC
2 setlinecap
10.0 ML
N
507 168.2 M
73 168.2 L
S
GR
GS
0.873 GC
2 setlinecap
10.0 ML
N
507 133.9 M
73 133.9 L
S
GR
GS
0.873 GC
2 setlinecap
10.0 ML
N
507 99.6 M
73 99.6 L
S
GR
GS
0.873 GC
2 setlinecap
10.0 ML
N
507 65.3 M
73 65.3 L
S
GR
GS
0.873 GC
2 setlinecap
10.0 ML
N
507 31 M
73 31 L
S
GR
GS
[1 0 0 1 290 392.79999] CT
0.149 GC
/Helvetica 20 F
GS
[1 0 0 1 0 0] CT
-56.133 15.4 moveto 
1 -1 scale
(Volume [mL]) t 
GR
GR
GS
0.149 GC
2 setlinecap
10.0 ML
N
73 374 M
507 374 L
S
GR
GS
0.149 GC
2 setlinecap
10.0 ML
N
73 374 M
73 369.66 L
S
GR
GS
0.149 GC
2 setlinecap
10.0 ML
N
145.333 374 M
145.333 369.66 L
S
GR
GS
0.149 GC
2 setlinecap
10.0 ML
N
217.667 374 M
217.667 369.66 L
S
GR
GS
0.149 GC
2 setlinecap
10.0 ML
N
290 374 M
290 369.66 L
S
GR
GS
0.149 GC
2 setlinecap
10.0 ML
N
362.333 374 M
362.333 369.66 L
S
GR
GS
0.149 GC
2 setlinecap
10.0 ML
N
434.667 374 M
434.667 369.66 L
S
GR
GS
0.149 GC
2 setlinecap
10.0 ML
N
507 374 M
507 369.66 L
S
GR
GS
[1 0 0 1 73 378.79999] CT
0.149 GC
/Helvetica 14 F
GS
[1 0 0 1 0 0] CT
-3.893 10.78 moveto 
1 -1 scale
(0) t 
GR
GR
GS
[1 0 0 1 145.33333 378.79999] CT
0.149 GC
/Helvetica 14 F
GS
[1 0 0 1 0 0] CT
-7.786 10.78 moveto 
1 -1 scale
(10) t 
GR
GR
GS
[1 0 0 1 217.66667 378.79999] CT
0.149 GC
/Helvetica 14 F
GS
[1 0 0 1 0 0] CT
-7.786 10.78 moveto 
1 -1 scale
(20) t 
GR
GR
GS
[1 0 0 1 290 378.79999] CT
0.149 GC
/Helvetica 14 F
GS
[1 0 0 1 0 0] CT
-7.786 10.78 moveto 
1 -1 scale
(30) t 
GR
GR
GS
[1 0 0 1 362.33334 378.79999] CT
0.149 GC
/Helvetica 14 F
GS
[1 0 0 1 0 0] CT
-7.786 10.78 moveto 
1 -1 scale
(40) t 
GR
GR
GS
[1 0 0 1 434.66666 378.79999] CT
0.149 GC
/Helvetica 14 F
GS
[1 0 0 1 0 0] CT
-7.786 10.78 moveto 
1 -1 scale
(50) t 
GR
GR
GS
[1 0 0 1 507 378.79999] CT
0.149 GC
/Helvetica 14 F
GS
[1 0 0 1 0 0] CT
-7.786 10.78 moveto 
1 -1 scale
(60) t 
GR
GR
GS
[0 -1 1 0 41.8416 202.5] CT
0.149 GC
/Helvetica 20 F
GS
[1 0 0 1 0 0] CT
-96.182 -3.6 moveto 
1 -1 scale
(Bend Angle [degrees]) t 
GR
GR
GS
0.149 GC
2 setlinecap
10.0 ML
N
73 374 M
73 31 L
S
GR
GS
0.149 GC
2 setlinecap
10.0 ML
N
73 374 M
77.34 374 L
S
GR
GS
0.149 GC
2 setlinecap
10.0 ML
N
73 339.7 M
77.34 339.7 L
S
GR
GS
0.149 GC
2 setlinecap
10.0 ML
N
73 305.4 M
77.34 305.4 L
S
GR
GS
0.149 GC
2 setlinecap
10.0 ML
N
73 271.1 M
77.34 271.1 L
S
GR
GS
0.149 GC
2 setlinecap
10.0 ML
N
73 236.8 M
77.34 236.8 L
S
GR
GS
0.149 GC
2 setlinecap
10.0 ML
N
73 202.5 M
77.34 202.5 L
S
GR
GS
0.149 GC
2 setlinecap
10.0 ML
N
73 168.2 M
77.34 168.2 L
S
GR
GS
0.149 GC
2 setlinecap
10.0 ML
N
73 133.9 M
77.34 133.9 L
S
GR
GS
0.149 GC
2 setlinecap
10.0 ML
N
73 99.6 M
77.34 99.6 L
S
GR
GS
0.149 GC
2 setlinecap
10.0 ML
N
73 65.3 M
77.34 65.3 L
S
GR
GS
0.149 GC
2 setlinecap
10.0 ML
N
73 31 M
77.34 31 L
S
GR
GS
[1 0 0 1 68.2 374] CT
0.149 GC
/Helvetica 14 F
GS
[1 0 0 1 0 0] CT
-7.786 4.28 moveto 
1 -1 scale
(0) t 
GR
GR
GS
[1 0 0 1 68.2 339.70001] CT
0.149 GC
/Helvetica 14 F
GS
[1 0 0 1 0 0] CT
-15.572 4.28 moveto 
1 -1 scale
(10) t 
GR
GR
GS
[1 0 0 1 68.2 305.39999] CT
0.149 GC
/Helvetica 14 F
GS
[1 0 0 1 0 0] CT
-15.572 4.28 moveto 
1 -1 scale
(20) t 
GR
GR
GS
[1 0 0 1 68.2 271.10001] CT
0.149 GC
/Helvetica 14 F
GS
[1 0 0 1 0 0] CT
-15.572 4.28 moveto 
1 -1 scale
(30) t 
GR
GR
GS
[1 0 0 1 68.2 236.8] CT
0.149 GC
/Helvetica 14 F
GS
[1 0 0 1 0 0] CT
-15.572 4.28 moveto 
1 -1 scale
(40) t 
GR
GR
GS
[1 0 0 1 68.2 202.5] CT
0.149 GC
/Helvetica 14 F
GS
[1 0 0 1 0 0] CT
-15.572 4.28 moveto 
1 -1 scale
(50) t 
GR
GR
GS
[1 0 0 1 68.2 168.2] CT
0.149 GC
/Helvetica 14 F
GS
[1 0 0 1 0 0] CT
-15.572 4.28 moveto 
1 -1 scale
(60) t 
GR
GR
GS
[1 0 0 1 68.2 133.89999] CT
0.149 GC
/Helvetica 14 F
GS
[1 0 0 1 0 0] CT
-15.572 4.28 moveto 
1 -1 scale
(70) t 
GR
GR
GS
[1 0 0 1 68.2 99.6] CT
0.149 GC
/Helvetica 14 F
GS
[1 0 0 1 0 0] CT
-15.572 4.28 moveto 
1 -1 scale
(80) t 
GR
GR
GS
[1 0 0 1 68.2 65.3] CT
0.149 GC
/Helvetica 14 F
GS
[1 0 0 1 0 0] CT
-15.572 4.28 moveto 
1 -1 scale
(90) t 
GR
GR
GS
[1 0 0 1 68.2 31] CT
0.149 GC
/Helvetica 14 F
GS
[1 0 0 1 0 0] CT
-23.358 4.28 moveto 
1 -1 scale
(100) t 
GR
GR
GS
2 setlinecap
10.0 ML
2 LW
N
73 374 M
93.133 373.827 L
113.267 373.569 L
133.4 373.125 L
153.534 372.373 L
173.667 370.932 L
193.801 368.184 L
213.934 357.488 L
234.068 315.593 L
254.201 284.665 L
274.335 263.471 L
294.468 240.552 L
314.601 219.235 L
334.735 198.657 L
354.868 177.463 L
375.002 159.349 L
395.135 141.975 L
415.269 125.34 L
435.402 110.307 L
455.536 95.767 L
S
GR
GS
2 setlinecap
10.0 ML
2 LW
N
76.5 373.5 M
75.621 371.379 L
73.5 370.5 L
71.379 371.379 L
70.5 373.5 L
71.379 375.621 L
73.5 376.5 L
75.621 375.621 L
76.5 373.5 L
S
GR
GS
2 setlinecap
10.0 ML
2 LW
N
96.5 373.5 M
95.621 371.379 L
93.5 370.5 L
91.379 371.379 L
90.5 373.5 L
91.379 375.621 L
93.5 376.5 L
95.621 375.621 L
96.5 373.5 L
S
GR
GS
2 setlinecap
10.0 ML
2 LW
N
116.5 373.5 M
115.621 371.379 L
113.5 370.5 L
111.379 371.379 L
110.5 373.5 L
111.379 375.621 L
113.5 376.5 L
115.621 375.621 L
116.5 373.5 L
S
GR
GS
2 setlinecap
10.0 ML
2 LW
N
136.5 373.5 M
135.621 371.379 L
133.5 370.5 L
131.379 371.379 L
130.5 373.5 L
131.379 375.621 L
133.5 376.5 L
135.621 375.621 L
136.5 373.5 L
S
GR
GS
2 setlinecap
10.0 ML
2 LW
N
156.5 372.5 M
155.621 370.379 L
153.5 369.5 L
151.379 370.379 L
150.5 372.5 L
151.379 374.621 L
153.5 375.5 L
155.621 374.621 L
156.5 372.5 L
S
GR
GS
2 setlinecap
10.0 ML
2 LW
N
176.5 370.5 M
175.621 368.379 L
173.5 367.5 L
171.379 368.379 L
170.5 370.5 L
171.379 372.621 L
173.5 373.5 L
175.621 372.621 L
176.5 370.5 L
S
GR
GS
2 setlinecap
10.0 ML
2 LW
N
196.5 368.5 M
195.621 366.379 L
193.5 365.5 L
191.379 366.379 L
190.5 368.5 L
191.379 370.621 L
193.5 371.5 L
195.621 370.621 L
196.5 368.5 L
S
GR
GS
2 setlinecap
10.0 ML
2 LW
N
216.5 357.5 M
215.621 355.379 L
213.5 354.5 L
211.379 355.379 L
210.5 357.5 L
211.379 359.621 L
213.5 360.5 L
215.621 359.621 L
216.5 357.5 L
S
GR
GS
2 setlinecap
10.0 ML
2 LW
N
237.5 315.5 M
236.621 313.379 L
234.5 312.5 L
232.379 313.379 L
231.5 315.5 L
232.379 317.621 L
234.5 318.5 L
236.621 317.621 L
237.5 315.5 L
S
GR
GS
2 setlinecap
10.0 ML
2 LW
N
257.5 284.5 M
256.621 282.379 L
254.5 281.5 L
252.379 282.379 L
251.5 284.5 L
252.379 286.621 L
254.5 287.5 L
256.621 286.621 L
257.5 284.5 L
S
GR
GS
2 setlinecap
10.0 ML
2 LW
N
277.5 263.5 M
276.621 261.379 L
274.5 260.5 L
272.379 261.379 L
271.5 263.5 L
272.379 265.621 L
274.5 266.5 L
276.621 265.621 L
277.5 263.5 L
S
GR
GS
2 setlinecap
10.0 ML
2 LW
N
297.5 240.5 M
296.621 238.379 L
294.5 237.5 L
292.379 238.379 L
291.5 240.5 L
292.379 242.621 L
294.5 243.5 L
296.621 242.621 L
297.5 240.5 L
S
GR
GS
2 setlinecap
10.0 ML
2 LW
N
317.5 219.5 M
316.621 217.379 L
314.5 216.5 L
312.379 217.379 L
311.5 219.5 L
312.379 221.621 L
314.5 222.5 L
316.621 221.621 L
317.5 219.5 L
S
GR
GS
2 setlinecap
10.0 ML
2 LW
N
337.5 198.5 M
336.621 196.379 L
334.5 195.5 L
332.379 196.379 L
331.5 198.5 L
332.379 200.621 L
334.5 201.5 L
336.621 200.621 L
337.5 198.5 L
S
GR
GS
2 setlinecap
10.0 ML
2 LW
N
357.5 177.5 M
356.621 175.379 L
354.5 174.5 L
352.379 175.379 L
351.5 177.5 L
352.379 179.621 L
354.5 180.5 L
356.621 179.621 L
357.5 177.5 L
S
GR
GS
2 setlinecap
10.0 ML
2 LW
N
378.5 159.5 M
377.621 157.379 L
375.5 156.5 L
373.379 157.379 L
372.5 159.5 L
373.379 161.621 L
375.5 162.5 L
377.621 161.621 L
378.5 159.5 L
S
GR
GS
2 setlinecap
10.0 ML
2 LW
N
398.5 141.5 M
397.621 139.379 L
395.5 138.5 L
393.379 139.379 L
392.5 141.5 L
393.379 143.621 L
395.5 144.5 L
397.621 143.621 L
398.5 141.5 L
S
GR
GS
2 setlinecap
10.0 ML
2 LW
N
418.5 125.5 M
417.621 123.379 L
415.5 122.5 L
413.379 123.379 L
412.5 125.5 L
413.379 127.621 L
415.5 128.5 L
417.621 127.621 L
418.5 125.5 L
S
GR
GS
2 setlinecap
10.0 ML
2 LW
N
438.5 110.5 M
437.621 108.379 L
435.5 107.5 L
433.379 108.379 L
432.5 110.5 L
433.379 112.621 L
435.5 113.5 L
437.621 112.621 L
438.5 110.5 L
S
GR
GS
2 setlinecap
10.0 ML
2 LW
N
458.5 95.5 M
457.621 93.379 L
455.5 92.5 L
453.379 93.379 L
452.5 95.5 L
453.379 97.621 L
455.5 98.5 L
457.621 97.621 L
458.5 95.5 L
S
GR
GS
1 0 0 RC
2 setlinecap
10.0 ML
2 LW
N
73 374 M
93.133 370.045 L
113.267 365.347 L
133.4 359.964 L
153.534 353.212 L
173.667 343.578 L
193.801 330.733 L
213.934 312.395 L
234.068 287.466 L
254.201 262.115 L
274.335 234.819 L
294.468 202.2 L
314.601 178.116 L
334.735 147.948 L
354.868 126.399 L
S
GR
GS
1 0 0 RC
2 setlinecap
10.0 ML
2 LW
N
68 373.5 M
79 373.5 L
S
GR
GS
1 0 0 RC
2 setlinecap
10.0 ML
2 LW
N
73.5 379 M
73.5 368 L
S
GR
GS
1 0 0 RC
2 setlinecap
10.0 ML
2 LW
N
88 370.5 M
99 370.5 L
S
GR
GS
1 0 0 RC
2 setlinecap
10.0 ML
2 LW
N
93.5 376 M
93.5 365 L
S
GR
GS
1 0 0 RC
2 setlinecap
10.0 ML
2 LW
N
108 365.5 M
119 365.5 L
S
GR
GS
1 0 0 RC
2 setlinecap
10.0 ML
2 LW
N
113.5 371 M
113.5 360 L
S
GR
GS
1 0 0 RC
2 setlinecap
10.0 ML
2 LW
N
128 359.5 M
139 359.5 L
S
GR
GS
1 0 0 RC
2 setlinecap
10.0 ML
2 LW
N
133.5 365 M
133.5 354 L
S
GR
GS
1 0 0 RC
2 setlinecap
10.0 ML
2 LW
N
148 353.5 M
159 353.5 L
S
GR
GS
1 0 0 RC
2 setlinecap
10.0 ML
2 LW
N
153.5 359 M
153.5 348 L
S
GR
GS
1 0 0 RC
2 setlinecap
10.0 ML
2 LW
N
168 343.5 M
179 343.5 L
S
GR
GS
1 0 0 RC
2 setlinecap
10.0 ML
2 LW
N
173.5 349 M
173.5 338 L
S
GR
GS
1 0 0 RC
2 setlinecap
10.0 ML
2 LW
N
188 330.5 M
199 330.5 L
S
GR
GS
1 0 0 RC
2 setlinecap
10.0 ML
2 LW
N
193.5 336 M
193.5 325 L
S
GR
GS
1 0 0 RC
2 setlinecap
10.0 ML
2 LW
N
208 312.5 M
219 312.5 L
S
GR
GS
1 0 0 RC
2 setlinecap
10.0 ML
2 LW
N
213.5 318 M
213.5 307 L
S
GR
GS
1 0 0 RC
2 setlinecap
10.0 ML
2 LW
N
229 287.5 M
240 287.5 L
S
GR
GS
1 0 0 RC
2 setlinecap
10.0 ML
2 LW
N
234.5 293 M
234.5 282 L
S
GR
GS
1 0 0 RC
2 setlinecap
10.0 ML
2 LW
N
249 262.5 M
260 262.5 L
S
GR
GS
1 0 0 RC
2 setlinecap
10.0 ML
2 LW
N
254.5 268 M
254.5 257 L
S
GR
GS
1 0 0 RC
2 setlinecap
10.0 ML
2 LW
N
269 234.5 M
280 234.5 L
S
GR
GS
1 0 0 RC
2 setlinecap
10.0 ML
2 LW
N
274.5 240 M
274.5 229 L
S
GR
GS
1 0 0 RC
2 setlinecap
10.0 ML
2 LW
N
289 202.5 M
300 202.5 L
S
GR
GS
1 0 0 RC
2 setlinecap
10.0 ML
2 LW
N
294.5 208 M
294.5 197 L
S
GR
GS
1 0 0 RC
2 setlinecap
10.0 ML
2 LW
N
309 178.5 M
320 178.5 L
S
GR
GS
1 0 0 RC
2 setlinecap
10.0 ML
2 LW
N
314.5 184 M
314.5 173 L
S
GR
GS
1 0 0 RC
2 setlinecap
10.0 ML
2 LW
N
329 147.5 M
340 147.5 L
S
GR
GS
1 0 0 RC
2 setlinecap
10.0 ML
2 LW
N
334.5 153 M
334.5 142 L
S
GR
GS
1 0 0 RC
2 setlinecap
10.0 ML
2 LW
N
349 126.5 M
360 126.5 L
S
GR
GS
1 0 0 RC
2 setlinecap
10.0 ML
2 LW
N
354.5 132 M
354.5 121 L
S
GR
GS
0 0 1 RC
2 setlinecap
10.0 ML
2 LW
N
73 374 M
93.133 363.548 L
113.267 352.379 L
133.4 341.701 L
153.534 331.853 L
173.667 317.778 L
193.801 303.629 L
213.934 285.894 L
234.068 268.613 L
254.201 242.275 L
274.335 216.673 L
294.468 187.016 L
314.601 156.094 L
334.735 119.493 L
354.868 83.647 L
375.002 67.988 L
395.135 51.385 L
415.269 36.104 L
S
GR
GS
0 0 1 RC
2 setlinecap
10.0 ML
2 LW
N
71.16 375.84 M
71.16 371.16 L
75.84 371.16 L
75.84 375.84 L
71.16 375.84 L
S
GR
GS
0 0 1 RC
2 setlinecap
10.0 ML
2 LW
N
91.16 365.84 M
91.16 361.16 L
95.84 361.16 L
95.84 365.84 L
91.16 365.84 L
S
GR
GS
0 0 1 RC
2 setlinecap
10.0 ML
2 LW
N
111.16 354.84 M
111.16 350.16 L
115.84 350.16 L
115.84 354.84 L
111.16 354.84 L
S
GR
GS
0 0 1 RC
2 setlinecap
10.0 ML
2 LW
N
131.16 343.84 M
131.16 339.16 L
135.84 339.16 L
135.84 343.84 L
131.16 343.84 L
S
GR
GS
0 0 1 RC
2 setlinecap
10.0 ML
2 LW
N
151.16 333.84 M
151.16 329.16 L
155.84 329.16 L
155.84 333.84 L
151.16 333.84 L
S
GR
GS
0 0 1 RC
2 setlinecap
10.0 ML
2 LW
N
171.16 319.84 M
171.16 315.16 L
175.84 315.16 L
175.84 319.84 L
171.16 319.84 L
S
GR
GS
0 0 1 RC
2 setlinecap
10.0 ML
2 LW
N
191.16 305.84 M
191.16 301.16 L
195.84 301.16 L
195.84 305.84 L
191.16 305.84 L
S
GR
GS
0 0 1 RC
2 setlinecap
10.0 ML
2 LW
N
211.16 287.84 M
211.16 283.16 L
215.84 283.16 L
215.84 287.84 L
211.16 287.84 L
S
GR
GS
0 0 1 RC
2 setlinecap
10.0 ML
2 LW
N
232.16 270.84 M
232.16 266.16 L
236.84 266.16 L
236.84 270.84 L
232.16 270.84 L
S
GR
GS
0 0 1 RC
2 setlinecap
10.0 ML
2 LW
N
252.16 244.84 M
252.16 240.16 L
256.84 240.16 L
256.84 244.84 L
252.16 244.84 L
S
GR
GS
0 0 1 RC
2 setlinecap
10.0 ML
2 LW
N
272.16 218.84 M
272.16 214.16 L
276.84 214.16 L
276.84 218.84 L
272.16 218.84 L
S
GR
GS
0 0 1 RC
2 setlinecap
10.0 ML
2 LW
N
292.16 189.84 M
292.16 185.16 L
296.84 185.16 L
296.84 189.84 L
292.16 189.84 L
S
GR
GS
0 0 1 RC
2 setlinecap
10.0 ML
2 LW
N
312.16 158.84 M
312.16 154.16 L
316.84 154.16 L
316.84 158.84 L
312.16 158.84 L
S
GR
GS
0 0 1 RC
2 setlinecap
10.0 ML
2 LW
N
332.16 121.84 M
332.16 117.16 L
336.84 117.16 L
336.84 121.84 L
332.16 121.84 L
S
GR
GS
0 0 1 RC
2 setlinecap
10.0 ML
2 LW
N
352.16 85.84 M
352.16 81.16 L
356.84 81.16 L
356.84 85.84 L
352.16 85.84 L
S
GR
GS
0 0 1 RC
2 setlinecap
10.0 ML
2 LW
N
373.16 69.84 M
373.16 65.16 L
377.84 65.16 L
377.84 69.84 L
373.16 69.84 L
S
GR
GS
0 0 1 RC
2 setlinecap
10.0 ML
2 LW
N
393.16 53.84 M
393.16 49.16 L
397.84 49.16 L
397.84 53.84 L
393.16 53.84 L
S
GR
GS
0 0 1 RC
2 setlinecap
10.0 ML
2 LW
N
413.16 38.84 M
413.16 34.16 L
417.84 34.16 L
417.84 38.84 L
413.16 38.84 L
S
GR
GS
1 GC
N
83 103 M
83 41 L
217 41 L
217 103 L
cp
f
GR
GS
[1 0 0 1 121.9285 52.5] CT
/Helvetica 20 F
GS
[1 0 0 1 0 0] CT
0 5.9 moveto 
1 -1 scale
(Cylindrical) t 
GR
GR
GS
2 setlinecap
10.0 ML
2 LW
N
88.989 52.5 M
118.934 52.5 L
S
GR
GS
2 setlinecap
10.0 ML
2 LW
N
106.5 52.5 M
105.621 50.379 L
103.5 49.5 L
101.379 50.379 L
100.5 52.5 L
101.379 54.621 L
103.5 55.5 L
105.621 54.621 L
106.5 52.5 L
S
GR
GS
[1 0 0 1 121.9285 72] CT
/Helvetica 20 F
GS
[1 0 0 1 0 0] CT
0 5.9 moveto 
1 -1 scale
(Ribbed) t 
GR
GR
GS
1 0 0 RC
2 setlinecap
10.0 ML
2 LW
N
88.989 72 M
118.934 72 L
S
GR
GS
1 0 0 RC
2 setlinecap
10.0 ML
2 LW
N
98 71.5 M
109 71.5 L
S
GR
GS
1 0 0 RC
2 setlinecap
10.0 ML
2 LW
N
103.5 77 M
103.5 66 L
S
GR
GS
[1 0 0 1 121.9285 91.5] CT
/Helvetica 20 F
GS
[1 0 0 1 0 0] CT
0 5.9 moveto 
1 -1 scale
(Pleated) t 
GR
GR
GS
0 0 1 RC
2 setlinecap
10.0 ML
2 LW
N
88.989 91.5 M
118.934 91.5 L
S
GR
GS
0 0 1 RC
2 setlinecap
10.0 ML
2 LW
N
101.16 93.84 M
101.16 89.16 L
105.84 89.16 L
105.84 93.84 L
101.16 93.84 L
S
GR
GS
0.149 GC
2 setlinecap
10.0 ML
N
83 103 M
83 41 L
217 41 L
217 103 L
83 103 L
S
GR
%%Trailer
%%Pages: 1
%%EOF
