%!PS-Adobe-3.0 EPSF-3.0
%%Creator: MATLAB, The MathWorks, Inc. Version 8.1.0.604 (R2013a). Operating System: Microsoft Windows 7.
%%Title: C:\Users\Andy\Desktop\2dmanipjournal\2Dcharacterization\Matlab\CurvatureVsEnergy.eps
%%CreationDate: 11/05/2014  10:58:03
%%DocumentNeededFonts: Helvetica
%%DocumentProcessColors: Cyan Magenta Yellow Black
%%LanguageLevel: 2
%%Pages: 1
%%BoundingBox:    13   165   597   626
%%EndComments

%%BeginProlog
% MathWorks dictionary
/MathWorks 160 dict begin
% definition operators
/bdef {bind def} bind def
/ldef {load def} bind def
/xdef {exch def} bdef
/xstore {exch store} bdef
% operator abbreviations
/c  /clip ldef
/cc /concat ldef
/cp /closepath ldef
/gr /grestore ldef
/gs /gsave ldef
/mt /moveto ldef
/np /newpath ldef
/cm /currentmatrix ldef
/sm /setmatrix ldef
/rm /rmoveto ldef
/rl /rlineto ldef
/s {show newpath} bdef
/sc {setcmykcolor} bdef
/sr /setrgbcolor ldef
/sg /setgray ldef
/w /setlinewidth ldef
/j /setlinejoin ldef
/cap /setlinecap ldef
/rc {rectclip} bdef
/rf {rectfill} bdef
% page state control
/pgsv () def
/bpage {/pgsv save def} bdef
/epage {pgsv restore} bdef
/bplot /gsave ldef
/eplot {stroke grestore} bdef
% orientation switch
/portraitMode 0 def /landscapeMode 1 def /rotateMode 2 def
% coordinate system mappings
/dpi2point 0 def
% font control
/FontSize 0 def
/FMS {/FontSize xstore findfont [FontSize 0 0 FontSize neg 0 0]
  makefont setfont} bdef
/ISOLatin1Encoding where {pop /WindowsLatin1Encoding 256 array bdef
ISOLatin1Encoding WindowsLatin1Encoding copy pop
/.notdef/.notdef/quotesinglbase/florin/quotedblbase/ellipsis/dagger
/daggerdbl/circumflex/perthousand/Scaron/guilsinglleft/OE/.notdef/.notdef
/.notdef/.notdef/quoteleft/quoteright/quotedblleft/quotedblright/bullet
/endash/emdash/tilde/trademark/scaron/guilsinglright/oe/.notdef/.notdef
/Ydieresis WindowsLatin1Encoding 128 32 getinterval astore pop}
{/WindowsLatin1Encoding StandardEncoding bdef} ifelse
/reencode {exch dup where {pop load} {pop StandardEncoding} ifelse
  exch dup 3 1 roll findfont dup length dict begin
  { 1 index /FID ne {def}{pop pop} ifelse } forall
  /Encoding exch def currentdict end definefont pop} bdef
/isroman {findfont /CharStrings get /Agrave known} bdef
/FMSR {3 1 roll 1 index dup isroman {reencode} {pop pop} ifelse
  exch FMS} bdef
/csm {1 dpi2point div -1 dpi2point div scale neg translate
 dup landscapeMode eq {pop -90 rotate}
  {rotateMode eq {90 rotate} if} ifelse} bdef
% line types: solid, dotted, dashed, dotdash
/SO { [] 0 setdash } bdef
/DO { [.5 dpi2point mul 4 dpi2point mul] 0 setdash } bdef
/DA { [6 dpi2point mul] 0 setdash } bdef
/DD { [.5 dpi2point mul 4 dpi2point mul 6 dpi2point mul 4
  dpi2point mul] 0 setdash } bdef
% macros for lines and objects
/L {lineto stroke} bdef
/MP {3 1 roll moveto 1 sub {rlineto} repeat} bdef
/AP {{rlineto} repeat} bdef
/PDlw -1 def
/W {/PDlw currentlinewidth def setlinewidth} def
/PP {closepath eofill} bdef
/DP {closepath stroke} bdef
/MR {4 -2 roll moveto dup  0 exch rlineto exch 0 rlineto
  neg 0 exch rlineto closepath} bdef
/FR {MR stroke} bdef
/PR {MR fill} bdef
/L1i {{currentfile picstr readhexstring pop} image} bdef
/tMatrix matrix def
/MakeOval {newpath tMatrix currentmatrix pop translate scale
0 0 1 0 360 arc tMatrix setmatrix} bdef
/FO {MakeOval stroke} bdef
/PO {MakeOval fill} bdef
/PD {currentlinewidth 2 div 0 360 arc fill
   PDlw -1 eq not {PDlw w /PDlw -1 def} if} def
/FA {newpath tMatrix currentmatrix pop translate scale
  0 0 1 5 -2 roll arc tMatrix setmatrix stroke} bdef
/PA {newpath tMatrix currentmatrix pop	translate 0 0 moveto scale
  0 0 1 5 -2 roll arc closepath tMatrix setmatrix fill} bdef
/FAn {newpath tMatrix currentmatrix pop translate scale
  0 0 1 5 -2 roll arcn tMatrix setmatrix stroke} bdef
/PAn {newpath tMatrix currentmatrix pop translate 0 0 moveto scale
  0 0 1 5 -2 roll arcn closepath tMatrix setmatrix fill} bdef
/vradius 0 def /hradius 0 def /lry 0 def
/lrx 0 def /uly 0 def /ulx 0 def /rad 0 def
/MRR {/vradius xdef /hradius xdef /lry xdef /lrx xdef /uly xdef
  /ulx xdef newpath tMatrix currentmatrix pop ulx hradius add uly
  vradius add translate hradius vradius scale 0 0 1 180 270 arc 
  tMatrix setmatrix lrx hradius sub uly vradius add translate
  hradius vradius scale 0 0 1 270 360 arc tMatrix setmatrix
  lrx hradius sub lry vradius sub translate hradius vradius scale
  0 0 1 0 90 arc tMatrix setmatrix ulx hradius add lry vradius sub
  translate hradius vradius scale 0 0 1 90 180 arc tMatrix setmatrix
  closepath} bdef
/FRR {MRR stroke } bdef
/PRR {MRR fill } bdef
/MlrRR {/lry xdef /lrx xdef /uly xdef /ulx xdef /rad lry uly sub 2 div def
  newpath tMatrix currentmatrix pop ulx rad add uly rad add translate
  rad rad scale 0 0 1 90 270 arc tMatrix setmatrix lrx rad sub lry rad
  sub translate rad rad scale 0 0 1 270 90 arc tMatrix setmatrix
  closepath} bdef
/FlrRR {MlrRR stroke } bdef
/PlrRR {MlrRR fill } bdef
/MtbRR {/lry xdef /lrx xdef /uly xdef /ulx xdef /rad lrx ulx sub 2 div def
  newpath tMatrix currentmatrix pop ulx rad add uly rad add translate
  rad rad scale 0 0 1 180 360 arc tMatrix setmatrix lrx rad sub lry rad
  sub translate rad rad scale 0 0 1 0 180 arc tMatrix setmatrix
  closepath} bdef
/FtbRR {MtbRR stroke } bdef
/PtbRR {MtbRR fill } bdef
/stri 6 array def /dtri 6 array def
/smat 6 array def /dmat 6 array def
/tmat1 6 array def /tmat2 6 array def /dif 3 array def
/asub {/ind2 exch def /ind1 exch def dup dup
  ind1 get exch ind2 get sub exch } bdef
/tri_to_matrix {
  2 0 asub 3 1 asub 4 0 asub 5 1 asub
  dup 0 get exch 1 get 7 -1 roll astore } bdef
/compute_transform {
  dmat dtri tri_to_matrix tmat1 invertmatrix 
  smat stri tri_to_matrix tmat2 concatmatrix } bdef
/ds {stri astore pop} bdef
/dt {dtri astore pop} bdef
/db {2 copy /cols xdef /rows xdef mul dup 3 mul string
  currentfile 
  3 index 0 eq {/ASCIIHexDecode filter}
  {/ASCII85Decode filter 3 index 2 eq {/RunLengthDecode filter} if }
  ifelse exch readstring pop
  dup 0 3 index getinterval /rbmap xdef
  dup 2 index dup getinterval /gbmap xdef
  1 index dup 2 mul exch getinterval /bbmap xdef pop pop}bdef
/it {gs np dtri aload pop moveto lineto lineto cp c
  cols rows 8 compute_transform 
  rbmap gbmap bbmap true 3 colorimage gr}bdef
/il {newpath moveto lineto stroke}bdef
currentdict end def
%%EndProlog

%%BeginSetup
MathWorks begin

0 cap

end
%%EndSetup

%%Page: 1 1
%%BeginPageSetup
%%PageBoundingBox:    13   165   597   626
MathWorks begin
bpage
%%EndPageSetup

%%BeginObject: obj1
bplot

/dpi2point 8.33333 def
portraitMode 0108 5216 csm

    0     0  4873  3837 rc
85 dict begin %Colortable dictionary
/c0 { 0.000000 0.000000 0.000000 sr} bdef
/c1 { 1.000000 1.000000 1.000000 sr} bdef
/c2 { 0.900000 0.000000 0.000000 sr} bdef
/c3 { 0.000000 0.820000 0.000000 sr} bdef
/c4 { 0.000000 0.000000 0.800000 sr} bdef
/c5 { 0.910000 0.820000 0.320000 sr} bdef
/c6 { 1.000000 0.260000 0.820000 sr} bdef
/c7 { 0.000000 0.820000 0.820000 sr} bdef
c0
1 j
1 sg
   0    0 4874 3838 rf
16.6667 w
0 3127 3777 0 0 -3127 633 3415 4 MP
PP
-3777 0 0 3127 3777 0 0 -3127 633 3415 5 MP stroke
11.1111 w
DO
0 sg
 633 3415 mt  633  288 L
 633  288 mt  633  288 L
1052 3415 mt 1052  288 L
1052  288 mt 1052  288 L
1472 3415 mt 1472  288 L
1472  288 mt 1472  288 L
1892 3415 mt 1892  288 L
1892  288 mt 1892  288 L
2311 3415 mt 2311  288 L
2311  288 mt 2311  288 L
2731 3415 mt 2731  288 L
2731  288 mt 2731  288 L
3151 3415 mt 3151  288 L
3151  288 mt 3151  288 L
3570 3415 mt 3570  288 L
3570  288 mt 3570  288 L
3990 3415 mt 3990  288 L
3990  288 mt 3990  288 L
4410 3415 mt 4410  288 L
4410  288 mt 4410  288 L
 633 3415 mt 4410 3415 L
4410 3415 mt 4410 3415 L
 633 2893 mt 4410 2893 L
4410 2893 mt 4410 2893 L
 633 2372 mt 4410 2372 L
4410 2372 mt 4410 2372 L
 633 1851 mt 4410 1851 L
4410 1851 mt 4410 1851 L
 633 1330 mt 4410 1330 L
4410 1330 mt 4410 1330 L
 633  809 mt 4410  809 L
4410  809 mt 4410  809 L
 633  288 mt 4410  288 L
4410  288 mt 4410  288 L
SO
16.6667 w
 633 3415 mt 4410 3415 L
 633 3415 mt  633  288 L
 633 3415 mt  633 3377 L
%%IncludeResource: font Helvetica
/Helvetica /WindowsLatin1Encoding 116.667 FMSR

 601 3547 mt 
(0) s
1052 3415 mt 1052 3377 L
 971 3547 mt 
(0.2) s
1472 3415 mt 1472 3377 L
1391 3547 mt 
(0.4) s
1892 3415 mt 1892 3377 L
1811 3547 mt 
(0.6) s
2311 3415 mt 2311 3377 L
2230 3547 mt 
(0.8) s
2731 3415 mt 2731 3377 L
2699 3547 mt 
(1) s
3151 3415 mt 3151 3377 L
3070 3547 mt 
(1.2) s
3570 3415 mt 3570 3377 L
3489 3547 mt 
(1.4) s
3990 3415 mt 3990 3377 L
3909 3547 mt 
(1.6) s
4410 3415 mt 4410 3377 L
4329 3547 mt 
(1.8) s
 633 3415 mt  670 3415 L
 545 3458 mt 
(0) s
 633 2893 mt  670 2893 L
 545 2936 mt 
(5) s
 633 2372 mt  670 2372 L
 480 2415 mt 
(10) s
 633 1851 mt  670 1851 L
 480 1894 mt 
(15) s
 633 1330 mt  670 1330 L
 480 1373 mt 
(20) s
 633  809 mt  670  809 L
 480  852 mt 
(25) s
 633  288 mt  670  288 L
 480  331 mt 
(30) s
%%IncludeResource: font Helvetica
/Helvetica /WindowsLatin1Encoding 166.667 FMSR

1941 3708 mt 
(Fluid Energy [J]) s
 404 2429 mt  -90 rotate
(Curvature [m) s
90 rotate
%%IncludeResource: font Helvetica
/Helvetica /WindowsLatin1Encoding 133.333 FMSR

 321 1465 mt  -90 rotate
(-1) s
90 rotate
%%IncludeResource: font Helvetica
/Helvetica /WindowsLatin1Encoding 166.667 FMSR

 404 1313 mt  -90 rotate
(]) s
90 rotate
gs 633 288 3778 3128 rc
311 -123 297 -127 282 -141 266 -147 248 -153 235 -179 221 -174 208 -181 
198 -194 193 -179 189 -261 183 -355 162 -90 134 -24 109 -12 83 -6 
60 -4 35 -2 11 -2 633 3415 20 MP stroke
gr

gs 531 959 3630 2559 rc
  41   41  633 3415 FO
  41   41  644 3413 FO
  41   41  679 3411 FO
  41   41  739 3407 FO
  41   41  822 3401 FO
  41   41  931 3389 FO
  41   41 1065 3365 FO
  41   41 1227 3275 FO
  41   41 1410 2920 FO
  41   41 1599 2659 FO
  41   41 1792 2480 FO
  41   41 1990 2286 FO
  41   41 2198 2105 FO
  41   41 2419 1931 FO
  41   41 2654 1752 FO
  41   41 2902 1599 FO
  41   41 3168 1452 FO
  41   41 3450 1311 FO
  41   41 3747 1184 FO
  41   41 4058 1061 FO
gr

gs 633 288 3778 3128 rc
188 -266 179 -372 173 -297 168 -403 156 -336 149 -313 141 -308 129 -226 
111 -158 91 -119 74 -83 55 -67 32 -58 10 -49 633 3415 15 MP stroke
gr

gs 531 258 1861 3260 rc
 592 3415 mt  674 3415 L
 633 3374 mt  633 3456 L
 602 3366 mt  684 3366 L
 643 3325 mt  643 3407 L
 634 3308 mt  716 3308 L
 675 3267 mt  675 3349 L
 689 3241 mt  771 3241 L
 730 3200 mt  730 3282 L
 763 3158 mt  845 3158 L
 804 3117 mt  804 3199 L
 854 3039 mt  936 3039 L
 895 2998 mt  895 3080 L
 965 2881 mt 1047 2881 L
1006 2840 mt 1006 2922 L
1094 2655 mt 1176 2655 L
1135 2614 mt 1135 2696 L
1235 2347 mt 1317 2347 L
1276 2306 mt 1276 2388 L
1384 2034 mt 1466 2034 L
1425 1993 mt 1425 2075 L
1540 1698 mt 1622 1698 L
1581 1657 mt 1581 1739 L
1708 1295 mt 1790 1295 L
1749 1254 mt 1749 1336 L
1881  998 mt 1963  998 L
1922  957 mt 1922 1039 L
2060  626 mt 2142  626 L
2101  585 mt 2101  667 L
2248  360 mt 2330  360 L
2289  319 mt 2289  401 L
gr

gs 633 288 3778 3128 rc
353 -84 335 -92 320 -86 302 -198 282 -203 260 -170 235 -164 210 -142 
184 -145 157 -96 131 -98 110 -78 91 -78 70 -54 49 -59 31 -62 
11 -58 633 3415 18 MP stroke
gr

gs 531 1446 3336 2072 rc
0 j
0 -64 -64 0 0 64 64 0 601 3383 5 MP
DP
0 -64 -64 0 0 64 64 0 612 3325 5 MP
DP
0 -64 -64 0 0 64 64 0 643 3263 5 MP
DP
0 -64 -64 0 0 64 64 0 692 3204 5 MP
DP
0 -64 -64 0 0 64 64 0 762 3150 5 MP
DP
0 -64 -64 0 0 64 64 0 853 3072 5 MP
DP
0 -64 -64 0 0 64 64 0 963 2994 5 MP
DP
0 -64 -64 0 0 64 64 0 1094 2896 5 MP
DP
0 -64 -64 0 0 64 64 0 1251 2800 5 MP
DP
0 -64 -64 0 0 64 64 0 1435 2655 5 MP
DP
0 -64 -64 0 0 64 64 0 1645 2513 5 MP
DP
0 -64 -64 0 0 64 64 0 1880 2349 5 MP
DP
0 -64 -64 0 0 64 64 0 2140 2179 5 MP
DP
0 -64 -64 0 0 64 64 0 2422 1976 5 MP
DP
0 -64 -64 0 0 64 64 0 2724 1778 5 MP
DP
0 -64 -64 0 0 64 64 0 3044 1692 5 MP
DP
0 -64 -64 0 0 64 64 0 3379 1600 5 MP
DP
0 -64 -64 0 0 64 64 0 3732 1516 5 MP
DP
gr

gs 633 288 3778 3128 rc
gr

%%IncludeResource: font Helvetica
/Helvetica /WindowsLatin1Encoding 83.3333 FMSR

 621 3446 mt 
( ) s
4399  318 mt 
( ) s
1 sg
0 624 1123 0 0 -624 674 954 4 MP
PP
-1123 0 0 624 1123 0 0 -624 674 954 5 MP stroke
11.1111 w
DO
SO
16.6667 w
0 sg
 674  330 mt 1797  330 L
 674  954 mt 1797  954 L
1797  954 mt 1797  330 L
 674  954 mt  674  330 L
 674  954 mt 1797  954 L
 674  954 mt  674  330 L
 674  330 mt 1797  330 L
 674  954 mt 1797  954 L
1797  954 mt 1797  330 L
 674  954 mt  674  330 L
%%IncludeResource: font Helvetica
/Helvetica /WindowsLatin1Encoding 166.667 FMSR

 998  502 mt 
(Cylindrical) s
gs 674 330 1124 625 rc
250 0 723 443 2 MP stroke
gs 746 341 205 205 rc
  41   41  848  443 FO
gr

gr

 998  702 mt 
(Ribbed) s
gs 674 330 1124 625 rc
250 0 723 642 2 MP stroke
gs 746 540 205 205 rc
 807  642 mt  889  642 L
 848  601 mt  848  683 L
gr

gr

 998  901 mt 
(Pleated) s
gs 674 330 1124 625 rc
250 0 723 840 2 MP stroke
gs 746 738 205 205 rc
0 j
0 -64 -64 0 0 64 64 0 816 808 5 MP
DP
gr

gr

4.16667 w

end %%Color Dict

eplot
%%EndObject

epage
end

showpage

%%Trailer
%%EOF
