%!PS-Adobe-3.0 EPSF-3.0
%%Creator: MATLAB, The MathWorks, Inc. Version 8.1.0.604 (R2013a). Operating System: Microsoft Windows 7.
%%Title: C:\Users\Andy\Desktop\2dmanipjournal\2Dcharacterization\Matlab\CurvatureVsVolume.eps
%%CreationDate: 11/05/2014  10:59:32
%%DocumentNeededFonts: Helvetica
%%DocumentProcessColors: Cyan Magenta Yellow Black
%%LanguageLevel: 2
%%Pages: 1
%%BoundingBox:    13   165   597   626
%%EndComments

%%BeginProlog
% MathWorks dictionary
/MathWorks 160 dict begin
% definition operators
/bdef {bind def} bind def
/ldef {load def} bind def
/xdef {exch def} bdef
/xstore {exch store} bdef
% operator abbreviations
/c  /clip ldef
/cc /concat ldef
/cp /closepath ldef
/gr /grestore ldef
/gs /gsave ldef
/mt /moveto ldef
/np /newpath ldef
/cm /currentmatrix ldef
/sm /setmatrix ldef
/rm /rmoveto ldef
/rl /rlineto ldef
/s {show newpath} bdef
/sc {setcmykcolor} bdef
/sr /setrgbcolor ldef
/sg /setgray ldef
/w /setlinewidth ldef
/j /setlinejoin ldef
/cap /setlinecap ldef
/rc {rectclip} bdef
/rf {rectfill} bdef
% page state control
/pgsv () def
/bpage {/pgsv save def} bdef
/epage {pgsv restore} bdef
/bplot /gsave ldef
/eplot {stroke grestore} bdef
% orientation switch
/portraitMode 0 def /landscapeMode 1 def /rotateMode 2 def
% coordinate system mappings
/dpi2point 0 def
% font control
/FontSize 0 def
/FMS {/FontSize xstore findfont [FontSize 0 0 FontSize neg 0 0]
  makefont setfont} bdef
/ISOLatin1Encoding where {pop /WindowsLatin1Encoding 256 array bdef
ISOLatin1Encoding WindowsLatin1Encoding copy pop
/.notdef/.notdef/quotesinglbase/florin/quotedblbase/ellipsis/dagger
/daggerdbl/circumflex/perthousand/Scaron/guilsinglleft/OE/.notdef/.notdef
/.notdef/.notdef/quoteleft/quoteright/quotedblleft/quotedblright/bullet
/endash/emdash/tilde/trademark/scaron/guilsinglright/oe/.notdef/.notdef
/Ydieresis WindowsLatin1Encoding 128 32 getinterval astore pop}
{/WindowsLatin1Encoding StandardEncoding bdef} ifelse
/reencode {exch dup where {pop load} {pop StandardEncoding} ifelse
  exch dup 3 1 roll findfont dup length dict begin
  { 1 index /FID ne {def}{pop pop} ifelse } forall
  /Encoding exch def currentdict end definefont pop} bdef
/isroman {findfont /CharStrings get /Agrave known} bdef
/FMSR {3 1 roll 1 index dup isroman {reencode} {pop pop} ifelse
  exch FMS} bdef
/csm {1 dpi2point div -1 dpi2point div scale neg translate
 dup landscapeMode eq {pop -90 rotate}
  {rotateMode eq {90 rotate} if} ifelse} bdef
% line types: solid, dotted, dashed, dotdash
/SO { [] 0 setdash } bdef
/DO { [.5 dpi2point mul 4 dpi2point mul] 0 setdash } bdef
/DA { [6 dpi2point mul] 0 setdash } bdef
/DD { [.5 dpi2point mul 4 dpi2point mul 6 dpi2point mul 4
  dpi2point mul] 0 setdash } bdef
% macros for lines and objects
/L {lineto stroke} bdef
/MP {3 1 roll moveto 1 sub {rlineto} repeat} bdef
/AP {{rlineto} repeat} bdef
/PDlw -1 def
/W {/PDlw currentlinewidth def setlinewidth} def
/PP {closepath eofill} bdef
/DP {closepath stroke} bdef
/MR {4 -2 roll moveto dup  0 exch rlineto exch 0 rlineto
  neg 0 exch rlineto closepath} bdef
/FR {MR stroke} bdef
/PR {MR fill} bdef
/L1i {{currentfile picstr readhexstring pop} image} bdef
/tMatrix matrix def
/MakeOval {newpath tMatrix currentmatrix pop translate scale
0 0 1 0 360 arc tMatrix setmatrix} bdef
/FO {MakeOval stroke} bdef
/PO {MakeOval fill} bdef
/PD {currentlinewidth 2 div 0 360 arc fill
   PDlw -1 eq not {PDlw w /PDlw -1 def} if} def
/FA {newpath tMatrix currentmatrix pop translate scale
  0 0 1 5 -2 roll arc tMatrix setmatrix stroke} bdef
/PA {newpath tMatrix currentmatrix pop	translate 0 0 moveto scale
  0 0 1 5 -2 roll arc closepath tMatrix setmatrix fill} bdef
/FAn {newpath tMatrix currentmatrix pop translate scale
  0 0 1 5 -2 roll arcn tMatrix setmatrix stroke} bdef
/PAn {newpath tMatrix currentmatrix pop translate 0 0 moveto scale
  0 0 1 5 -2 roll arcn closepath tMatrix setmatrix fill} bdef
/vradius 0 def /hradius 0 def /lry 0 def
/lrx 0 def /uly 0 def /ulx 0 def /rad 0 def
/MRR {/vradius xdef /hradius xdef /lry xdef /lrx xdef /uly xdef
  /ulx xdef newpath tMatrix currentmatrix pop ulx hradius add uly
  vradius add translate hradius vradius scale 0 0 1 180 270 arc 
  tMatrix setmatrix lrx hradius sub uly vradius add translate
  hradius vradius scale 0 0 1 270 360 arc tMatrix setmatrix
  lrx hradius sub lry vradius sub translate hradius vradius scale
  0 0 1 0 90 arc tMatrix setmatrix ulx hradius add lry vradius sub
  translate hradius vradius scale 0 0 1 90 180 arc tMatrix setmatrix
  closepath} bdef
/FRR {MRR stroke } bdef
/PRR {MRR fill } bdef
/MlrRR {/lry xdef /lrx xdef /uly xdef /ulx xdef /rad lry uly sub 2 div def
  newpath tMatrix currentmatrix pop ulx rad add uly rad add translate
  rad rad scale 0 0 1 90 270 arc tMatrix setmatrix lrx rad sub lry rad
  sub translate rad rad scale 0 0 1 270 90 arc tMatrix setmatrix
  closepath} bdef
/FlrRR {MlrRR stroke } bdef
/PlrRR {MlrRR fill } bdef
/MtbRR {/lry xdef /lrx xdef /uly xdef /ulx xdef /rad lrx ulx sub 2 div def
  newpath tMatrix currentmatrix pop ulx rad add uly rad add translate
  rad rad scale 0 0 1 180 360 arc tMatrix setmatrix lrx rad sub lry rad
  sub translate rad rad scale 0 0 1 0 180 arc tMatrix setmatrix
  closepath} bdef
/FtbRR {MtbRR stroke } bdef
/PtbRR {MtbRR fill } bdef
/stri 6 array def /dtri 6 array def
/smat 6 array def /dmat 6 array def
/tmat1 6 array def /tmat2 6 array def /dif 3 array def
/asub {/ind2 exch def /ind1 exch def dup dup
  ind1 get exch ind2 get sub exch } bdef
/tri_to_matrix {
  2 0 asub 3 1 asub 4 0 asub 5 1 asub
  dup 0 get exch 1 get 7 -1 roll astore } bdef
/compute_transform {
  dmat dtri tri_to_matrix tmat1 invertmatrix 
  smat stri tri_to_matrix tmat2 concatmatrix } bdef
/ds {stri astore pop} bdef
/dt {dtri astore pop} bdef
/db {2 copy /cols xdef /rows xdef mul dup 3 mul string
  currentfile 
  3 index 0 eq {/ASCIIHexDecode filter}
  {/ASCII85Decode filter 3 index 2 eq {/RunLengthDecode filter} if }
  ifelse exch readstring pop
  dup 0 3 index getinterval /rbmap xdef
  dup 2 index dup getinterval /gbmap xdef
  1 index dup 2 mul exch getinterval /bbmap xdef pop pop}bdef
/it {gs np dtri aload pop moveto lineto lineto cp c
  cols rows 8 compute_transform 
  rbmap gbmap bbmap true 3 colorimage gr}bdef
/il {newpath moveto lineto stroke}bdef
currentdict end def
%%EndProlog

%%BeginSetup
MathWorks begin

0 cap

end
%%EndSetup

%%Page: 1 1
%%BeginPageSetup
%%PageBoundingBox:    13   165   597   626
MathWorks begin
bpage
%%EndPageSetup

%%BeginObject: obj1
bplot

/dpi2point 8.33333 def
portraitMode 0108 5216 csm

    0     0  4873  3837 rc
85 dict begin %Colortable dictionary
/c0 { 0.000000 0.000000 0.000000 sr} bdef
/c1 { 1.000000 1.000000 1.000000 sr} bdef
/c2 { 0.900000 0.000000 0.000000 sr} bdef
/c3 { 0.000000 0.820000 0.000000 sr} bdef
/c4 { 0.000000 0.000000 0.800000 sr} bdef
/c5 { 0.910000 0.820000 0.320000 sr} bdef
/c6 { 1.000000 0.260000 0.820000 sr} bdef
/c7 { 0.000000 0.820000 0.820000 sr} bdef
c0
1 j
1 sg
   0    0 4874 3838 rf
16.6667 w
0 3127 3777 0 0 -3127 633 3415 4 MP
PP
-3777 0 0 3127 3777 0 0 -3127 633 3415 5 MP stroke
11.1111 w
DO
0 sg
 633 3415 mt  633  288 L
 633  288 mt  633  288 L
1262 3415 mt 1262  288 L
1262  288 mt 1262  288 L
1892 3415 mt 1892  288 L
1892  288 mt 1892  288 L
2521 3415 mt 2521  288 L
2521  288 mt 2521  288 L
3151 3415 mt 3151  288 L
3151  288 mt 3151  288 L
3780 3415 mt 3780  288 L
3780  288 mt 3780  288 L
4410 3415 mt 4410  288 L
4410  288 mt 4410  288 L
 633 3415 mt 4410 3415 L
4410 3415 mt 4410 3415 L
 633 2893 mt 4410 2893 L
4410 2893 mt 4410 2893 L
 633 2372 mt 4410 2372 L
4410 2372 mt 4410 2372 L
 633 1851 mt 4410 1851 L
4410 1851 mt 4410 1851 L
 633 1330 mt 4410 1330 L
4410 1330 mt 4410 1330 L
 633  809 mt 4410  809 L
4410  809 mt 4410  809 L
 633  288 mt 4410  288 L
4410  288 mt 4410  288 L
SO
16.6667 w
 633 3415 mt 4410 3415 L
 633 3415 mt  633  288 L
 633 3415 mt  633 3377 L
%%IncludeResource: font Helvetica
/Helvetica /WindowsLatin1Encoding 116.667 FMSR

 601 3547 mt 
(0) s
1262 3415 mt 1262 3377 L
1198 3547 mt 
(10) s
1892 3415 mt 1892 3377 L
1828 3547 mt 
(20) s
2521 3415 mt 2521 3377 L
2457 3547 mt 
(30) s
3151 3415 mt 3151 3377 L
3087 3547 mt 
(40) s
3780 3415 mt 3780 3377 L
3716 3547 mt 
(50) s
4410 3415 mt 4410 3377 L
4346 3547 mt 
(60) s
 633 3415 mt  670 3415 L
 545 3458 mt 
(0) s
 633 2893 mt  670 2893 L
 545 2936 mt 
(5) s
 633 2372 mt  670 2372 L
 480 2415 mt 
(10) s
 633 1851 mt  670 1851 L
 480 1894 mt 
(15) s
 633 1330 mt  670 1330 L
 480 1373 mt 
(20) s
 633  809 mt  670  809 L
 480  852 mt 
(25) s
 633  288 mt  670  288 L
 480  331 mt 
(30) s
%%IncludeResource: font Helvetica
/Helvetica /WindowsLatin1Encoding 166.667 FMSR

 404 2429 mt  -90 rotate
(Curvature [m) s
90 rotate
%%IncludeResource: font Helvetica
/Helvetica /WindowsLatin1Encoding 133.333 FMSR

 321 1465 mt  -90 rotate
(-1) s
90 rotate
%%IncludeResource: font Helvetica
/Helvetica /WindowsLatin1Encoding 166.667 FMSR

 404 1313 mt  -90 rotate
(]) s
90 rotate
2059 3708 mt 
(Volume [mL]) s
gs 633 288 3778 3128 rc
176 -123 175 -127 175 -141 175 -147 175 -153 176 -179 175 -174 175 -181 
175 -194 176 -179 175 -261 175 -355 175 -90 175 -24 176 -12 175 -6 
175 -4 175 -2 175 -2 633 3415 20 MP stroke
gr

gs 531 959 3534 2559 rc
  41   41  633 3415 FO
  41   41  808 3413 FO
  41   41  983 3411 FO
  41   41 1158 3407 FO
  41   41 1333 3401 FO
  41   41 1509 3389 FO
  41   41 1684 3365 FO
  41   41 1859 3275 FO
  41   41 2034 2920 FO
  41   41 2209 2659 FO
  41   41 2385 2480 FO
  41   41 2560 2286 FO
  41   41 2735 2105 FO
  41   41 2910 1931 FO
  41   41 3086 1752 FO
  41   41 3261 1599 FO
  41   41 3436 1452 FO
  41   41 3611 1311 FO
  41   41 3786 1184 FO
  41   41 3962 1061 FO
gr

gs 633 288 3778 3128 rc
176 -266 175 -372 175 -297 175 -403 176 -336 175 -313 175 -308 175 -226 
175 -158 176 -119 175 -83 175 -67 175 -58 175 -49 633 3415 15 MP stroke
gr

gs 531 258 2658 3260 rc
 592 3415 mt  674 3415 L
 633 3374 mt  633 3456 L
 767 3366 mt  849 3366 L
 808 3325 mt  808 3407 L
 942 3308 mt 1024 3308 L
 983 3267 mt  983 3349 L
1117 3241 mt 1199 3241 L
1158 3200 mt 1158 3282 L
1292 3158 mt 1374 3158 L
1333 3117 mt 1333 3199 L
1468 3039 mt 1550 3039 L
1509 2998 mt 1509 3080 L
1643 2881 mt 1725 2881 L
1684 2840 mt 1684 2922 L
1818 2655 mt 1900 2655 L
1859 2614 mt 1859 2696 L
1993 2347 mt 2075 2347 L
2034 2306 mt 2034 2388 L
2168 2034 mt 2250 2034 L
2209 1993 mt 2209 2075 L
2344 1698 mt 2426 1698 L
2385 1657 mt 2385 1739 L
2519 1295 mt 2601 1295 L
2560 1254 mt 2560 1336 L
2694  998 mt 2776  998 L
2735  957 mt 2735 1039 L
2869  626 mt 2951  626 L
2910  585 mt 2910  667 L
3045  360 mt 3127  360 L
3086  319 mt 3086  401 L
gr

gs 633 288 3778 3128 rc
175 -84 175 -92 175 -86 176 -198 175 -203 175 -170 175 -164 176 -142 
175 -145 175 -96 175 -98 175 -78 176 -78 175 -54 175 -59 175 -62 
175 -58 633 3415 18 MP stroke
gr

gs 531 1446 3183 2072 rc
0 j
0 -64 -64 0 0 64 64 0 601 3383 5 MP
DP
0 -64 -64 0 0 64 64 0 776 3325 5 MP
DP
0 -64 -64 0 0 64 64 0 951 3263 5 MP
DP
0 -64 -64 0 0 64 64 0 1126 3204 5 MP
DP
0 -64 -64 0 0 64 64 0 1301 3150 5 MP
DP
0 -64 -64 0 0 64 64 0 1477 3072 5 MP
DP
0 -64 -64 0 0 64 64 0 1652 2994 5 MP
DP
0 -64 -64 0 0 64 64 0 1827 2896 5 MP
DP
0 -64 -64 0 0 64 64 0 2002 2800 5 MP
DP
0 -64 -64 0 0 64 64 0 2177 2655 5 MP
DP
0 -64 -64 0 0 64 64 0 2353 2513 5 MP
DP
0 -64 -64 0 0 64 64 0 2528 2349 5 MP
DP
0 -64 -64 0 0 64 64 0 2703 2179 5 MP
DP
0 -64 -64 0 0 64 64 0 2878 1976 5 MP
DP
0 -64 -64 0 0 64 64 0 3054 1778 5 MP
DP
0 -64 -64 0 0 64 64 0 3229 1692 5 MP
DP
0 -64 -64 0 0 64 64 0 3404 1600 5 MP
DP
0 -64 -64 0 0 64 64 0 3579 1516 5 MP
DP
gr

gs 633 288 3778 3128 rc
gr

%%IncludeResource: font Helvetica
/Helvetica /WindowsLatin1Encoding 83.3333 FMSR

 621 3446 mt 
( ) s
4399  318 mt 
( ) s
1 sg
0 624 1123 0 0 -624 674 954 4 MP
PP
-1123 0 0 624 1123 0 0 -624 674 954 5 MP stroke
11.1111 w
DO
SO
16.6667 w
0 sg
 674  330 mt 1797  330 L
 674  954 mt 1797  954 L
1797  954 mt 1797  330 L
 674  954 mt  674  330 L
 674  954 mt 1797  954 L
 674  954 mt  674  330 L
 674  330 mt 1797  330 L
 674  954 mt 1797  954 L
1797  954 mt 1797  330 L
 674  954 mt  674  330 L
%%IncludeResource: font Helvetica
/Helvetica /WindowsLatin1Encoding 166.667 FMSR

 998  502 mt 
(Cylindrical) s
gs 674 330 1124 625 rc
250 0 723 443 2 MP stroke
gs 746 341 205 205 rc
  41   41  848  443 FO
gr

gr

 998  702 mt 
(Ribbed) s
gs 674 330 1124 625 rc
250 0 723 642 2 MP stroke
gs 746 540 205 205 rc
 807  642 mt  889  642 L
 848  601 mt  848  683 L
gr

gr

 998  901 mt 
(Pleated) s
gs 674 330 1124 625 rc
250 0 723 840 2 MP stroke
gs 746 738 205 205 rc
0 j
0 -64 -64 0 0 64 64 0 816 808 5 MP
DP
gr

gr

4.16667 w

end %%Color Dict

eplot
%%EndObject

epage
end

showpage

%%Trailer
%%EOF
