%!PS-Adobe-3.0 EPSF-3.0
%%Creator: (MATLAB, The Mathworks, Inc. Version 8.4.0.150421 \(R2014b\). Operating System: Mac OS X)
%%Title: /Users/rkk/softrobotics-git/papers/recipessoftfluidicrobotspaper/figures/actuators/morphologiescharacterization/energyerror.eps
%%CreationDate: 2015-01-26T16:56:03
%%Pages: (atend)
%%BoundingBox: 0 0 560 420
%%LanguageLevel: 2
%%EndComments
%%BeginProlog
%%BeginResource: procset (Apache XML Graphics Std ProcSet) 1.2 0
%%Version: 1.2 0
%%Copyright: (Copyright 2001-2003,2010 The Apache Software Foundation. License terms: http://www.apache.org/licenses/LICENSE-2.0)
/bd{bind def}bind def
/ld{load def}bd
/GR/grestore ld
/M/moveto ld
/LJ/setlinejoin ld
/C/curveto ld
/f/fill ld
/LW/setlinewidth ld
/GC/setgray ld
/t/show ld
/N/newpath ld
/CT/concat ld
/cp/closepath ld
/S/stroke ld
/L/lineto ld
/CC/setcmykcolor ld
/A/ashow ld
/GS/gsave ld
/RC/setrgbcolor ld
/RM/rmoveto ld
/ML/setmiterlimit ld
/re {4 2 roll M
1 index 0 rlineto
0 exch rlineto
neg 0 rlineto
cp } bd
/_ctm matrix def
/_tm matrix def
/BT { _ctm currentmatrix pop matrix _tm copy pop 0 0 moveto } bd
/ET { _ctm setmatrix } bd
/iTm { _ctm setmatrix _tm concat } bd
/Tm { _tm astore pop iTm 0 0 moveto } bd
/ux 0.0 def
/uy 0.0 def
/F {
  /Tp exch def
  /Tf exch def
  Tf findfont Tp scalefont setfont
  /cf Tf def  /cs Tp def
} bd
/ULS {currentpoint /uy exch def /ux exch def} bd
/ULE {
  /Tcx currentpoint pop def
  gsave
  newpath
  cf findfont cs scalefont dup
  /FontMatrix get 0 get /Ts exch def /FontInfo get dup
  /UnderlinePosition get Ts mul /To exch def
  /UnderlineThickness get Ts mul /Tt exch def
  ux uy To add moveto  Tcx uy To add lineto
  Tt setlinewidth stroke
  grestore
} bd
/OLE {
  /Tcx currentpoint pop def
  gsave
  newpath
  cf findfont cs scalefont dup
  /FontMatrix get 0 get /Ts exch def /FontInfo get dup
  /UnderlinePosition get Ts mul /To exch def
  /UnderlineThickness get Ts mul /Tt exch def
  ux uy To add cs add moveto Tcx uy To add cs add lineto
  Tt setlinewidth stroke
  grestore
} bd
/SOE {
  /Tcx currentpoint pop def
  gsave
  newpath
  cf findfont cs scalefont dup
  /FontMatrix get 0 get /Ts exch def /FontInfo get dup
  /UnderlinePosition get Ts mul /To exch def
  /UnderlineThickness get Ts mul /Tt exch def
  ux uy To add cs 10 mul 26 idiv add moveto Tcx uy To add cs 10 mul 26 idiv add lineto
  Tt setlinewidth stroke
  grestore
} bd
/QT {
/Y22 exch store
/X22 exch store
/Y21 exch store
/X21 exch store
currentpoint
/Y21 load 2 mul add 3 div exch
/X21 load 2 mul add 3 div exch
/X21 load 2 mul /X22 load add 3 div
/Y21 load 2 mul /Y22 load add 3 div
/X22 load /Y22 load curveto
} bd
/SSPD {
dup length /d exch dict def
{
/v exch def
/k exch def
currentpagedevice k known {
/cpdv currentpagedevice k get def
v cpdv ne {
/upd false def
/nullv v type /nulltype eq def
/nullcpdv cpdv type /nulltype eq def
nullv nullcpdv or
{
/upd true def
} {
/sametype v type cpdv type eq def
sametype {
v type /arraytype eq {
/vlen v length def
/cpdvlen cpdv length def
vlen cpdvlen eq {
0 1 vlen 1 sub {
/i exch def
/obj v i get def
/cpdobj cpdv i get def
obj cpdobj ne {
/upd true def
exit
} if
} for
} {
/upd true def
} ifelse
} {
v type /dicttype eq {
v {
/dv exch def
/dk exch def
/cpddv cpdv dk get def
dv cpddv ne {
/upd true def
exit
} if
} forall
} {
/upd true def
} ifelse
} ifelse
} if
} ifelse
upd true eq {
d k v put
} if
} if
} if
} forall
d length 0 gt {
d setpagedevice
} if
} bd
%%EndResource
%%BeginResource: procset (Apache XML Graphics EPS ProcSet) 1.0 0
%%Version: 1.0 0
%%Copyright: (Copyright 2002-2003 The Apache Software Foundation. License terms: http://www.apache.org/licenses/LICENSE-2.0)
/BeginEPSF { %def
/b4_Inc_state save def         % Save state for cleanup
/dict_count countdictstack def % Count objects on dict stack
/op_count count 1 sub def      % Count objects on operand stack
userdict begin                 % Push userdict on dict stack
/showpage { } def              % Redefine showpage, { } = null proc
0 setgray 0 setlinecap         % Prepare graphics state
1 setlinewidth 0 setlinejoin
10 setmiterlimit [ ] 0 setdash newpath
/languagelevel where           % If level not equal to 1 then
{pop languagelevel             % set strokeadjust and
1 ne                           % overprint to their defaults.
{false setstrokeadjust false setoverprint
} if
} if
} bd
/EndEPSF { %def
count op_count sub {pop} repeat            % Clean up stacks
countdictstack dict_count sub {end} repeat
b4_Inc_state restore
} bd
%%EndResource
%FOPBeginFontDict
%%IncludeResource: font Courier-Bold
%%IncludeResource: font Helvetica
%%IncludeResource: font Courier-BoldOblique
%%IncludeResource: font Courier-Oblique
%%IncludeResource: font Times-Roman
%%IncludeResource: font Helvetica-BoldOblique
%%IncludeResource: font Helvetica-Bold
%%IncludeResource: font Helvetica-Oblique
%%IncludeResource: font Times-BoldItalic
%%IncludeResource: font Courier
%%IncludeResource: font Times-Italic
%%IncludeResource: font Times-Bold
%%IncludeResource: font Symbol
%%IncludeResource: font ZapfDingbats
%FOPEndFontDict
%%BeginResource: encoding WinAnsiEncoding
/WinAnsiEncoding [
/.notdef /.notdef /.notdef /.notdef /.notdef
/.notdef /.notdef /.notdef /.notdef /.notdef
/.notdef /.notdef /.notdef /.notdef /.notdef
/.notdef /.notdef /.notdef /.notdef /.notdef
/.notdef /.notdef /.notdef /.notdef /.notdef
/.notdef /.notdef /.notdef /.notdef /.notdef
/.notdef /.notdef /space /exclam /quotedbl
/numbersign /dollar /percent /ampersand /quotesingle
/parenleft /parenright /asterisk /plus /comma
/hyphen /period /slash /zero /one
/two /three /four /five /six
/seven /eight /nine /colon /semicolon
/less /equal /greater /question /at
/A /B /C /D /E
/F /G /H /I /J
/K /L /M /N /O
/P /Q /R /S /T
/U /V /W /X /Y
/Z /bracketleft /backslash /bracketright /asciicircum
/underscore /quoteleft /a /b /c
/d /e /f /g /h
/i /j /k /l /m
/n /o /p /q /r
/s /t /u /v /w
/x /y /z /braceleft /bar
/braceright /asciitilde /bullet /Euro /bullet
/quotesinglbase /florin /quotedblbase /ellipsis /dagger
/daggerdbl /circumflex /perthousand /Scaron /guilsinglleft
/OE /bullet /Zcaron /bullet /bullet
/quoteleft /quoteright /quotedblleft /quotedblright /bullet
/endash /emdash /asciitilde /trademark /scaron
/guilsinglright /oe /bullet /zcaron /Ydieresis
/space /exclamdown /cent /sterling /currency
/yen /brokenbar /section /dieresis /copyright
/ordfeminine /guillemotleft /logicalnot /sfthyphen /registered
/macron /degree /plusminus /twosuperior /threesuperior
/acute /mu /paragraph /middot /cedilla
/onesuperior /ordmasculine /guillemotright /onequarter /onehalf
/threequarters /questiondown /Agrave /Aacute /Acircumflex
/Atilde /Adieresis /Aring /AE /Ccedilla
/Egrave /Eacute /Ecircumflex /Edieresis /Igrave
/Iacute /Icircumflex /Idieresis /Eth /Ntilde
/Ograve /Oacute /Ocircumflex /Otilde /Odieresis
/multiply /Oslash /Ugrave /Uacute /Ucircumflex
/Udieresis /Yacute /Thorn /germandbls /agrave
/aacute /acircumflex /atilde /adieresis /aring
/ae /ccedilla /egrave /eacute /ecircumflex
/edieresis /igrave /iacute /icircumflex /idieresis
/eth /ntilde /ograve /oacute /ocircumflex
/otilde /odieresis /divide /oslash /ugrave
/uacute /ucircumflex /udieresis /yacute /thorn
/ydieresis
] def
%%EndResource
%FOPBeginFontReencode
/Courier-Bold findfont
dup length dict begin
  {1 index /FID ne {def} {pop pop} ifelse} forall
  /Encoding WinAnsiEncoding def
  currentdict
end
/Courier-Bold exch definefont pop
/Helvetica findfont
dup length dict begin
  {1 index /FID ne {def} {pop pop} ifelse} forall
  /Encoding WinAnsiEncoding def
  currentdict
end
/Helvetica exch definefont pop
/Courier-BoldOblique findfont
dup length dict begin
  {1 index /FID ne {def} {pop pop} ifelse} forall
  /Encoding WinAnsiEncoding def
  currentdict
end
/Courier-BoldOblique exch definefont pop
/Courier-Oblique findfont
dup length dict begin
  {1 index /FID ne {def} {pop pop} ifelse} forall
  /Encoding WinAnsiEncoding def
  currentdict
end
/Courier-Oblique exch definefont pop
/Times-Roman findfont
dup length dict begin
  {1 index /FID ne {def} {pop pop} ifelse} forall
  /Encoding WinAnsiEncoding def
  currentdict
end
/Times-Roman exch definefont pop
/Helvetica-BoldOblique findfont
dup length dict begin
  {1 index /FID ne {def} {pop pop} ifelse} forall
  /Encoding WinAnsiEncoding def
  currentdict
end
/Helvetica-BoldOblique exch definefont pop
/Helvetica-Bold findfont
dup length dict begin
  {1 index /FID ne {def} {pop pop} ifelse} forall
  /Encoding WinAnsiEncoding def
  currentdict
end
/Helvetica-Bold exch definefont pop
/Helvetica-Oblique findfont
dup length dict begin
  {1 index /FID ne {def} {pop pop} ifelse} forall
  /Encoding WinAnsiEncoding def
  currentdict
end
/Helvetica-Oblique exch definefont pop
/Times-BoldItalic findfont
dup length dict begin
  {1 index /FID ne {def} {pop pop} ifelse} forall
  /Encoding WinAnsiEncoding def
  currentdict
end
/Times-BoldItalic exch definefont pop
/Courier findfont
dup length dict begin
  {1 index /FID ne {def} {pop pop} ifelse} forall
  /Encoding WinAnsiEncoding def
  currentdict
end
/Courier exch definefont pop
/Times-Italic findfont
dup length dict begin
  {1 index /FID ne {def} {pop pop} ifelse} forall
  /Encoding WinAnsiEncoding def
  currentdict
end
/Times-Italic exch definefont pop
/Times-Bold findfont
dup length dict begin
  {1 index /FID ne {def} {pop pop} ifelse} forall
  /Encoding WinAnsiEncoding def
  currentdict
end
/Times-Bold exch definefont pop
%FOPEndFontReencode
%%EndProlog
%%Page: 1 1
%%PageBoundingBox: 0 0 560 420
%%BeginPageSetup
[1 0 0 -1 0 420] CT
%%EndPageSetup
GS
1 GC
N
0 0 560 420 re
f
GR
GS
1 GC
N
0 0 560 420 re
f
GR
GS
1 GC
N
73 374 M
507 374 L
507 31 L
73 31 L
cp
f
GR
GS
0.873 GC
2 setlinecap
10.0 ML
N
73 374 M
73 31 L
S
GR
GS
0.873 GC
2 setlinecap
10.0 ML
N
121.222 374 M
121.222 31 L
S
GR
GS
0.873 GC
2 setlinecap
10.0 ML
N
169.444 374 M
169.444 31 L
S
GR
GS
0.873 GC
2 setlinecap
10.0 ML
N
217.667 374 M
217.667 31 L
S
GR
GS
0.873 GC
2 setlinecap
10.0 ML
N
265.889 374 M
265.889 31 L
S
GR
GS
0.873 GC
2 setlinecap
10.0 ML
N
314.111 374 M
314.111 31 L
S
GR
GS
0.873 GC
2 setlinecap
10.0 ML
N
362.333 374 M
362.333 31 L
S
GR
GS
0.873 GC
2 setlinecap
10.0 ML
N
410.556 374 M
410.556 31 L
S
GR
GS
0.873 GC
2 setlinecap
10.0 ML
N
458.778 374 M
458.778 31 L
S
GR
GS
0.873 GC
2 setlinecap
10.0 ML
N
507 374 M
507 31 L
S
GR
GS
0.873 GC
2 setlinecap
10.0 ML
N
507 374 M
73 374 L
S
GR
GS
0.873 GC
2 setlinecap
10.0 ML
N
507 339.7 M
73 339.7 L
S
GR
GS
0.873 GC
2 setlinecap
10.0 ML
N
507 305.4 M
73 305.4 L
S
GR
GS
0.873 GC
2 setlinecap
10.0 ML
N
507 271.1 M
73 271.1 L
S
GR
GS
0.873 GC
2 setlinecap
10.0 ML
N
507 236.8 M
73 236.8 L
S
GR
GS
0.873 GC
2 setlinecap
10.0 ML
N
507 202.5 M
73 202.5 L
S
GR
GS
0.873 GC
2 setlinecap
10.0 ML
N
507 168.2 M
73 168.2 L
S
GR
GS
0.873 GC
2 setlinecap
10.0 ML
N
507 133.9 M
73 133.9 L
S
GR
GS
0.873 GC
2 setlinecap
10.0 ML
N
507 99.6 M
73 99.6 L
S
GR
GS
0.873 GC
2 setlinecap
10.0 ML
N
507 65.3 M
73 65.3 L
S
GR
GS
0.873 GC
2 setlinecap
10.0 ML
N
507 31 M
73 31 L
S
GR
GS
[1 0 0 1 290 392.79999] CT
0.149 GC
/Helvetica 14 F
GS
[1 0 0 1 0 0] CT
-48.631 10.78 moveto 
1 -1 scale
(Fluid Energy  J]) t 
GR
GR
GS
0.149 GC
2 setlinecap
10.0 ML
N
73 374 M
507 374 L
S
GR
GS
0.149 GC
2 setlinecap
10.0 ML
N
73 374 M
73 369.66 L
S
GR
GS
0.149 GC
2 setlinecap
10.0 ML
N
121.222 374 M
121.222 369.66 L
S
GR
GS
0.149 GC
2 setlinecap
10.0 ML
N
169.444 374 M
169.444 369.66 L
S
GR
GS
0.149 GC
2 setlinecap
10.0 ML
N
217.667 374 M
217.667 369.66 L
S
GR
GS
0.149 GC
2 setlinecap
10.0 ML
N
265.889 374 M
265.889 369.66 L
S
GR
GS
0.149 GC
2 setlinecap
10.0 ML
N
314.111 374 M
314.111 369.66 L
S
GR
GS
0.149 GC
2 setlinecap
10.0 ML
N
362.333 374 M
362.333 369.66 L
S
GR
GS
0.149 GC
2 setlinecap
10.0 ML
N
410.556 374 M
410.556 369.66 L
S
GR
GS
0.149 GC
2 setlinecap
10.0 ML
N
458.778 374 M
458.778 369.66 L
S
GR
GS
0.149 GC
2 setlinecap
10.0 ML
N
507 374 M
507 369.66 L
S
GR
GS
[1 0 0 1 73 378.79999] CT
0.149 GC
/Helvetica 14 F
GS
[1 0 0 1 0 0] CT
-3.893 10.78 moveto 
1 -1 scale
(0) t 
GR
GR
GS
[1 0 0 1 121.22222 378.79999] CT
0.149 GC
/Helvetica 14 F
GS
[1 0 0 1 0 0] CT
-9.731 10.78 moveto 
1 -1 scale
(0.2) t 
GR
GR
GS
[1 0 0 1 169.44444 378.79999] CT
0.149 GC
/Helvetica 14 F
GS
[1 0 0 1 0 0] CT
-9.731 10.78 moveto 
1 -1 scale
(0.4) t 
GR
GR
GS
[1 0 0 1 217.66667 378.79999] CT
0.149 GC
/Helvetica 14 F
GS
[1 0 0 1 0 0] CT
-9.731 10.78 moveto 
1 -1 scale
(0.6) t 
GR
GR
GS
[1 0 0 1 265.88889 378.79999] CT
0.149 GC
/Helvetica 14 F
GS
[1 0 0 1 0 0] CT
-9.731 10.78 moveto 
1 -1 scale
(0.8) t 
GR
GR
GS
[1 0 0 1 314.11111 378.79999] CT
0.149 GC
/Helvetica 14 F
GS
[1 0 0 1 0 0] CT
-3.893 10.78 moveto 
1 -1 scale
(1) t 
GR
GR
GS
[1 0 0 1 362.33334 378.79999] CT
0.149 GC
/Helvetica 14 F
GS
[1 0 0 1 0 0] CT
-9.731 10.78 moveto 
1 -1 scale
(1.2) t 
GR
GR
GS
[1 0 0 1 410.55554 378.79999] CT
0.149 GC
/Helvetica 14 F
GS
[1 0 0 1 0 0] CT
-9.731 10.78 moveto 
1 -1 scale
(1.4) t 
GR
GR
GS
[1 0 0 1 458.77777 378.79999] CT
0.149 GC
/Helvetica 14 F
GS
[1 0 0 1 0 0] CT
-9.731 10.78 moveto 
1 -1 scale
(1.6) t 
GR
GR
GS
[1 0 0 1 507 378.79999] CT
0.149 GC
/Helvetica 14 F
GS
[1 0 0 1 0 0] CT
-9.731 10.78 moveto 
1 -1 scale
(1.8) t 
GR
GR
GS
[0 -1 1 0 37.95195 202.5] CT
0.149 GC
/Helvetica 14 F
GS
[1 0 0 1 0 0] CT
-66.131 -2.22 moveto 
1 -1 scale
(Fluid Energy Error [J]) t 
GR
GR
GS
0.149 GC
2 setlinecap
10.0 ML
N
73 374 M
73 31 L
S
GR
GS
0.149 GC
2 setlinecap
10.0 ML
N
73 374 M
77.34 374 L
S
GR
GS
0.149 GC
2 setlinecap
10.0 ML
N
73 339.7 M
77.34 339.7 L
S
GR
GS
0.149 GC
2 setlinecap
10.0 ML
N
73 305.4 M
77.34 305.4 L
S
GR
GS
0.149 GC
2 setlinecap
10.0 ML
N
73 271.1 M
77.34 271.1 L
S
GR
GS
0.149 GC
2 setlinecap
10.0 ML
N
73 236.8 M
77.34 236.8 L
S
GR
GS
0.149 GC
2 setlinecap
10.0 ML
N
73 202.5 M
77.34 202.5 L
S
GR
GS
0.149 GC
2 setlinecap
10.0 ML
N
73 168.2 M
77.34 168.2 L
S
GR
GS
0.149 GC
2 setlinecap
10.0 ML
N
73 133.9 M
77.34 133.9 L
S
GR
GS
0.149 GC
2 setlinecap
10.0 ML
N
73 99.6 M
77.34 99.6 L
S
GR
GS
0.149 GC
2 setlinecap
10.0 ML
N
73 65.3 M
77.34 65.3 L
S
GR
GS
0.149 GC
2 setlinecap
10.0 ML
N
73 31 M
77.34 31 L
S
GR
GS
[1 0 0 1 68.2 374] CT
0.149 GC
/Helvetica 14 F
GS
[1 0 0 1 0 0] CT
-7.786 4.28 moveto 
1 -1 scale
(0) t 
GR
GR
GS
[1 0 0 1 68.2 339.70001] CT
0.149 GC
/Helvetica 14 F
GS
[1 0 0 1 0 0] CT
-27.248 4.28 moveto 
1 -1 scale
(0.01) t 
GR
GR
GS
[1 0 0 1 68.2 305.39999] CT
0.149 GC
/Helvetica 14 F
GS
[1 0 0 1 0 0] CT
-27.248 4.28 moveto 
1 -1 scale
(0.02) t 
GR
GR
GS
[1 0 0 1 68.2 271.10001] CT
0.149 GC
/Helvetica 14 F
GS
[1 0 0 1 0 0] CT
-27.248 4.28 moveto 
1 -1 scale
(0.03) t 
GR
GR
GS
[1 0 0 1 68.2 236.8] CT
0.149 GC
/Helvetica 14 F
GS
[1 0 0 1 0 0] CT
-27.248 4.28 moveto 
1 -1 scale
(0.04) t 
GR
GR
GS
[1 0 0 1 68.2 202.5] CT
0.149 GC
/Helvetica 14 F
GS
[1 0 0 1 0 0] CT
-27.248 4.28 moveto 
1 -1 scale
(0.05) t 
GR
GR
GS
[1 0 0 1 68.2 168.20001] CT
0.149 GC
/Helvetica 14 F
GS
[1 0 0 1 0 0] CT
-27.248 4.28 moveto 
1 -1 scale
(0.06) t 
GR
GR
GS
[1 0 0 1 68.2 133.89999] CT
0.149 GC
/Helvetica 14 F
GS
[1 0 0 1 0 0] CT
-27.248 4.28 moveto 
1 -1 scale
(0.07) t 
GR
GR
GS
[1 0 0 1 68.2 99.60001] CT
0.149 GC
/Helvetica 14 F
GS
[1 0 0 1 0 0] CT
-27.248 4.28 moveto 
1 -1 scale
(0.08) t 
GR
GR
GS
[1 0 0 1 68.2 65.29999] CT
0.149 GC
/Helvetica 14 F
GS
[1 0 0 1 0 0] CT
-27.248 4.28 moveto 
1 -1 scale
(0.09) t 
GR
GR
GS
[1 0 0 1 68.2 30.99999] CT
0.149 GC
/Helvetica 14 F
GS
[1 0 0 1 0 0] CT
-19.462 4.28 moveto 
1 -1 scale
(0.1) t 
GR
GR
GS
2 setlinecap
10.0 ML
2 LW
N
73 374 M
74.301 359.448 L
78.396 344.236 L
85.268 331.615 L
94.811 318.687 L
107.305 304.34 L
122.748 287.897 L
141.314 269.907 L
162.31 249.467 L
184.087 229.935 L
206.211 212.519 L
229.028 196.16 L
252.887 180.165 L
278.308 164.008 L
305.29 146.894 L
333.834 129.638 L
364.373 111.456 L
396.735 92.217 L
430.831 72.54 L
466.663 52.067 L
S
GR
GS
2 setlinecap
10.0 ML
2 LW
N
76.5 373.5 M
75.621 371.379 L
73.5 370.5 L
71.379 371.379 L
70.5 373.5 L
71.379 375.621 L
73.5 376.5 L
75.621 375.621 L
76.5 373.5 L
S
GR
GS
2 setlinecap
10.0 ML
2 LW
N
77.5 359.5 M
76.621 357.379 L
74.5 356.5 L
72.379 357.379 L
71.5 359.5 L
72.379 361.621 L
74.5 362.5 L
76.621 361.621 L
77.5 359.5 L
S
GR
GS
2 setlinecap
10.0 ML
2 LW
N
81.5 344.5 M
80.621 342.379 L
78.5 341.5 L
76.379 342.379 L
75.5 344.5 L
76.379 346.621 L
78.5 347.5 L
80.621 346.621 L
81.5 344.5 L
S
GR
GS
2 setlinecap
10.0 ML
2 LW
N
88.5 331.5 M
87.621 329.379 L
85.5 328.5 L
83.379 329.379 L
82.5 331.5 L
83.379 333.621 L
85.5 334.5 L
87.621 333.621 L
88.5 331.5 L
S
GR
GS
2 setlinecap
10.0 ML
2 LW
N
97.5 318.5 M
96.621 316.379 L
94.5 315.5 L
92.379 316.379 L
91.5 318.5 L
92.379 320.621 L
94.5 321.5 L
96.621 320.621 L
97.5 318.5 L
S
GR
GS
2 setlinecap
10.0 ML
2 LW
N
110.5 304.5 M
109.621 302.379 L
107.5 301.5 L
105.379 302.379 L
104.5 304.5 L
105.379 306.621 L
107.5 307.5 L
109.621 306.621 L
110.5 304.5 L
S
GR
GS
2 setlinecap
10.0 ML
2 LW
N
125.5 287.5 M
124.621 285.379 L
122.5 284.5 L
120.379 285.379 L
119.5 287.5 L
120.379 289.621 L
122.5 290.5 L
124.621 289.621 L
125.5 287.5 L
S
GR
GS
2 setlinecap
10.0 ML
2 LW
N
144.5 269.5 M
143.621 267.379 L
141.5 266.5 L
139.379 267.379 L
138.5 269.5 L
139.379 271.621 L
141.5 272.5 L
143.621 271.621 L
144.5 269.5 L
S
GR
GS
2 setlinecap
10.0 ML
2 LW
N
165.5 249.5 M
164.621 247.379 L
162.5 246.5 L
160.379 247.379 L
159.5 249.5 L
160.379 251.621 L
162.5 252.5 L
164.621 251.621 L
165.5 249.5 L
S
GR
GS
2 setlinecap
10.0 ML
2 LW
N
187.5 229.5 M
186.621 227.379 L
184.5 226.5 L
182.379 227.379 L
181.5 229.5 L
182.379 231.621 L
184.5 232.5 L
186.621 231.621 L
187.5 229.5 L
S
GR
GS
2 setlinecap
10.0 ML
2 LW
N
209.5 212.5 M
208.621 210.379 L
206.5 209.5 L
204.379 210.379 L
203.5 212.5 L
204.379 214.621 L
206.5 215.5 L
208.621 214.621 L
209.5 212.5 L
S
GR
GS
2 setlinecap
10.0 ML
2 LW
N
232.5 196.5 M
231.621 194.379 L
229.5 193.5 L
227.379 194.379 L
226.5 196.5 L
227.379 198.621 L
229.5 199.5 L
231.621 198.621 L
232.5 196.5 L
S
GR
GS
2 setlinecap
10.0 ML
2 LW
N
255.5 180.5 M
254.621 178.379 L
252.5 177.5 L
250.379 178.379 L
249.5 180.5 L
250.379 182.621 L
252.5 183.5 L
254.621 182.621 L
255.5 180.5 L
S
GR
GS
2 setlinecap
10.0 ML
2 LW
N
281.5 164.5 M
280.621 162.379 L
278.5 161.5 L
276.379 162.379 L
275.5 164.5 L
276.379 166.621 L
278.5 167.5 L
280.621 166.621 L
281.5 164.5 L
S
GR
GS
2 setlinecap
10.0 ML
2 LW
N
308.5 146.5 M
307.621 144.379 L
305.5 143.5 L
303.379 144.379 L
302.5 146.5 L
303.379 148.621 L
305.5 149.5 L
307.621 148.621 L
308.5 146.5 L
S
GR
GS
2 setlinecap
10.0 ML
2 LW
N
336.5 129.5 M
335.621 127.379 L
333.5 126.5 L
331.379 127.379 L
330.5 129.5 L
331.379 131.621 L
333.5 132.5 L
335.621 131.621 L
336.5 129.5 L
S
GR
GS
2 setlinecap
10.0 ML
2 LW
N
367.5 111.5 M
366.621 109.379 L
364.5 108.5 L
362.379 109.379 L
361.5 111.5 L
362.379 113.621 L
364.5 114.5 L
366.621 113.621 L
367.5 111.5 L
S
GR
GS
2 setlinecap
10.0 ML
2 LW
N
399.5 92.5 M
398.621 90.379 L
396.5 89.5 L
394.379 90.379 L
393.5 92.5 L
394.379 94.621 L
396.5 95.5 L
398.621 94.621 L
399.5 92.5 L
S
GR
GS
2 setlinecap
10.0 ML
2 LW
N
433.5 72.5 M
432.621 70.379 L
430.5 69.5 L
428.379 70.379 L
427.5 72.5 L
428.379 74.621 L
430.5 75.5 L
432.621 74.621 L
433.5 72.5 L
S
GR
GS
2 setlinecap
10.0 ML
2 LW
N
469.5 52.5 M
468.621 50.379 L
466.5 49.5 L
464.379 50.379 L
463.5 52.5 L
464.379 54.621 L
466.5 55.5 L
468.621 54.621 L
469.5 52.5 L
S
GR
GS
1 0 0 RC
2 setlinecap
10.0 ML
2 LW
N
73 374 M
74.171 359.558 L
77.859 344.575 L
84.149 332.559 L
92.738 320.358 L
103.149 307.763 L
115.903 295.022 L
130.738 279.897 L
146.963 265.445 L
164.054 251.246 L
182.013 237.783 L
201.274 223.489 L
221.142 209.435 L
241.791 196.096 L
263.307 182.396 L
S
GR
GS
1 0 0 RC
2 setlinecap
10.0 ML
2 LW
N
68 373.5 M
79 373.5 L
S
GR
GS
1 0 0 RC
2 setlinecap
10.0 ML
2 LW
N
73.5 379 M
73.5 368 L
S
GR
GS
1 0 0 RC
2 setlinecap
10.0 ML
2 LW
N
69 359.5 M
80 359.5 L
S
GR
GS
1 0 0 RC
2 setlinecap
10.0 ML
2 LW
N
74.5 365 M
74.5 354 L
S
GR
GS
1 0 0 RC
2 setlinecap
10.0 ML
2 LW
N
72 344.5 M
83 344.5 L
S
GR
GS
1 0 0 RC
2 setlinecap
10.0 ML
2 LW
N
77.5 350 M
77.5 339 L
S
GR
GS
1 0 0 RC
2 setlinecap
10.0 ML
2 LW
N
79 332.5 M
90 332.5 L
S
GR
GS
1 0 0 RC
2 setlinecap
10.0 ML
2 LW
N
84.5 338 M
84.5 327 L
S
GR
GS
1 0 0 RC
2 setlinecap
10.0 ML
2 LW
N
87 320.5 M
98 320.5 L
S
GR
GS
1 0 0 RC
2 setlinecap
10.0 ML
2 LW
N
92.5 326 M
92.5 315 L
S
GR
GS
1 0 0 RC
2 setlinecap
10.0 ML
2 LW
N
98 307.5 M
109 307.5 L
S
GR
GS
1 0 0 RC
2 setlinecap
10.0 ML
2 LW
N
103.5 313 M
103.5 302 L
S
GR
GS
1 0 0 RC
2 setlinecap
10.0 ML
2 LW
N
110 295.5 M
121 295.5 L
S
GR
GS
1 0 0 RC
2 setlinecap
10.0 ML
2 LW
N
115.5 301 M
115.5 290 L
S
GR
GS
1 0 0 RC
2 setlinecap
10.0 ML
2 LW
N
125 279.5 M
136 279.5 L
S
GR
GS
1 0 0 RC
2 setlinecap
10.0 ML
2 LW
N
130.5 285 M
130.5 274 L
S
GR
GS
1 0 0 RC
2 setlinecap
10.0 ML
2 LW
N
141 265.5 M
152 265.5 L
S
GR
GS
1 0 0 RC
2 setlinecap
10.0 ML
2 LW
N
146.5 271 M
146.5 260 L
S
GR
GS
1 0 0 RC
2 setlinecap
10.0 ML
2 LW
N
159 251.5 M
170 251.5 L
S
GR
GS
1 0 0 RC
2 setlinecap
10.0 ML
2 LW
N
164.5 257 M
164.5 246 L
S
GR
GS
1 0 0 RC
2 setlinecap
10.0 ML
2 LW
N
177 237.5 M
188 237.5 L
S
GR
GS
1 0 0 RC
2 setlinecap
10.0 ML
2 LW
N
182.5 243 M
182.5 232 L
S
GR
GS
1 0 0 RC
2 setlinecap
10.0 ML
2 LW
N
196 223.5 M
207 223.5 L
S
GR
GS
1 0 0 RC
2 setlinecap
10.0 ML
2 LW
N
201.5 229 M
201.5 218 L
S
GR
GS
1 0 0 RC
2 setlinecap
10.0 ML
2 LW
N
216 209.5 M
227 209.5 L
S
GR
GS
1 0 0 RC
2 setlinecap
10.0 ML
2 LW
N
221.5 215 M
221.5 204 L
S
GR
GS
1 0 0 RC
2 setlinecap
10.0 ML
2 LW
N
236 196.5 M
247 196.5 L
S
GR
GS
1 0 0 RC
2 setlinecap
10.0 ML
2 LW
N
241.5 202 M
241.5 191 L
S
GR
GS
1 0 0 RC
2 setlinecap
10.0 ML
2 LW
N
258 182.5 M
269 182.5 L
S
GR
GS
1 0 0 RC
2 setlinecap
10.0 ML
2 LW
N
263.5 188 M
263.5 177 L
S
GR
GS
0 0 1 RC
2 setlinecap
10.0 ML
2 LW
N
73 374 M
74.345 359.409 L
77.859 344.398 L
83.498 333.203 L
91.567 321.662 L
101.978 309.372 L
114.645 295.823 L
129.741 281.386 L
147.787 265.011 L
168.869 246.351 L
192.988 225.862 L
220.057 203.463 L
249.903 179.809 L
282.264 154.973 L
317.055 129.693 L
353.754 103.481 L
392.275 78.079 L
432.792 51.814 L
S
GR
GS
0 0 1 RC
2 setlinecap
10.0 ML
2 LW
N
71.16 375.84 M
71.16 371.16 L
75.84 371.16 L
75.84 375.84 L
71.16 375.84 L
S
GR
GS
0 0 1 RC
2 setlinecap
10.0 ML
2 LW
N
72.16 361.84 M
72.16 357.16 L
76.84 357.16 L
76.84 361.84 L
72.16 361.84 L
S
GR
GS
0 0 1 RC
2 setlinecap
10.0 ML
2 LW
N
75.16 346.84 M
75.16 342.16 L
79.84 342.16 L
79.84 346.84 L
75.16 346.84 L
S
GR
GS
0 0 1 RC
2 setlinecap
10.0 ML
2 LW
N
81.16 335.84 M
81.16 331.16 L
85.84 331.16 L
85.84 335.84 L
81.16 335.84 L
S
GR
GS
0 0 1 RC
2 setlinecap
10.0 ML
2 LW
N
89.16 323.84 M
89.16 319.16 L
93.84 319.16 L
93.84 323.84 L
89.16 323.84 L
S
GR
GS
0 0 1 RC
2 setlinecap
10.0 ML
2 LW
N
99.16 311.84 M
99.16 307.16 L
103.84 307.16 L
103.84 311.84 L
99.16 311.84 L
S
GR
GS
0 0 1 RC
2 setlinecap
10.0 ML
2 LW
N
112.16 297.84 M
112.16 293.16 L
116.84 293.16 L
116.84 297.84 L
112.16 297.84 L
S
GR
GS
0 0 1 RC
2 setlinecap
10.0 ML
2 LW
N
127.16 283.84 M
127.16 279.16 L
131.84 279.16 L
131.84 283.84 L
127.16 283.84 L
S
GR
GS
0 0 1 RC
2 setlinecap
10.0 ML
2 LW
N
145.16 267.84 M
145.16 263.16 L
149.84 263.16 L
149.84 267.84 L
145.16 267.84 L
S
GR
GS
0 0 1 RC
2 setlinecap
10.0 ML
2 LW
N
166.16 248.84 M
166.16 244.16 L
170.84 244.16 L
170.84 248.84 L
166.16 248.84 L
S
GR
GS
0 0 1 RC
2 setlinecap
10.0 ML
2 LW
N
190.16 227.84 M
190.16 223.16 L
194.84 223.16 L
194.84 227.84 L
190.16 227.84 L
S
GR
GS
0 0 1 RC
2 setlinecap
10.0 ML
2 LW
N
218.16 205.84 M
218.16 201.16 L
222.84 201.16 L
222.84 205.84 L
218.16 205.84 L
S
GR
GS
0 0 1 RC
2 setlinecap
10.0 ML
2 LW
N
247.16 181.84 M
247.16 177.16 L
251.84 177.16 L
251.84 181.84 L
247.16 181.84 L
S
GR
GS
0 0 1 RC
2 setlinecap
10.0 ML
2 LW
N
280.16 156.84 M
280.16 152.16 L
284.84 152.16 L
284.84 156.84 L
280.16 156.84 L
S
GR
GS
0 0 1 RC
2 setlinecap
10.0 ML
2 LW
N
315.16 131.84 M
315.16 127.16 L
319.84 127.16 L
319.84 131.84 L
315.16 131.84 L
S
GR
GS
0 0 1 RC
2 setlinecap
10.0 ML
2 LW
N
351.16 105.84 M
351.16 101.16 L
355.84 101.16 L
355.84 105.84 L
351.16 105.84 L
S
GR
GS
0 0 1 RC
2 setlinecap
10.0 ML
2 LW
N
390.16 80.84 M
390.16 76.16 L
394.84 76.16 L
394.84 80.84 L
390.16 80.84 L
S
GR
GS
0 0 1 RC
2 setlinecap
10.0 ML
2 LW
N
430.16 53.84 M
430.16 49.16 L
434.84 49.16 L
434.84 53.84 L
430.16 53.84 L
S
GR
GS
1 GC
N
83 79 M
83 41 L
180 41 L
180 79 L
cp
f
GR
GS
[1 0 0 1 121.86072 48.5] CT
/Helvetica 12 F
GS
[1 0 0 1 0 0] CT
0 3.74 moveto 
1 -1 scale
(Cylindrical) t 
GR
GR
GS
2 setlinecap
10.0 ML
2 LW
N
88.979 48.5 M
118.871 48.5 L
S
GR
GS
2 setlinecap
10.0 ML
2 LW
N
106.5 48.5 M
105.621 46.379 L
103.5 45.5 L
101.379 46.379 L
100.5 48.5 L
101.379 50.621 L
103.5 51.5 L
105.621 50.621 L
106.5 48.5 L
S
GR
GS
[1 0 0 1 121.86072 60] CT
/Helvetica 12 F
GS
[1 0 0 1 0 0] CT
0 3.74 moveto 
1 -1 scale
(Ribbed) t 
GR
GR
GS
1 0 0 RC
2 setlinecap
10.0 ML
2 LW
N
88.979 60 M
118.871 60 L
S
GR
GS
1 0 0 RC
2 setlinecap
10.0 ML
2 LW
N
98 59.5 M
109 59.5 L
S
GR
GS
1 0 0 RC
2 setlinecap
10.0 ML
2 LW
N
103.5 65 M
103.5 54 L
S
GR
GS
[1 0 0 1 121.86072 71.5] CT
/Helvetica 12 F
GS
[1 0 0 1 0 0] CT
0 3.74 moveto 
1 -1 scale
(Pleated) t 
GR
GR
GS
0 0 1 RC
2 setlinecap
10.0 ML
2 LW
N
88.979 71.5 M
118.871 71.5 L
S
GR
GS
0 0 1 RC
2 setlinecap
10.0 ML
2 LW
N
101.16 73.84 M
101.16 69.16 L
105.84 69.16 L
105.84 73.84 L
101.16 73.84 L
S
GR
GS
0.149 GC
2 setlinecap
10.0 ML
N
83 79 M
83 41 L
180 41 L
180 79 L
83 79 L
S
GR
%%Trailer
%%Pages: 1
%%EOF
