%!PS-Adobe-3.0 EPSF-3.0
%%Creator: (MATLAB, The Mathworks, Inc. Version 8.4.0.150421 \(R2014b\). Operating System: Mac OS X)
%%Title: /Users/rkk/softrobotics-git/papers/recipessoftfluidicrobotspaper/figures/actuators/morphologiescharacterization/ForceVsEnergyColor.eps
%%CreationDate: 2015-01-14T14:07:02
%%Pages: (atend)
%%BoundingBox: 0 0 560 420
%%LanguageLevel: 2
%%EndComments
%%BeginProlog
%%BeginResource: procset (Apache XML Graphics Std ProcSet) 1.2 0
%%Version: 1.2 0
%%Copyright: (Copyright 2001-2003,2010 The Apache Software Foundation. License terms: http://www.apache.org/licenses/LICENSE-2.0)
/bd{bind def}bind def
/ld{load def}bd
/GR/grestore ld
/M/moveto ld
/LJ/setlinejoin ld
/C/curveto ld
/f/fill ld
/LW/setlinewidth ld
/GC/setgray ld
/t/show ld
/N/newpath ld
/CT/concat ld
/cp/closepath ld
/S/stroke ld
/L/lineto ld
/CC/setcmykcolor ld
/A/ashow ld
/GS/gsave ld
/RC/setrgbcolor ld
/RM/rmoveto ld
/ML/setmiterlimit ld
/re {4 2 roll M
1 index 0 rlineto
0 exch rlineto
neg 0 rlineto
cp } bd
/_ctm matrix def
/_tm matrix def
/BT { _ctm currentmatrix pop matrix _tm copy pop 0 0 moveto } bd
/ET { _ctm setmatrix } bd
/iTm { _ctm setmatrix _tm concat } bd
/Tm { _tm astore pop iTm 0 0 moveto } bd
/ux 0.0 def
/uy 0.0 def
/F {
  /Tp exch def
  /Tf exch def
  Tf findfont Tp scalefont setfont
  /cf Tf def  /cs Tp def
} bd
/ULS {currentpoint /uy exch def /ux exch def} bd
/ULE {
  /Tcx currentpoint pop def
  gsave
  newpath
  cf findfont cs scalefont dup
  /FontMatrix get 0 get /Ts exch def /FontInfo get dup
  /UnderlinePosition get Ts mul /To exch def
  /UnderlineThickness get Ts mul /Tt exch def
  ux uy To add moveto  Tcx uy To add lineto
  Tt setlinewidth stroke
  grestore
} bd
/OLE {
  /Tcx currentpoint pop def
  gsave
  newpath
  cf findfont cs scalefont dup
  /FontMatrix get 0 get /Ts exch def /FontInfo get dup
  /UnderlinePosition get Ts mul /To exch def
  /UnderlineThickness get Ts mul /Tt exch def
  ux uy To add cs add moveto Tcx uy To add cs add lineto
  Tt setlinewidth stroke
  grestore
} bd
/SOE {
  /Tcx currentpoint pop def
  gsave
  newpath
  cf findfont cs scalefont dup
  /FontMatrix get 0 get /Ts exch def /FontInfo get dup
  /UnderlinePosition get Ts mul /To exch def
  /UnderlineThickness get Ts mul /Tt exch def
  ux uy To add cs 10 mul 26 idiv add moveto Tcx uy To add cs 10 mul 26 idiv add lineto
  Tt setlinewidth stroke
  grestore
} bd
/QT {
/Y22 exch store
/X22 exch store
/Y21 exch store
/X21 exch store
currentpoint
/Y21 load 2 mul add 3 div exch
/X21 load 2 mul add 3 div exch
/X21 load 2 mul /X22 load add 3 div
/Y21 load 2 mul /Y22 load add 3 div
/X22 load /Y22 load curveto
} bd
/SSPD {
dup length /d exch dict def
{
/v exch def
/k exch def
currentpagedevice k known {
/cpdv currentpagedevice k get def
v cpdv ne {
/upd false def
/nullv v type /nulltype eq def
/nullcpdv cpdv type /nulltype eq def
nullv nullcpdv or
{
/upd true def
} {
/sametype v type cpdv type eq def
sametype {
v type /arraytype eq {
/vlen v length def
/cpdvlen cpdv length def
vlen cpdvlen eq {
0 1 vlen 1 sub {
/i exch def
/obj v i get def
/cpdobj cpdv i get def
obj cpdobj ne {
/upd true def
exit
} if
} for
} {
/upd true def
} ifelse
} {
v type /dicttype eq {
v {
/dv exch def
/dk exch def
/cpddv cpdv dk get def
dv cpddv ne {
/upd true def
exit
} if
} forall
} {
/upd true def
} ifelse
} ifelse
} if
} ifelse
upd true eq {
d k v put
} if
} if
} if
} forall
d length 0 gt {
d setpagedevice
} if
} bd
%%EndResource
%%BeginResource: procset (Apache XML Graphics EPS ProcSet) 1.0 0
%%Version: 1.0 0
%%Copyright: (Copyright 2002-2003 The Apache Software Foundation. License terms: http://www.apache.org/licenses/LICENSE-2.0)
/BeginEPSF { %def
/b4_Inc_state save def         % Save state for cleanup
/dict_count countdictstack def % Count objects on dict stack
/op_count count 1 sub def      % Count objects on operand stack
userdict begin                 % Push userdict on dict stack
/showpage { } def              % Redefine showpage, { } = null proc
0 setgray 0 setlinecap         % Prepare graphics state
1 setlinewidth 0 setlinejoin
10 setmiterlimit [ ] 0 setdash newpath
/languagelevel where           % If level not equal to 1 then
{pop languagelevel             % set strokeadjust and
1 ne                           % overprint to their defaults.
{false setstrokeadjust false setoverprint
} if
} if
} bd
/EndEPSF { %def
count op_count sub {pop} repeat            % Clean up stacks
countdictstack dict_count sub {end} repeat
b4_Inc_state restore
} bd
%%EndResource
%FOPBeginFontDict
%%IncludeResource: font Courier-Bold
%%IncludeResource: font Helvetica
%%IncludeResource: font Courier-BoldOblique
%%IncludeResource: font Courier-Oblique
%%IncludeResource: font Times-Roman
%%IncludeResource: font Helvetica-BoldOblique
%%IncludeResource: font Helvetica-Bold
%%IncludeResource: font Helvetica-Oblique
%%IncludeResource: font Times-BoldItalic
%%IncludeResource: font Courier
%%IncludeResource: font Times-Italic
%%IncludeResource: font Times-Bold
%%IncludeResource: font Symbol
%%IncludeResource: font ZapfDingbats
%FOPEndFontDict
%%BeginResource: encoding WinAnsiEncoding
/WinAnsiEncoding [
/.notdef /.notdef /.notdef /.notdef /.notdef
/.notdef /.notdef /.notdef /.notdef /.notdef
/.notdef /.notdef /.notdef /.notdef /.notdef
/.notdef /.notdef /.notdef /.notdef /.notdef
/.notdef /.notdef /.notdef /.notdef /.notdef
/.notdef /.notdef /.notdef /.notdef /.notdef
/.notdef /.notdef /space /exclam /quotedbl
/numbersign /dollar /percent /ampersand /quotesingle
/parenleft /parenright /asterisk /plus /comma
/hyphen /period /slash /zero /one
/two /three /four /five /six
/seven /eight /nine /colon /semicolon
/less /equal /greater /question /at
/A /B /C /D /E
/F /G /H /I /J
/K /L /M /N /O
/P /Q /R /S /T
/U /V /W /X /Y
/Z /bracketleft /backslash /bracketright /asciicircum
/underscore /quoteleft /a /b /c
/d /e /f /g /h
/i /j /k /l /m
/n /o /p /q /r
/s /t /u /v /w
/x /y /z /braceleft /bar
/braceright /asciitilde /bullet /Euro /bullet
/quotesinglbase /florin /quotedblbase /ellipsis /dagger
/daggerdbl /circumflex /perthousand /Scaron /guilsinglleft
/OE /bullet /Zcaron /bullet /bullet
/quoteleft /quoteright /quotedblleft /quotedblright /bullet
/endash /emdash /asciitilde /trademark /scaron
/guilsinglright /oe /bullet /zcaron /Ydieresis
/space /exclamdown /cent /sterling /currency
/yen /brokenbar /section /dieresis /copyright
/ordfeminine /guillemotleft /logicalnot /sfthyphen /registered
/macron /degree /plusminus /twosuperior /threesuperior
/acute /mu /paragraph /middot /cedilla
/onesuperior /ordmasculine /guillemotright /onequarter /onehalf
/threequarters /questiondown /Agrave /Aacute /Acircumflex
/Atilde /Adieresis /Aring /AE /Ccedilla
/Egrave /Eacute /Ecircumflex /Edieresis /Igrave
/Iacute /Icircumflex /Idieresis /Eth /Ntilde
/Ograve /Oacute /Ocircumflex /Otilde /Odieresis
/multiply /Oslash /Ugrave /Uacute /Ucircumflex
/Udieresis /Yacute /Thorn /germandbls /agrave
/aacute /acircumflex /atilde /adieresis /aring
/ae /ccedilla /egrave /eacute /ecircumflex
/edieresis /igrave /iacute /icircumflex /idieresis
/eth /ntilde /ograve /oacute /ocircumflex
/otilde /odieresis /divide /oslash /ugrave
/uacute /ucircumflex /udieresis /yacute /thorn
/ydieresis
] def
%%EndResource
%FOPBeginFontReencode
/Courier-Bold findfont
dup length dict begin
  {1 index /FID ne {def} {pop pop} ifelse} forall
  /Encoding WinAnsiEncoding def
  currentdict
end
/Courier-Bold exch definefont pop
/Helvetica findfont
dup length dict begin
  {1 index /FID ne {def} {pop pop} ifelse} forall
  /Encoding WinAnsiEncoding def
  currentdict
end
/Helvetica exch definefont pop
/Courier-BoldOblique findfont
dup length dict begin
  {1 index /FID ne {def} {pop pop} ifelse} forall
  /Encoding WinAnsiEncoding def
  currentdict
end
/Courier-BoldOblique exch definefont pop
/Courier-Oblique findfont
dup length dict begin
  {1 index /FID ne {def} {pop pop} ifelse} forall
  /Encoding WinAnsiEncoding def
  currentdict
end
/Courier-Oblique exch definefont pop
/Times-Roman findfont
dup length dict begin
  {1 index /FID ne {def} {pop pop} ifelse} forall
  /Encoding WinAnsiEncoding def
  currentdict
end
/Times-Roman exch definefont pop
/Helvetica-BoldOblique findfont
dup length dict begin
  {1 index /FID ne {def} {pop pop} ifelse} forall
  /Encoding WinAnsiEncoding def
  currentdict
end
/Helvetica-BoldOblique exch definefont pop
/Helvetica-Bold findfont
dup length dict begin
  {1 index /FID ne {def} {pop pop} ifelse} forall
  /Encoding WinAnsiEncoding def
  currentdict
end
/Helvetica-Bold exch definefont pop
/Helvetica-Oblique findfont
dup length dict begin
  {1 index /FID ne {def} {pop pop} ifelse} forall
  /Encoding WinAnsiEncoding def
  currentdict
end
/Helvetica-Oblique exch definefont pop
/Times-BoldItalic findfont
dup length dict begin
  {1 index /FID ne {def} {pop pop} ifelse} forall
  /Encoding WinAnsiEncoding def
  currentdict
end
/Times-BoldItalic exch definefont pop
/Courier findfont
dup length dict begin
  {1 index /FID ne {def} {pop pop} ifelse} forall
  /Encoding WinAnsiEncoding def
  currentdict
end
/Courier exch definefont pop
/Times-Italic findfont
dup length dict begin
  {1 index /FID ne {def} {pop pop} ifelse} forall
  /Encoding WinAnsiEncoding def
  currentdict
end
/Times-Italic exch definefont pop
/Times-Bold findfont
dup length dict begin
  {1 index /FID ne {def} {pop pop} ifelse} forall
  /Encoding WinAnsiEncoding def
  currentdict
end
/Times-Bold exch definefont pop
%FOPEndFontReencode
%%EndProlog
%%Page: 1 1
%%PageBoundingBox: 0 0 560 420
%%BeginPageSetup
[1 0 0 -1 0 420] CT
%%EndPageSetup
GS
1 GC
N
0 0 560 420 re
f
GR
GS
1 GC
N
0 0 560 420 re
f
GR
GS
1 GC
N
73 374 M
507 374 L
507 31 L
73 31 L
cp
f
GR
GS
0.873 GC
2 setlinecap
10.0 ML
N
73 374 M
73 31 L
S
GR
GS
0.873 GC
2 setlinecap
10.0 ML
N
145.333 374 M
145.333 31 L
S
GR
GS
0.873 GC
2 setlinecap
10.0 ML
N
217.667 374 M
217.667 31 L
S
GR
GS
0.873 GC
2 setlinecap
10.0 ML
N
290 374 M
290 31 L
S
GR
GS
0.873 GC
2 setlinecap
10.0 ML
N
362.333 374 M
362.333 31 L
S
GR
GS
0.873 GC
2 setlinecap
10.0 ML
N
434.667 374 M
434.667 31 L
S
GR
GS
0.873 GC
2 setlinecap
10.0 ML
N
507 374 M
507 31 L
S
GR
GS
0.873 GC
2 setlinecap
10.0 ML
N
507 374 M
73 374 L
S
GR
GS
0.873 GC
2 setlinecap
10.0 ML
N
507 339.7 M
73 339.7 L
S
GR
GS
0.873 GC
2 setlinecap
10.0 ML
N
507 305.4 M
73 305.4 L
S
GR
GS
0.873 GC
2 setlinecap
10.0 ML
N
507 271.1 M
73 271.1 L
S
GR
GS
0.873 GC
2 setlinecap
10.0 ML
N
507 236.8 M
73 236.8 L
S
GR
GS
0.873 GC
2 setlinecap
10.0 ML
N
507 202.5 M
73 202.5 L
S
GR
GS
0.873 GC
2 setlinecap
10.0 ML
N
507 168.2 M
73 168.2 L
S
GR
GS
0.873 GC
2 setlinecap
10.0 ML
N
507 133.9 M
73 133.9 L
S
GR
GS
0.873 GC
2 setlinecap
10.0 ML
N
507 99.6 M
73 99.6 L
S
GR
GS
0.873 GC
2 setlinecap
10.0 ML
N
507 65.3 M
73 65.3 L
S
GR
GS
0.873 GC
2 setlinecap
10.0 ML
N
507 31 M
73 31 L
S
GR
GS
[1 0 0 1 290 392.79999] CT
0.149 GC
/Helvetica 20 F
GS
[1 0 0 1 0 0] CT
-69.473 15.4 moveto 
1 -1 scale
(Fluid Energy [J]) t 
GR
GR
GS
0.149 GC
2 setlinecap
10.0 ML
N
73 374 M
507 374 L
S
GR
GS
0.149 GC
2 setlinecap
10.0 ML
N
73 374 M
73 369.66 L
S
GR
GS
0.149 GC
2 setlinecap
10.0 ML
N
145.333 374 M
145.333 369.66 L
S
GR
GS
0.149 GC
2 setlinecap
10.0 ML
N
217.667 374 M
217.667 369.66 L
S
GR
GS
0.149 GC
2 setlinecap
10.0 ML
N
290 374 M
290 369.66 L
S
GR
GS
0.149 GC
2 setlinecap
10.0 ML
N
362.333 374 M
362.333 369.66 L
S
GR
GS
0.149 GC
2 setlinecap
10.0 ML
N
434.667 374 M
434.667 369.66 L
S
GR
GS
0.149 GC
2 setlinecap
10.0 ML
N
507 374 M
507 369.66 L
S
GR
GS
[1 0 0 1 73 378.79999] CT
0.149 GC
/Helvetica 14 F
GS
[1 0 0 1 0 0] CT
-3.893 10.78 moveto 
1 -1 scale
(0) t 
GR
GR
GS
[1 0 0 1 145.33333 378.79999] CT
0.149 GC
/Helvetica 14 F
GS
[1 0 0 1 0 0] CT
-3.893 10.78 moveto 
1 -1 scale
(1) t 
GR
GR
GS
[1 0 0 1 217.66667 378.79999] CT
0.149 GC
/Helvetica 14 F
GS
[1 0 0 1 0 0] CT
-3.893 10.78 moveto 
1 -1 scale
(2) t 
GR
GR
GS
[1 0 0 1 290 378.79999] CT
0.149 GC
/Helvetica 14 F
GS
[1 0 0 1 0 0] CT
-3.893 10.78 moveto 
1 -1 scale
(3) t 
GR
GR
GS
[1 0 0 1 362.33334 378.79999] CT
0.149 GC
/Helvetica 14 F
GS
[1 0 0 1 0 0] CT
-3.893 10.78 moveto 
1 -1 scale
(4) t 
GR
GR
GS
[1 0 0 1 434.66666 378.79999] CT
0.149 GC
/Helvetica 14 F
GS
[1 0 0 1 0 0] CT
-3.893 10.78 moveto 
1 -1 scale
(5) t 
GR
GR
GS
[1 0 0 1 507 378.79999] CT
0.149 GC
/Helvetica 14 F
GS
[1 0 0 1 0 0] CT
-3.893 10.78 moveto 
1 -1 scale
(6) t 
GR
GR
GS
[0 -1 1 0 45.73809 202.5] CT
0.149 GC
/Helvetica 20 F
GS
[1 0 0 1 0 0] CT
-57.788 -3.6 moveto 
1 -1 scale
(Tip Force [N]) t 
GR
GR
GS
0.149 GC
2 setlinecap
10.0 ML
N
73 374 M
73 31 L
S
GR
GS
0.149 GC
2 setlinecap
10.0 ML
N
73 374 M
77.34 374 L
S
GR
GS
0.149 GC
2 setlinecap
10.0 ML
N
73 339.7 M
77.34 339.7 L
S
GR
GS
0.149 GC
2 setlinecap
10.0 ML
N
73 305.4 M
77.34 305.4 L
S
GR
GS
0.149 GC
2 setlinecap
10.0 ML
N
73 271.1 M
77.34 271.1 L
S
GR
GS
0.149 GC
2 setlinecap
10.0 ML
N
73 236.8 M
77.34 236.8 L
S
GR
GS
0.149 GC
2 setlinecap
10.0 ML
N
73 202.5 M
77.34 202.5 L
S
GR
GS
0.149 GC
2 setlinecap
10.0 ML
N
73 168.2 M
77.34 168.2 L
S
GR
GS
0.149 GC
2 setlinecap
10.0 ML
N
73 133.9 M
77.34 133.9 L
S
GR
GS
0.149 GC
2 setlinecap
10.0 ML
N
73 99.6 M
77.34 99.6 L
S
GR
GS
0.149 GC
2 setlinecap
10.0 ML
N
73 65.3 M
77.34 65.3 L
S
GR
GS
0.149 GC
2 setlinecap
10.0 ML
N
73 31 M
77.34 31 L
S
GR
GS
[1 0 0 1 68.2 374] CT
0.149 GC
/Helvetica 14 F
GS
[1 0 0 1 0 0] CT
-7.786 4.28 moveto 
1 -1 scale
(0) t 
GR
GR
GS
[1 0 0 1 68.2 339.70001] CT
0.149 GC
/Helvetica 14 F
GS
[1 0 0 1 0 0] CT
-19.462 4.28 moveto 
1 -1 scale
(0.2) t 
GR
GR
GS
[1 0 0 1 68.2 305.39999] CT
0.149 GC
/Helvetica 14 F
GS
[1 0 0 1 0 0] CT
-19.462 4.28 moveto 
1 -1 scale
(0.4) t 
GR
GR
GS
[1 0 0 1 68.2 271.10001] CT
0.149 GC
/Helvetica 14 F
GS
[1 0 0 1 0 0] CT
-19.462 4.28 moveto 
1 -1 scale
(0.6) t 
GR
GR
GS
[1 0 0 1 68.2 236.8] CT
0.149 GC
/Helvetica 14 F
GS
[1 0 0 1 0 0] CT
-19.462 4.28 moveto 
1 -1 scale
(0.8) t 
GR
GR
GS
[1 0 0 1 68.2 202.5] CT
0.149 GC
/Helvetica 14 F
GS
[1 0 0 1 0 0] CT
-7.786 4.28 moveto 
1 -1 scale
(1) t 
GR
GR
GS
[1 0 0 1 68.2 168.2] CT
0.149 GC
/Helvetica 14 F
GS
[1 0 0 1 0 0] CT
-19.462 4.28 moveto 
1 -1 scale
(1.2) t 
GR
GR
GS
[1 0 0 1 68.2 133.90001] CT
0.149 GC
/Helvetica 14 F
GS
[1 0 0 1 0 0] CT
-19.462 4.28 moveto 
1 -1 scale
(1.4) t 
GR
GR
GS
[1 0 0 1 68.2 99.6] CT
0.149 GC
/Helvetica 14 F
GS
[1 0 0 1 0 0] CT
-19.462 4.28 moveto 
1 -1 scale
(1.6) t 
GR
GR
GS
[1 0 0 1 68.2 65.30001] CT
0.149 GC
/Helvetica 14 F
GS
[1 0 0 1 0 0] CT
-19.462 4.28 moveto 
1 -1 scale
(1.8) t 
GR
GR
GS
[1 0 0 1 68.2 31] CT
0.149 GC
/Helvetica 14 F
GS
[1 0 0 1 0 0] CT
-7.786 4.28 moveto 
1 -1 scale
(2) t 
GR
GR
GS
2 setlinecap
10.0 ML
2 LW
N
73 374 M
73.202 374 L
73.863 374 L
75.002 374 L
76.618 374 L
78.858 373.966 L
81.833 373.818 L
85.433 373.647 L
89.73 373.146 L
94.872 372.531 L
100.785 371.505 L
107.433 369.797 L
114.815 366.266 L
122.859 361.937 L
131.49 334.143 L
140.415 282.541 L
149.413 255.203 L
158.815 233.902 L
168.732 214.993 L
179.126 195.628 L
190.108 177.63 L
201.751 161.569 L
214.202 146.191 L
227.424 130.699 L
241.307 113.612 L
S
GR
GS
2 setlinecap
10.0 ML
2 LW
N
76.5 373.5 M
75.621 371.379 L
73.5 370.5 L
71.379 371.379 L
70.5 373.5 L
71.379 375.621 L
73.5 376.5 L
75.621 375.621 L
76.5 373.5 L
S
GR
GS
2 setlinecap
10.0 ML
2 LW
N
76.5 373.5 M
75.621 371.379 L
73.5 370.5 L
71.379 371.379 L
70.5 373.5 L
71.379 375.621 L
73.5 376.5 L
75.621 375.621 L
76.5 373.5 L
S
GR
GS
2 setlinecap
10.0 ML
2 LW
N
76.5 373.5 M
75.621 371.379 L
73.5 370.5 L
71.379 371.379 L
70.5 373.5 L
71.379 375.621 L
73.5 376.5 L
75.621 375.621 L
76.5 373.5 L
S
GR
GS
2 setlinecap
10.0 ML
2 LW
N
78.5 373.5 M
77.621 371.379 L
75.5 370.5 L
73.379 371.379 L
72.5 373.5 L
73.379 375.621 L
75.5 376.5 L
77.621 375.621 L
78.5 373.5 L
S
GR
GS
2 setlinecap
10.0 ML
2 LW
N
79.5 373.5 M
78.621 371.379 L
76.5 370.5 L
74.379 371.379 L
73.5 373.5 L
74.379 375.621 L
76.5 376.5 L
78.621 375.621 L
79.5 373.5 L
S
GR
GS
2 setlinecap
10.0 ML
2 LW
N
81.5 373.5 M
80.621 371.379 L
78.5 370.5 L
76.379 371.379 L
75.5 373.5 L
76.379 375.621 L
78.5 376.5 L
80.621 375.621 L
81.5 373.5 L
S
GR
GS
2 setlinecap
10.0 ML
2 LW
N
84.5 373.5 M
83.621 371.379 L
81.5 370.5 L
79.379 371.379 L
78.5 373.5 L
79.379 375.621 L
81.5 376.5 L
83.621 375.621 L
84.5 373.5 L
S
GR
GS
2 setlinecap
10.0 ML
2 LW
N
88.5 373.5 M
87.621 371.379 L
85.5 370.5 L
83.379 371.379 L
82.5 373.5 L
83.379 375.621 L
85.5 376.5 L
87.621 375.621 L
88.5 373.5 L
S
GR
GS
2 setlinecap
10.0 ML
2 LW
N
92.5 373.5 M
91.621 371.379 L
89.5 370.5 L
87.379 371.379 L
86.5 373.5 L
87.379 375.621 L
89.5 376.5 L
91.621 375.621 L
92.5 373.5 L
S
GR
GS
2 setlinecap
10.0 ML
2 LW
N
97.5 372.5 M
96.621 370.379 L
94.5 369.5 L
92.379 370.379 L
91.5 372.5 L
92.379 374.621 L
94.5 375.5 L
96.621 374.621 L
97.5 372.5 L
S
GR
GS
2 setlinecap
10.0 ML
2 LW
N
103.5 371.5 M
102.621 369.379 L
100.5 368.5 L
98.379 369.379 L
97.5 371.5 L
98.379 373.621 L
100.5 374.5 L
102.621 373.621 L
103.5 371.5 L
S
GR
GS
2 setlinecap
10.0 ML
2 LW
N
110.5 369.5 M
109.621 367.379 L
107.5 366.5 L
105.379 367.379 L
104.5 369.5 L
105.379 371.621 L
107.5 372.5 L
109.621 371.621 L
110.5 369.5 L
S
GR
GS
2 setlinecap
10.0 ML
2 LW
N
117.5 366.5 M
116.621 364.379 L
114.5 363.5 L
112.379 364.379 L
111.5 366.5 L
112.379 368.621 L
114.5 369.5 L
116.621 368.621 L
117.5 366.5 L
S
GR
GS
2 setlinecap
10.0 ML
2 LW
N
125.5 361.5 M
124.621 359.379 L
122.5 358.5 L
120.379 359.379 L
119.5 361.5 L
120.379 363.621 L
122.5 364.5 L
124.621 363.621 L
125.5 361.5 L
S
GR
GS
2 setlinecap
10.0 ML
2 LW
N
134.5 334.5 M
133.621 332.379 L
131.5 331.5 L
129.379 332.379 L
128.5 334.5 L
129.379 336.621 L
131.5 337.5 L
133.621 336.621 L
134.5 334.5 L
S
GR
GS
2 setlinecap
10.0 ML
2 LW
N
143.5 282.5 M
142.621 280.379 L
140.5 279.5 L
138.379 280.379 L
137.5 282.5 L
138.379 284.621 L
140.5 285.5 L
142.621 284.621 L
143.5 282.5 L
S
GR
GS
2 setlinecap
10.0 ML
2 LW
N
152.5 255.5 M
151.621 253.379 L
149.5 252.5 L
147.379 253.379 L
146.5 255.5 L
147.379 257.621 L
149.5 258.5 L
151.621 257.621 L
152.5 255.5 L
S
GR
GS
2 setlinecap
10.0 ML
2 LW
N
161.5 233.5 M
160.621 231.379 L
158.5 230.5 L
156.379 231.379 L
155.5 233.5 L
156.379 235.621 L
158.5 236.5 L
160.621 235.621 L
161.5 233.5 L
S
GR
GS
2 setlinecap
10.0 ML
2 LW
N
171.5 214.5 M
170.621 212.379 L
168.5 211.5 L
166.379 212.379 L
165.5 214.5 L
166.379 216.621 L
168.5 217.5 L
170.621 216.621 L
171.5 214.5 L
S
GR
GS
2 setlinecap
10.0 ML
2 LW
N
182.5 195.5 M
181.621 193.379 L
179.5 192.5 L
177.379 193.379 L
176.5 195.5 L
177.379 197.621 L
179.5 198.5 L
181.621 197.621 L
182.5 195.5 L
S
GR
GS
2 setlinecap
10.0 ML
2 LW
N
193.5 177.5 M
192.621 175.379 L
190.5 174.5 L
188.379 175.379 L
187.5 177.5 L
188.379 179.621 L
190.5 180.5 L
192.621 179.621 L
193.5 177.5 L
S
GR
GS
2 setlinecap
10.0 ML
2 LW
N
204.5 161.5 M
203.621 159.379 L
201.5 158.5 L
199.379 159.379 L
198.5 161.5 L
199.379 163.621 L
201.5 164.5 L
203.621 163.621 L
204.5 161.5 L
S
GR
GS
2 setlinecap
10.0 ML
2 LW
N
217.5 146.5 M
216.621 144.379 L
214.5 143.5 L
212.379 144.379 L
211.5 146.5 L
212.379 148.621 L
214.5 149.5 L
216.621 148.621 L
217.5 146.5 L
S
GR
GS
2 setlinecap
10.0 ML
2 LW
N
230.5 130.5 M
229.621 128.379 L
227.5 127.5 L
225.379 128.379 L
224.5 130.5 L
225.379 132.621 L
227.5 133.5 L
229.621 132.621 L
230.5 130.5 L
S
GR
GS
2 setlinecap
10.0 ML
2 LW
N
244.5 113.5 M
243.621 111.379 L
241.5 110.5 L
239.379 111.379 L
238.5 113.5 L
239.379 115.621 L
241.5 116.5 L
243.621 115.621 L
244.5 113.5 L
S
GR
GS
1 0 0 RC
2 setlinecap
10.0 ML
2 LW
N
73 374 M
73.257 372.075 L
74.01 370.446 L
75.167 368.339 L
76.79 366.288 L
79.056 363.953 L
82.068 361.39 L
85.594 358.201 L
89.597 355.433 L
94.335 351.48 L
99.845 346.696 L
106.088 339.519 L
112.993 329.951 L
120.486 317.876 L
128.456 303.41 L
136.72 288.829 L
145.131 276.071 L
153.835 264.111 L
162.944 252.72 L
172.346 240.531 L
182.153 231.874 L
192.326 222.078 L
S
GR
GS
1 0 0 RC
2 setlinecap
10.0 ML
2 LW
N
68 373.5 M
79 373.5 L
S
GR
GS
1 0 0 RC
2 setlinecap
10.0 ML
2 LW
N
73.5 379 M
73.5 368 L
S
GR
GS
1 0 0 RC
2 setlinecap
10.0 ML
2 LW
N
68 372.5 M
79 372.5 L
S
GR
GS
1 0 0 RC
2 setlinecap
10.0 ML
2 LW
N
73.5 378 M
73.5 367 L
S
GR
GS
1 0 0 RC
2 setlinecap
10.0 ML
2 LW
N
69 370.5 M
80 370.5 L
S
GR
GS
1 0 0 RC
2 setlinecap
10.0 ML
2 LW
N
74.5 376 M
74.5 365 L
S
GR
GS
1 0 0 RC
2 setlinecap
10.0 ML
2 LW
N
70 368.5 M
81 368.5 L
S
GR
GS
1 0 0 RC
2 setlinecap
10.0 ML
2 LW
N
75.5 374 M
75.5 363 L
S
GR
GS
1 0 0 RC
2 setlinecap
10.0 ML
2 LW
N
71 366.5 M
82 366.5 L
S
GR
GS
1 0 0 RC
2 setlinecap
10.0 ML
2 LW
N
76.5 372 M
76.5 361 L
S
GR
GS
1 0 0 RC
2 setlinecap
10.0 ML
2 LW
N
74 363.5 M
85 363.5 L
S
GR
GS
1 0 0 RC
2 setlinecap
10.0 ML
2 LW
N
79.5 369 M
79.5 358 L
S
GR
GS
1 0 0 RC
2 setlinecap
10.0 ML
2 LW
N
77 361.5 M
88 361.5 L
S
GR
GS
1 0 0 RC
2 setlinecap
10.0 ML
2 LW
N
82.5 367 M
82.5 356 L
S
GR
GS
1 0 0 RC
2 setlinecap
10.0 ML
2 LW
N
80 358.5 M
91 358.5 L
S
GR
GS
1 0 0 RC
2 setlinecap
10.0 ML
2 LW
N
85.5 364 M
85.5 353 L
S
GR
GS
1 0 0 RC
2 setlinecap
10.0 ML
2 LW
N
84 355.5 M
95 355.5 L
S
GR
GS
1 0 0 RC
2 setlinecap
10.0 ML
2 LW
N
89.5 361 M
89.5 350 L
S
GR
GS
1 0 0 RC
2 setlinecap
10.0 ML
2 LW
N
89 351.5 M
100 351.5 L
S
GR
GS
1 0 0 RC
2 setlinecap
10.0 ML
2 LW
N
94.5 357 M
94.5 346 L
S
GR
GS
1 0 0 RC
2 setlinecap
10.0 ML
2 LW
N
94 346.5 M
105 346.5 L
S
GR
GS
1 0 0 RC
2 setlinecap
10.0 ML
2 LW
N
99.5 352 M
99.5 341 L
S
GR
GS
1 0 0 RC
2 setlinecap
10.0 ML
2 LW
N
101 339.5 M
112 339.5 L
S
GR
GS
1 0 0 RC
2 setlinecap
10.0 ML
2 LW
N
106.5 345 M
106.5 334 L
S
GR
GS
1 0 0 RC
2 setlinecap
10.0 ML
2 LW
N
107 329.5 M
118 329.5 L
S
GR
GS
1 0 0 RC
2 setlinecap
10.0 ML
2 LW
N
112.5 335 M
112.5 324 L
S
GR
GS
1 0 0 RC
2 setlinecap
10.0 ML
2 LW
N
115 317.5 M
126 317.5 L
S
GR
GS
1 0 0 RC
2 setlinecap
10.0 ML
2 LW
N
120.5 323 M
120.5 312 L
S
GR
GS
1 0 0 RC
2 setlinecap
10.0 ML
2 LW
N
123 303.5 M
134 303.5 L
S
GR
GS
1 0 0 RC
2 setlinecap
10.0 ML
2 LW
N
128.5 309 M
128.5 298 L
S
GR
GS
1 0 0 RC
2 setlinecap
10.0 ML
2 LW
N
131 288.5 M
142 288.5 L
S
GR
GS
1 0 0 RC
2 setlinecap
10.0 ML
2 LW
N
136.5 294 M
136.5 283 L
S
GR
GS
1 0 0 RC
2 setlinecap
10.0 ML
2 LW
N
140 276.5 M
151 276.5 L
S
GR
GS
1 0 0 RC
2 setlinecap
10.0 ML
2 LW
N
145.5 282 M
145.5 271 L
S
GR
GS
1 0 0 RC
2 setlinecap
10.0 ML
2 LW
N
148 264.5 M
159 264.5 L
S
GR
GS
1 0 0 RC
2 setlinecap
10.0 ML
2 LW
N
153.5 270 M
153.5 259 L
S
GR
GS
1 0 0 RC
2 setlinecap
10.0 ML
2 LW
N
157 252.5 M
168 252.5 L
S
GR
GS
1 0 0 RC
2 setlinecap
10.0 ML
2 LW
N
162.5 258 M
162.5 247 L
S
GR
GS
1 0 0 RC
2 setlinecap
10.0 ML
2 LW
N
167 240.5 M
178 240.5 L
S
GR
GS
1 0 0 RC
2 setlinecap
10.0 ML
2 LW
N
172.5 246 M
172.5 235 L
S
GR
GS
1 0 0 RC
2 setlinecap
10.0 ML
2 LW
N
177 231.5 M
188 231.5 L
S
GR
GS
1 0 0 RC
2 setlinecap
10.0 ML
2 LW
N
182.5 237 M
182.5 226 L
S
GR
GS
1 0 0 RC
2 setlinecap
10.0 ML
2 LW
N
187 222.5 M
198 222.5 L
S
GR
GS
1 0 0 RC
2 setlinecap
10.0 ML
2 LW
N
192.5 228 M
192.5 217 L
S
GR
GS
0 0 1 RC
2 setlinecap
10.0 ML
2 LW
N
73 374 M
73.881 370.257 L
76.673 367.598 L
81.815 362.75 L
89.307 356.833 L
99.297 351.615 L
112.226 346.808 L
127.945 339.86 L
146.603 330.759 L
168.64 317.944 L
194.203 303.192 L
223.292 282.392 L
255.466 258.289 L
290.651 225.551 L
328.628 187.847 L
369.544 141.03 L
413.985 91.251 L
461.952 39.991 L
S
GR
GS
0 0 1 RC
2 setlinecap
10.0 ML
2 LW
N
71.16 375.84 M
71.16 371.16 L
75.84 371.16 L
75.84 375.84 L
71.16 375.84 L
S
GR
GS
0 0 1 RC
2 setlinecap
10.0 ML
2 LW
N
71.16 372.84 M
71.16 368.16 L
75.84 368.16 L
75.84 372.84 L
71.16 372.84 L
S
GR
GS
0 0 1 RC
2 setlinecap
10.0 ML
2 LW
N
74.16 369.84 M
74.16 365.16 L
78.84 365.16 L
78.84 369.84 L
74.16 369.84 L
S
GR
GS
0 0 1 RC
2 setlinecap
10.0 ML
2 LW
N
79.16 364.84 M
79.16 360.16 L
83.84 360.16 L
83.84 364.84 L
79.16 364.84 L
S
GR
GS
0 0 1 RC
2 setlinecap
10.0 ML
2 LW
N
87.16 358.84 M
87.16 354.16 L
91.84 354.16 L
91.84 358.84 L
87.16 358.84 L
S
GR
GS
0 0 1 RC
2 setlinecap
10.0 ML
2 LW
N
97.16 353.84 M
97.16 349.16 L
101.84 349.16 L
101.84 353.84 L
97.16 353.84 L
S
GR
GS
0 0 1 RC
2 setlinecap
10.0 ML
2 LW
N
110.16 348.84 M
110.16 344.16 L
114.84 344.16 L
114.84 348.84 L
110.16 348.84 L
S
GR
GS
0 0 1 RC
2 setlinecap
10.0 ML
2 LW
N
125.16 341.84 M
125.16 337.16 L
129.84 337.16 L
129.84 341.84 L
125.16 341.84 L
S
GR
GS
0 0 1 RC
2 setlinecap
10.0 ML
2 LW
N
144.16 332.84 M
144.16 328.16 L
148.84 328.16 L
148.84 332.84 L
144.16 332.84 L
S
GR
GS
0 0 1 RC
2 setlinecap
10.0 ML
2 LW
N
166.16 319.84 M
166.16 315.16 L
170.84 315.16 L
170.84 319.84 L
166.16 319.84 L
S
GR
GS
0 0 1 RC
2 setlinecap
10.0 ML
2 LW
N
192.16 305.84 M
192.16 301.16 L
196.84 301.16 L
196.84 305.84 L
192.16 305.84 L
S
GR
GS
0 0 1 RC
2 setlinecap
10.0 ML
2 LW
N
221.16 284.84 M
221.16 280.16 L
225.84 280.16 L
225.84 284.84 L
221.16 284.84 L
S
GR
GS
0 0 1 RC
2 setlinecap
10.0 ML
2 LW
N
253.16 260.84 M
253.16 256.16 L
257.84 256.16 L
257.84 260.84 L
253.16 260.84 L
S
GR
GS
0 0 1 RC
2 setlinecap
10.0 ML
2 LW
N
288.16 227.84 M
288.16 223.16 L
292.84 223.16 L
292.84 227.84 L
288.16 227.84 L
S
GR
GS
0 0 1 RC
2 setlinecap
10.0 ML
2 LW
N
326.16 189.84 M
326.16 185.16 L
330.84 185.16 L
330.84 189.84 L
326.16 189.84 L
S
GR
GS
0 0 1 RC
2 setlinecap
10.0 ML
2 LW
N
367.16 143.84 M
367.16 139.16 L
371.84 139.16 L
371.84 143.84 L
367.16 143.84 L
S
GR
GS
0 0 1 RC
2 setlinecap
10.0 ML
2 LW
N
411.16 93.84 M
411.16 89.16 L
415.84 89.16 L
415.84 93.84 L
411.16 93.84 L
S
GR
GS
0 0 1 RC
2 setlinecap
10.0 ML
2 LW
N
459.16 41.84 M
459.16 37.16 L
463.84 37.16 L
463.84 41.84 L
459.16 41.84 L
S
GR
GS
1 GC
N
83 103 M
83 41 L
217 41 L
217 103 L
cp
f
GR
GS
[1 0 0 1 121.9285 52.5] CT
/Helvetica 20 F
GS
[1 0 0 1 0 0] CT
0 5.9 moveto 
1 -1 scale
(Cylindrical) t 
GR
GR
GS
2 setlinecap
10.0 ML
2 LW
N
88.989 52.5 M
118.934 52.5 L
S
GR
GS
2 setlinecap
10.0 ML
2 LW
N
106.5 52.5 M
105.621 50.379 L
103.5 49.5 L
101.379 50.379 L
100.5 52.5 L
101.379 54.621 L
103.5 55.5 L
105.621 54.621 L
106.5 52.5 L
S
GR
GS
[1 0 0 1 121.9285 72] CT
/Helvetica 20 F
GS
[1 0 0 1 0 0] CT
0 5.9 moveto 
1 -1 scale
(Ribbed) t 
GR
GR
GS
1 0 0 RC
2 setlinecap
10.0 ML
2 LW
N
88.989 72 M
118.934 72 L
S
GR
GS
1 0 0 RC
2 setlinecap
10.0 ML
2 LW
N
98 71.5 M
109 71.5 L
S
GR
GS
1 0 0 RC
2 setlinecap
10.0 ML
2 LW
N
103.5 77 M
103.5 66 L
S
GR
GS
[1 0 0 1 121.9285 91.5] CT
/Helvetica 20 F
GS
[1 0 0 1 0 0] CT
0 5.9 moveto 
1 -1 scale
(Pleated) t 
GR
GR
GS
0 0 1 RC
2 setlinecap
10.0 ML
2 LW
N
88.989 91.5 M
118.934 91.5 L
S
GR
GS
0 0 1 RC
2 setlinecap
10.0 ML
2 LW
N
101.16 93.84 M
101.16 89.16 L
105.84 89.16 L
105.84 93.84 L
101.16 93.84 L
S
GR
GS
0.149 GC
2 setlinecap
10.0 ML
N
83 103 M
83 41 L
217 41 L
217 103 L
83 103 L
S
GR
%%Trailer
%%Pages: 1
%%EOF
