%!PS-Adobe-3.0 EPSF-3.0
%%Creator: MATLAB, The MathWorks, Inc. Version 8.1.0.604 (R2013a). Operating System: Microsoft Windows 7.
%%Title: C:\Users\Andy\Desktop\2dmanipjournal\2Dcharacterization\Matlab\ForceVsEnergy.eps
%%CreationDate: 11/05/2014  21:54:19
%%DocumentNeededFonts: Helvetica
%%DocumentProcessColors: Cyan Magenta Yellow Black
%%LanguageLevel: 2
%%Pages: 1
%%BoundingBox:    13   163   597   627
%%EndComments

%%BeginProlog
% MathWorks dictionary
/MathWorks 160 dict begin
% definition operators
/bdef {bind def} bind def
/ldef {load def} bind def
/xdef {exch def} bdef
/xstore {exch store} bdef
% operator abbreviations
/c  /clip ldef
/cc /concat ldef
/cp /closepath ldef
/gr /grestore ldef
/gs /gsave ldef
/mt /moveto ldef
/np /newpath ldef
/cm /currentmatrix ldef
/sm /setmatrix ldef
/rm /rmoveto ldef
/rl /rlineto ldef
/s {show newpath} bdef
/sc {setcmykcolor} bdef
/sr /setrgbcolor ldef
/sg /setgray ldef
/w /setlinewidth ldef
/j /setlinejoin ldef
/cap /setlinecap ldef
/rc {rectclip} bdef
/rf {rectfill} bdef
% page state control
/pgsv () def
/bpage {/pgsv save def} bdef
/epage {pgsv restore} bdef
/bplot /gsave ldef
/eplot {stroke grestore} bdef
% orientation switch
/portraitMode 0 def /landscapeMode 1 def /rotateMode 2 def
% coordinate system mappings
/dpi2point 0 def
% font control
/FontSize 0 def
/FMS {/FontSize xstore findfont [FontSize 0 0 FontSize neg 0 0]
  makefont setfont} bdef
/ISOLatin1Encoding where {pop /WindowsLatin1Encoding 256 array bdef
ISOLatin1Encoding WindowsLatin1Encoding copy pop
/.notdef/.notdef/quotesinglbase/florin/quotedblbase/ellipsis/dagger
/daggerdbl/circumflex/perthousand/Scaron/guilsinglleft/OE/.notdef/.notdef
/.notdef/.notdef/quoteleft/quoteright/quotedblleft/quotedblright/bullet
/endash/emdash/tilde/trademark/scaron/guilsinglright/oe/.notdef/.notdef
/Ydieresis WindowsLatin1Encoding 128 32 getinterval astore pop}
{/WindowsLatin1Encoding StandardEncoding bdef} ifelse
/reencode {exch dup where {pop load} {pop StandardEncoding} ifelse
  exch dup 3 1 roll findfont dup length dict begin
  { 1 index /FID ne {def}{pop pop} ifelse } forall
  /Encoding exch def currentdict end definefont pop} bdef
/isroman {findfont /CharStrings get /Agrave known} bdef
/FMSR {3 1 roll 1 index dup isroman {reencode} {pop pop} ifelse
  exch FMS} bdef
/csm {1 dpi2point div -1 dpi2point div scale neg translate
 dup landscapeMode eq {pop -90 rotate}
  {rotateMode eq {90 rotate} if} ifelse} bdef
% line types: solid, dotted, dashed, dotdash
/SO { [] 0 setdash } bdef
/DO { [.5 dpi2point mul 4 dpi2point mul] 0 setdash } bdef
/DA { [6 dpi2point mul] 0 setdash } bdef
/DD { [.5 dpi2point mul 4 dpi2point mul 6 dpi2point mul 4
  dpi2point mul] 0 setdash } bdef
% macros for lines and objects
/L {lineto stroke} bdef
/MP {3 1 roll moveto 1 sub {rlineto} repeat} bdef
/AP {{rlineto} repeat} bdef
/PDlw -1 def
/W {/PDlw currentlinewidth def setlinewidth} def
/PP {closepath eofill} bdef
/DP {closepath stroke} bdef
/MR {4 -2 roll moveto dup  0 exch rlineto exch 0 rlineto
  neg 0 exch rlineto closepath} bdef
/FR {MR stroke} bdef
/PR {MR fill} bdef
/L1i {{currentfile picstr readhexstring pop} image} bdef
/tMatrix matrix def
/MakeOval {newpath tMatrix currentmatrix pop translate scale
0 0 1 0 360 arc tMatrix setmatrix} bdef
/FO {MakeOval stroke} bdef
/PO {MakeOval fill} bdef
/PD {currentlinewidth 2 div 0 360 arc fill
   PDlw -1 eq not {PDlw w /PDlw -1 def} if} def
/FA {newpath tMatrix currentmatrix pop translate scale
  0 0 1 5 -2 roll arc tMatrix setmatrix stroke} bdef
/PA {newpath tMatrix currentmatrix pop	translate 0 0 moveto scale
  0 0 1 5 -2 roll arc closepath tMatrix setmatrix fill} bdef
/FAn {newpath tMatrix currentmatrix pop translate scale
  0 0 1 5 -2 roll arcn tMatrix setmatrix stroke} bdef
/PAn {newpath tMatrix currentmatrix pop translate 0 0 moveto scale
  0 0 1 5 -2 roll arcn closepath tMatrix setmatrix fill} bdef
/vradius 0 def /hradius 0 def /lry 0 def
/lrx 0 def /uly 0 def /ulx 0 def /rad 0 def
/MRR {/vradius xdef /hradius xdef /lry xdef /lrx xdef /uly xdef
  /ulx xdef newpath tMatrix currentmatrix pop ulx hradius add uly
  vradius add translate hradius vradius scale 0 0 1 180 270 arc 
  tMatrix setmatrix lrx hradius sub uly vradius add translate
  hradius vradius scale 0 0 1 270 360 arc tMatrix setmatrix
  lrx hradius sub lry vradius sub translate hradius vradius scale
  0 0 1 0 90 arc tMatrix setmatrix ulx hradius add lry vradius sub
  translate hradius vradius scale 0 0 1 90 180 arc tMatrix setmatrix
  closepath} bdef
/FRR {MRR stroke } bdef
/PRR {MRR fill } bdef
/MlrRR {/lry xdef /lrx xdef /uly xdef /ulx xdef /rad lry uly sub 2 div def
  newpath tMatrix currentmatrix pop ulx rad add uly rad add translate
  rad rad scale 0 0 1 90 270 arc tMatrix setmatrix lrx rad sub lry rad
  sub translate rad rad scale 0 0 1 270 90 arc tMatrix setmatrix
  closepath} bdef
/FlrRR {MlrRR stroke } bdef
/PlrRR {MlrRR fill } bdef
/MtbRR {/lry xdef /lrx xdef /uly xdef /ulx xdef /rad lrx ulx sub 2 div def
  newpath tMatrix currentmatrix pop ulx rad add uly rad add translate
  rad rad scale 0 0 1 180 360 arc tMatrix setmatrix lrx rad sub lry rad
  sub translate rad rad scale 0 0 1 0 180 arc tMatrix setmatrix
  closepath} bdef
/FtbRR {MtbRR stroke } bdef
/PtbRR {MtbRR fill } bdef
/stri 6 array def /dtri 6 array def
/smat 6 array def /dmat 6 array def
/tmat1 6 array def /tmat2 6 array def /dif 3 array def
/asub {/ind2 exch def /ind1 exch def dup dup
  ind1 get exch ind2 get sub exch } bdef
/tri_to_matrix {
  2 0 asub 3 1 asub 4 0 asub 5 1 asub
  dup 0 get exch 1 get 7 -1 roll astore } bdef
/compute_transform {
  dmat dtri tri_to_matrix tmat1 invertmatrix 
  smat stri tri_to_matrix tmat2 concatmatrix } bdef
/ds {stri astore pop} bdef
/dt {dtri astore pop} bdef
/db {2 copy /cols xdef /rows xdef mul dup 3 mul string
  currentfile 
  3 index 0 eq {/ASCIIHexDecode filter}
  {/ASCII85Decode filter 3 index 2 eq {/RunLengthDecode filter} if }
  ifelse exch readstring pop
  dup 0 3 index getinterval /rbmap xdef
  dup 2 index dup getinterval /gbmap xdef
  1 index dup 2 mul exch getinterval /bbmap xdef pop pop}bdef
/it {gs np dtri aload pop moveto lineto lineto cp c
  cols rows 8 compute_transform 
  rbmap gbmap bbmap true 3 colorimage gr}bdef
/il {newpath moveto lineto stroke}bdef
currentdict end def
%%EndProlog

%%BeginSetup
MathWorks begin

0 cap

end
%%EndSetup

%%Page: 1 1
%%BeginPageSetup
%%PageBoundingBox:    13   163   597   627
MathWorks begin
bpage
%%EndPageSetup

%%BeginObject: obj1
bplot

/dpi2point 8.33333 def
portraitMode 0108 5225 csm

    0     0  4873  3859 rc
85 dict begin %Colortable dictionary
/c0 { 0.000000 0.000000 0.000000 sr} bdef
/c1 { 1.000000 1.000000 1.000000 sr} bdef
/c2 { 0.900000 0.000000 0.000000 sr} bdef
/c3 { 0.000000 0.820000 0.000000 sr} bdef
/c4 { 0.000000 0.000000 0.800000 sr} bdef
/c5 { 0.910000 0.820000 0.320000 sr} bdef
/c6 { 1.000000 0.260000 0.820000 sr} bdef
/c7 { 0.000000 0.820000 0.820000 sr} bdef
c0
1 j
1 sg
   0    0 4874 3860 rf
16.6667 w
0 3146 3777 0 0 -3146 633 3435 4 MP
PP
-3777 0 0 3146 3777 0 0 -3146 633 3435 5 MP stroke
11.1111 w
DO
0 sg
 633 3435 mt  633  289 L
 633  289 mt  633  289 L
1262 3435 mt 1262  289 L
1262  289 mt 1262  289 L
1892 3435 mt 1892  289 L
1892  289 mt 1892  289 L
2521 3435 mt 2521  289 L
2521  289 mt 2521  289 L
3151 3435 mt 3151  289 L
3151  289 mt 3151  289 L
3780 3435 mt 3780  289 L
3780  289 mt 3780  289 L
4410 3435 mt 4410  289 L
4410  289 mt 4410  289 L
 633 3435 mt 4410 3435 L
4410 3435 mt 4410 3435 L
 633 3120 mt 4410 3120 L
4410 3120 mt 4410 3120 L
 633 2805 mt 4410 2805 L
4410 2805 mt 4410 2805 L
 633 2491 mt 4410 2491 L
4410 2491 mt 4410 2491 L
 633 2176 mt 4410 2176 L
4410 2176 mt 4410 2176 L
 633 1862 mt 4410 1862 L
4410 1862 mt 4410 1862 L
 633 1547 mt 4410 1547 L
4410 1547 mt 4410 1547 L
 633 1232 mt 4410 1232 L
4410 1232 mt 4410 1232 L
 633  918 mt 4410  918 L
4410  918 mt 4410  918 L
 633  603 mt 4410  603 L
4410  603 mt 4410  603 L
 633  289 mt 4410  289 L
4410  289 mt 4410  289 L
SO
16.6667 w
 633 3435 mt 4410 3435 L
 633 3435 mt  633  289 L
 633 3435 mt  633 3397 L
%%IncludeResource: font Helvetica
/Helvetica /WindowsLatin1Encoding 116.667 FMSR

 601 3567 mt 
(0) s
1262 3435 mt 1262 3397 L
1230 3567 mt 
(1) s
1892 3435 mt 1892 3397 L
1860 3567 mt 
(2) s
2521 3435 mt 2521 3397 L
2489 3567 mt 
(3) s
3151 3435 mt 3151 3397 L
3119 3567 mt 
(4) s
3780 3435 mt 3780 3397 L
3748 3567 mt 
(5) s
4410 3435 mt 4410 3397 L
4378 3567 mt 
(6) s
 633 3435 mt  670 3435 L
 545 3478 mt 
(0) s
 633 3120 mt  670 3120 L
 447 3163 mt 
(0.2) s
 633 2805 mt  670 2805 L
 447 2848 mt 
(0.4) s
 633 2491 mt  670 2491 L
 447 2534 mt 
(0.6) s
 633 2176 mt  670 2176 L
 447 2219 mt 
(0.8) s
 633 1862 mt  670 1862 L
 545 1905 mt 
(1) s
 633 1547 mt  670 1547 L
 447 1590 mt 
(1.2) s
 633 1232 mt  670 1232 L
 447 1275 mt 
(1.4) s
 633  918 mt  670  918 L
 447  961 mt 
(1.6) s
 633  603 mt  670  603 L
 447  646 mt 
(1.8) s
 633  289 mt  670  289 L
 545  332 mt 
(2) s
%%IncludeResource: font Helvetica
/Helvetica /WindowsLatin1Encoding 166.667 FMSR

 371 2342 mt  -90 rotate
(Tip Force [N]) s
90 rotate
1941 3728 mt 
(Fluid Energy [J]) s
gs 633 289 3778 3147 rc
121 -157 115 -142 108 -141 101 -147 96 -165 90 -178 87 -174 81 -195 
79 -251 77 -473 76 -255 70 -40 64 -32 58 -16 51 -9 45 -6 
37 -4 32 -2 26 -1 19 -1 14 0 10 0 6 0 1 0 
633 3435 25 MP stroke
gr

gs 531 944 1669 2594 rc
  41   41  633 3435 FO
  41   41  634 3435 FO
  41   41  640 3435 FO
  41   41  650 3435 FO
  41   41  664 3435 FO
  41   41  683 3434 FO
  41   41  709 3433 FO
  41   41  741 3431 FO
  41   41  778 3427 FO
  41   41  823 3421 FO
  41   41  874 3412 FO
  41   41  932 3396 FO
  41   41  996 3364 FO
  41   41 1066 3324 FO
  41   41 1142 3069 FO
  41   41 1219 2596 FO
  41   41 1298 2345 FO
  41   41 1379 2150 FO
  41   41 1466 1976 FO
  41   41 1556 1798 FO
  41   41 1652 1633 FO
  41   41 1753 1486 FO
  41   41 1861 1345 FO
  41   41 1976 1203 FO
  41   41 2097 1046 FO
gr

gs 633 289 3778 3147 rc
89 -90 85 -79 82 -112 79 -105 76 -109 73 -117 72 -134 69 -133 
65 -110 61 -88 54 -66 48 -44 41 -36 35 -26 31 -29 26 -23 
20 -22 14 -19 10 -19 6 -15 2 -18 633 3435 22 MP stroke
gr

gs 531 1939 1243 1599 rc
 592 3435 mt  674 3435 L
 633 3394 mt  633 3476 L
 594 3417 mt  676 3417 L
 635 3376 mt  635 3458 L
 600 3402 mt  682 3402 L
 641 3361 mt  641 3443 L
 610 3383 mt  692 3383 L
 651 3342 mt  651 3424 L
 624 3364 mt  706 3364 L
 665 3323 mt  665 3405 L
 644 3342 mt  726 3342 L
 685 3301 mt  685 3383 L
 670 3319 mt  752 3319 L
 711 3278 mt  711 3360 L
 701 3290 mt  783 3290 L
 742 3249 mt  742 3331 L
 736 3264 mt  818 3264 L
 777 3223 mt  777 3305 L
 777 3228 mt  859 3228 L
 818 3187 mt  818 3269 L
 825 3184 mt  907 3184 L
 866 3143 mt  866 3225 L
 879 3118 mt  961 3118 L
 920 3077 mt  920 3159 L
 940 3030 mt 1022 3030 L
 981 2989 mt  981 3071 L
1005 2920 mt 1087 2920 L
1046 2879 mt 1046 2961 L
1074 2787 mt 1156 2787 L
1115 2746 mt 1115 2828 L
1146 2653 mt 1228 2653 L
1187 2612 mt 1187 2694 L
1219 2536 mt 1301 2536 L
1260 2495 mt 1260 2577 L
1295 2427 mt 1377 2427 L
1336 2386 mt 1336 2468 L
1374 2322 mt 1456 2322 L
1415 2281 mt 1415 2363 L
1456 2210 mt 1538 2210 L
1497 2169 mt 1497 2251 L
1541 2131 mt 1623 2131 L
1582 2090 mt 1582 2172 L
1630 2041 mt 1712 2041 L
1671 2000 mt 1671 2082 L
gr

gs 633 289 3778 3147 rc
417 -470 387 -457 356 -429 330 -346 307 -300 280 -221 253 -191 222 -135 
192 -118 162 -83 137 -64 113 -44 87 -48 65 -54 45 -45 24 -24 
7 -35 633 3435 18 MP stroke
gr

gs 531 269 3589 3269 rc
0 j
0 -64 -64 0 0 64 64 0 601 3403 5 MP
DP
0 -64 -64 0 0 64 64 0 608 3368 5 MP
DP
0 -64 -64 0 0 64 64 0 632 3344 5 MP
DP
0 -64 -64 0 0 64 64 0 677 3299 5 MP
DP
0 -64 -64 0 0 64 64 0 742 3245 5 MP
DP
0 -64 -64 0 0 64 64 0 829 3197 5 MP
DP
0 -64 -64 0 0 64 64 0 942 3153 5 MP
DP
0 -64 -64 0 0 64 64 0 1079 3089 5 MP
DP
0 -64 -64 0 0 64 64 0 1241 3006 5 MP
DP
0 -64 -64 0 0 64 64 0 1433 2888 5 MP
DP
0 -64 -64 0 0 64 64 0 1655 2753 5 MP
DP
0 -64 -64 0 0 64 64 0 1908 2562 5 MP
DP
0 -64 -64 0 0 64 64 0 2188 2341 5 MP
DP
0 -64 -64 0 0 64 64 0 2495 2041 5 MP
DP
0 -64 -64 0 0 64 64 0 2825 1695 5 MP
DP
0 -64 -64 0 0 64 64 0 3181 1266 5 MP
DP
0 -64 -64 0 0 64 64 0 3568 809 5 MP
DP
0 -64 -64 0 0 64 64 0 3985 339 5 MP
DP
gr

gs 633 289 3778 3147 rc
gr

%%IncludeResource: font Helvetica
/Helvetica /WindowsLatin1Encoding 83.3333 FMSR

 621 3466 mt 
( ) s
4399  319 mt 
( ) s
1 sg
0 624 1123 0 0 -624 674 955 4 MP
PP
-1123 0 0 624 1123 0 0 -624 674 955 5 MP stroke
11.1111 w
DO
SO
16.6667 w
0 sg
 674  331 mt 1797  331 L
 674  955 mt 1797  955 L
1797  955 mt 1797  331 L
 674  955 mt  674  331 L
 674  955 mt 1797  955 L
 674  955 mt  674  331 L
 674  331 mt 1797  331 L
 674  955 mt 1797  955 L
1797  955 mt 1797  331 L
 674  955 mt  674  331 L
%%IncludeResource: font Helvetica
/Helvetica /WindowsLatin1Encoding 166.667 FMSR

 998  503 mt 
(Cylindrical) s
gs 674 331 1124 625 rc
250 0 723 444 2 MP stroke
gs 746 342 205 205 rc
  41   41  848  444 FO
gr

gr

 998  703 mt 
(Ribbed) s
gs 674 331 1124 625 rc
250 0 723 643 2 MP stroke
gs 746 541 205 205 rc
 807  643 mt  889  643 L
 848  602 mt  848  684 L
gr

gr

 998  902 mt 
(Pleated) s
gs 674 331 1124 625 rc
250 0 723 841 2 MP stroke
gs 746 739 205 205 rc
0 j
0 -64 -64 0 0 64 64 0 816 809 5 MP
DP
gr

gr

4.16667 w

end %%Color Dict

eplot
%%EndObject

epage
end

showpage

%%Trailer
%%EOF
