%!PS-Adobe-3.0 EPSF-3.0
%%Creator: (MATLAB, The Mathworks, Inc. Version 8.4.0.150421 \(R2014b\). Operating System: Mac OS X)
%%Title: /Users/rkk/softrobotics-git/papers/recipessoftfluidicrobotspaper/figures/actuators/morphologiescharacterization/PressureVsVolumeUpdated.eps
%%CreationDate: 2015-01-14T14:06:12
%%Pages: (atend)
%%BoundingBox: 0 0 560 420
%%LanguageLevel: 2
%%EndComments
%%BeginProlog
%%BeginResource: procset (Apache XML Graphics Std ProcSet) 1.2 0
%%Version: 1.2 0
%%Copyright: (Copyright 2001-2003,2010 The Apache Software Foundation. License terms: http://www.apache.org/licenses/LICENSE-2.0)
/bd{bind def}bind def
/ld{load def}bd
/GR/grestore ld
/M/moveto ld
/LJ/setlinejoin ld
/C/curveto ld
/f/fill ld
/LW/setlinewidth ld
/GC/setgray ld
/t/show ld
/N/newpath ld
/CT/concat ld
/cp/closepath ld
/S/stroke ld
/L/lineto ld
/CC/setcmykcolor ld
/A/ashow ld
/GS/gsave ld
/RC/setrgbcolor ld
/RM/rmoveto ld
/ML/setmiterlimit ld
/re {4 2 roll M
1 index 0 rlineto
0 exch rlineto
neg 0 rlineto
cp } bd
/_ctm matrix def
/_tm matrix def
/BT { _ctm currentmatrix pop matrix _tm copy pop 0 0 moveto } bd
/ET { _ctm setmatrix } bd
/iTm { _ctm setmatrix _tm concat } bd
/Tm { _tm astore pop iTm 0 0 moveto } bd
/ux 0.0 def
/uy 0.0 def
/F {
  /Tp exch def
  /Tf exch def
  Tf findfont Tp scalefont setfont
  /cf Tf def  /cs Tp def
} bd
/ULS {currentpoint /uy exch def /ux exch def} bd
/ULE {
  /Tcx currentpoint pop def
  gsave
  newpath
  cf findfont cs scalefont dup
  /FontMatrix get 0 get /Ts exch def /FontInfo get dup
  /UnderlinePosition get Ts mul /To exch def
  /UnderlineThickness get Ts mul /Tt exch def
  ux uy To add moveto  Tcx uy To add lineto
  Tt setlinewidth stroke
  grestore
} bd
/OLE {
  /Tcx currentpoint pop def
  gsave
  newpath
  cf findfont cs scalefont dup
  /FontMatrix get 0 get /Ts exch def /FontInfo get dup
  /UnderlinePosition get Ts mul /To exch def
  /UnderlineThickness get Ts mul /Tt exch def
  ux uy To add cs add moveto Tcx uy To add cs add lineto
  Tt setlinewidth stroke
  grestore
} bd
/SOE {
  /Tcx currentpoint pop def
  gsave
  newpath
  cf findfont cs scalefont dup
  /FontMatrix get 0 get /Ts exch def /FontInfo get dup
  /UnderlinePosition get Ts mul /To exch def
  /UnderlineThickness get Ts mul /Tt exch def
  ux uy To add cs 10 mul 26 idiv add moveto Tcx uy To add cs 10 mul 26 idiv add lineto
  Tt setlinewidth stroke
  grestore
} bd
/QT {
/Y22 exch store
/X22 exch store
/Y21 exch store
/X21 exch store
currentpoint
/Y21 load 2 mul add 3 div exch
/X21 load 2 mul add 3 div exch
/X21 load 2 mul /X22 load add 3 div
/Y21 load 2 mul /Y22 load add 3 div
/X22 load /Y22 load curveto
} bd
/SSPD {
dup length /d exch dict def
{
/v exch def
/k exch def
currentpagedevice k known {
/cpdv currentpagedevice k get def
v cpdv ne {
/upd false def
/nullv v type /nulltype eq def
/nullcpdv cpdv type /nulltype eq def
nullv nullcpdv or
{
/upd true def
} {
/sametype v type cpdv type eq def
sametype {
v type /arraytype eq {
/vlen v length def
/cpdvlen cpdv length def
vlen cpdvlen eq {
0 1 vlen 1 sub {
/i exch def
/obj v i get def
/cpdobj cpdv i get def
obj cpdobj ne {
/upd true def
exit
} if
} for
} {
/upd true def
} ifelse
} {
v type /dicttype eq {
v {
/dv exch def
/dk exch def
/cpddv cpdv dk get def
dv cpddv ne {
/upd true def
exit
} if
} forall
} {
/upd true def
} ifelse
} ifelse
} if
} ifelse
upd true eq {
d k v put
} if
} if
} if
} forall
d length 0 gt {
d setpagedevice
} if
} bd
%%EndResource
%%BeginResource: procset (Apache XML Graphics EPS ProcSet) 1.0 0
%%Version: 1.0 0
%%Copyright: (Copyright 2002-2003 The Apache Software Foundation. License terms: http://www.apache.org/licenses/LICENSE-2.0)
/BeginEPSF { %def
/b4_Inc_state save def         % Save state for cleanup
/dict_count countdictstack def % Count objects on dict stack
/op_count count 1 sub def      % Count objects on operand stack
userdict begin                 % Push userdict on dict stack
/showpage { } def              % Redefine showpage, { } = null proc
0 setgray 0 setlinecap         % Prepare graphics state
1 setlinewidth 0 setlinejoin
10 setmiterlimit [ ] 0 setdash newpath
/languagelevel where           % If level not equal to 1 then
{pop languagelevel             % set strokeadjust and
1 ne                           % overprint to their defaults.
{false setstrokeadjust false setoverprint
} if
} if
} bd
/EndEPSF { %def
count op_count sub {pop} repeat            % Clean up stacks
countdictstack dict_count sub {end} repeat
b4_Inc_state restore
} bd
%%EndResource
%FOPBeginFontDict
%%IncludeResource: font Courier-Bold
%%IncludeResource: font Helvetica
%%IncludeResource: font Courier-BoldOblique
%%IncludeResource: font Courier-Oblique
%%IncludeResource: font Times-Roman
%%IncludeResource: font Helvetica-BoldOblique
%%IncludeResource: font Helvetica-Bold
%%IncludeResource: font Helvetica-Oblique
%%IncludeResource: font Times-BoldItalic
%%IncludeResource: font Courier
%%IncludeResource: font Times-Italic
%%IncludeResource: font Times-Bold
%%IncludeResource: font Symbol
%%IncludeResource: font ZapfDingbats
%FOPEndFontDict
%%BeginResource: encoding WinAnsiEncoding
/WinAnsiEncoding [
/.notdef /.notdef /.notdef /.notdef /.notdef
/.notdef /.notdef /.notdef /.notdef /.notdef
/.notdef /.notdef /.notdef /.notdef /.notdef
/.notdef /.notdef /.notdef /.notdef /.notdef
/.notdef /.notdef /.notdef /.notdef /.notdef
/.notdef /.notdef /.notdef /.notdef /.notdef
/.notdef /.notdef /space /exclam /quotedbl
/numbersign /dollar /percent /ampersand /quotesingle
/parenleft /parenright /asterisk /plus /comma
/hyphen /period /slash /zero /one
/two /three /four /five /six
/seven /eight /nine /colon /semicolon
/less /equal /greater /question /at
/A /B /C /D /E
/F /G /H /I /J
/K /L /M /N /O
/P /Q /R /S /T
/U /V /W /X /Y
/Z /bracketleft /backslash /bracketright /asciicircum
/underscore /quoteleft /a /b /c
/d /e /f /g /h
/i /j /k /l /m
/n /o /p /q /r
/s /t /u /v /w
/x /y /z /braceleft /bar
/braceright /asciitilde /bullet /Euro /bullet
/quotesinglbase /florin /quotedblbase /ellipsis /dagger
/daggerdbl /circumflex /perthousand /Scaron /guilsinglleft
/OE /bullet /Zcaron /bullet /bullet
/quoteleft /quoteright /quotedblleft /quotedblright /bullet
/endash /emdash /asciitilde /trademark /scaron
/guilsinglright /oe /bullet /zcaron /Ydieresis
/space /exclamdown /cent /sterling /currency
/yen /brokenbar /section /dieresis /copyright
/ordfeminine /guillemotleft /logicalnot /sfthyphen /registered
/macron /degree /plusminus /twosuperior /threesuperior
/acute /mu /paragraph /middot /cedilla
/onesuperior /ordmasculine /guillemotright /onequarter /onehalf
/threequarters /questiondown /Agrave /Aacute /Acircumflex
/Atilde /Adieresis /Aring /AE /Ccedilla
/Egrave /Eacute /Ecircumflex /Edieresis /Igrave
/Iacute /Icircumflex /Idieresis /Eth /Ntilde
/Ograve /Oacute /Ocircumflex /Otilde /Odieresis
/multiply /Oslash /Ugrave /Uacute /Ucircumflex
/Udieresis /Yacute /Thorn /germandbls /agrave
/aacute /acircumflex /atilde /adieresis /aring
/ae /ccedilla /egrave /eacute /ecircumflex
/edieresis /igrave /iacute /icircumflex /idieresis
/eth /ntilde /ograve /oacute /ocircumflex
/otilde /odieresis /divide /oslash /ugrave
/uacute /ucircumflex /udieresis /yacute /thorn
/ydieresis
] def
%%EndResource
%FOPBeginFontReencode
/Courier-Bold findfont
dup length dict begin
  {1 index /FID ne {def} {pop pop} ifelse} forall
  /Encoding WinAnsiEncoding def
  currentdict
end
/Courier-Bold exch definefont pop
/Helvetica findfont
dup length dict begin
  {1 index /FID ne {def} {pop pop} ifelse} forall
  /Encoding WinAnsiEncoding def
  currentdict
end
/Helvetica exch definefont pop
/Courier-BoldOblique findfont
dup length dict begin
  {1 index /FID ne {def} {pop pop} ifelse} forall
  /Encoding WinAnsiEncoding def
  currentdict
end
/Courier-BoldOblique exch definefont pop
/Courier-Oblique findfont
dup length dict begin
  {1 index /FID ne {def} {pop pop} ifelse} forall
  /Encoding WinAnsiEncoding def
  currentdict
end
/Courier-Oblique exch definefont pop
/Times-Roman findfont
dup length dict begin
  {1 index /FID ne {def} {pop pop} ifelse} forall
  /Encoding WinAnsiEncoding def
  currentdict
end
/Times-Roman exch definefont pop
/Helvetica-BoldOblique findfont
dup length dict begin
  {1 index /FID ne {def} {pop pop} ifelse} forall
  /Encoding WinAnsiEncoding def
  currentdict
end
/Helvetica-BoldOblique exch definefont pop
/Helvetica-Bold findfont
dup length dict begin
  {1 index /FID ne {def} {pop pop} ifelse} forall
  /Encoding WinAnsiEncoding def
  currentdict
end
/Helvetica-Bold exch definefont pop
/Helvetica-Oblique findfont
dup length dict begin
  {1 index /FID ne {def} {pop pop} ifelse} forall
  /Encoding WinAnsiEncoding def
  currentdict
end
/Helvetica-Oblique exch definefont pop
/Times-BoldItalic findfont
dup length dict begin
  {1 index /FID ne {def} {pop pop} ifelse} forall
  /Encoding WinAnsiEncoding def
  currentdict
end
/Times-BoldItalic exch definefont pop
/Courier findfont
dup length dict begin
  {1 index /FID ne {def} {pop pop} ifelse} forall
  /Encoding WinAnsiEncoding def
  currentdict
end
/Courier exch definefont pop
/Times-Italic findfont
dup length dict begin
  {1 index /FID ne {def} {pop pop} ifelse} forall
  /Encoding WinAnsiEncoding def
  currentdict
end
/Times-Italic exch definefont pop
/Times-Bold findfont
dup length dict begin
  {1 index /FID ne {def} {pop pop} ifelse} forall
  /Encoding WinAnsiEncoding def
  currentdict
end
/Times-Bold exch definefont pop
%FOPEndFontReencode
%%EndProlog
%%Page: 1 1
%%PageBoundingBox: 0 0 560 420
%%BeginPageSetup
[1 0 0 -1 0 420] CT
%%EndPageSetup
GS
1 GC
N
0 0 560 420 re
f
GR
GS
1 GC
N
0 0 560 420 re
f
GR
GS
1 GC
N
73 374 M
507 374 L
507 31 L
73 31 L
cp
f
GR
GS
0.873 GC
2 setlinecap
10.0 ML
N
73 374 M
73 31 L
S
GR
GS
0.873 GC
2 setlinecap
10.0 ML
N
145.333 374 M
145.333 31 L
S
GR
GS
0.873 GC
2 setlinecap
10.0 ML
N
217.667 374 M
217.667 31 L
S
GR
GS
0.873 GC
2 setlinecap
10.0 ML
N
290 374 M
290 31 L
S
GR
GS
0.873 GC
2 setlinecap
10.0 ML
N
362.333 374 M
362.333 31 L
S
GR
GS
0.873 GC
2 setlinecap
10.0 ML
N
434.667 374 M
434.667 31 L
S
GR
GS
0.873 GC
2 setlinecap
10.0 ML
N
507 374 M
507 31 L
S
GR
GS
0.873 GC
2 setlinecap
10.0 ML
N
507 374 M
73 374 L
S
GR
GS
0.873 GC
2 setlinecap
10.0 ML
N
507 325 M
73 325 L
S
GR
GS
0.873 GC
2 setlinecap
10.0 ML
N
507 276 M
73 276 L
S
GR
GS
0.873 GC
2 setlinecap
10.0 ML
N
507 227 M
73 227 L
S
GR
GS
0.873 GC
2 setlinecap
10.0 ML
N
507 178 M
73 178 L
S
GR
GS
0.873 GC
2 setlinecap
10.0 ML
N
507 129 M
73 129 L
S
GR
GS
0.873 GC
2 setlinecap
10.0 ML
N
507 80 M
73 80 L
S
GR
GS
0.873 GC
2 setlinecap
10.0 ML
N
507 31 M
73 31 L
S
GR
GS
[1 0 0 1 290 392.79999] CT
0.149 GC
/Helvetica 20 F
GS
[1 0 0 1 0 0] CT
-56.133 15.4 moveto 
1 -1 scale
(Volume [mL]) t 
GR
GR
GS
0.149 GC
2 setlinecap
10.0 ML
N
73 374 M
507 374 L
S
GR
GS
0.149 GC
2 setlinecap
10.0 ML
N
73 374 M
73 369.66 L
S
GR
GS
0.149 GC
2 setlinecap
10.0 ML
N
145.333 374 M
145.333 369.66 L
S
GR
GS
0.149 GC
2 setlinecap
10.0 ML
N
217.667 374 M
217.667 369.66 L
S
GR
GS
0.149 GC
2 setlinecap
10.0 ML
N
290 374 M
290 369.66 L
S
GR
GS
0.149 GC
2 setlinecap
10.0 ML
N
362.333 374 M
362.333 369.66 L
S
GR
GS
0.149 GC
2 setlinecap
10.0 ML
N
434.667 374 M
434.667 369.66 L
S
GR
GS
0.149 GC
2 setlinecap
10.0 ML
N
507 374 M
507 369.66 L
S
GR
GS
[1 0 0 1 73 378.79999] CT
0.149 GC
/Helvetica 14 F
GS
[1 0 0 1 0 0] CT
-3.893 10.78 moveto 
1 -1 scale
(0) t 
GR
GR
GS
[1 0 0 1 145.33333 378.79999] CT
0.149 GC
/Helvetica 14 F
GS
[1 0 0 1 0 0] CT
-7.786 10.78 moveto 
1 -1 scale
(10) t 
GR
GR
GS
[1 0 0 1 217.66667 378.79999] CT
0.149 GC
/Helvetica 14 F
GS
[1 0 0 1 0 0] CT
-7.786 10.78 moveto 
1 -1 scale
(20) t 
GR
GR
GS
[1 0 0 1 290 378.79999] CT
0.149 GC
/Helvetica 14 F
GS
[1 0 0 1 0 0] CT
-7.786 10.78 moveto 
1 -1 scale
(30) t 
GR
GR
GS
[1 0 0 1 362.33334 378.79999] CT
0.149 GC
/Helvetica 14 F
GS
[1 0 0 1 0 0] CT
-7.786 10.78 moveto 
1 -1 scale
(40) t 
GR
GR
GS
[1 0 0 1 434.66666 378.79999] CT
0.149 GC
/Helvetica 14 F
GS
[1 0 0 1 0 0] CT
-7.786 10.78 moveto 
1 -1 scale
(50) t 
GR
GR
GS
[1 0 0 1 507 378.79999] CT
0.149 GC
/Helvetica 14 F
GS
[1 0 0 1 0 0] CT
-7.786 10.78 moveto 
1 -1 scale
(60) t 
GR
GR
GS
[0 -1 1 0 49.62774 202.5] CT
0.149 GC
/Helvetica 20 F
GS
[1 0 0 1 0 0] CT
-65.581 -3.6 moveto 
1 -1 scale
(Pressure [kPa]) t 
GR
GR
GS
0.149 GC
2 setlinecap
10.0 ML
N
73 374 M
73 31 L
S
GR
GS
0.149 GC
2 setlinecap
10.0 ML
N
73 374 M
77.34 374 L
S
GR
GS
0.149 GC
2 setlinecap
10.0 ML
N
73 325 M
77.34 325 L
S
GR
GS
0.149 GC
2 setlinecap
10.0 ML
N
73 276 M
77.34 276 L
S
GR
GS
0.149 GC
2 setlinecap
10.0 ML
N
73 227 M
77.34 227 L
S
GR
GS
0.149 GC
2 setlinecap
10.0 ML
N
73 178 M
77.34 178 L
S
GR
GS
0.149 GC
2 setlinecap
10.0 ML
N
73 129 M
77.34 129 L
S
GR
GS
0.149 GC
2 setlinecap
10.0 ML
N
73 80 M
77.34 80 L
S
GR
GS
0.149 GC
2 setlinecap
10.0 ML
N
73 31 M
77.34 31 L
S
GR
GS
[1 0 0 1 68.2 374] CT
0.149 GC
/Helvetica 14 F
GS
[1 0 0 1 0 0] CT
-7.786 4.28 moveto 
1 -1 scale
(0) t 
GR
GR
GS
[1 0 0 1 68.2 325] CT
0.149 GC
/Helvetica 14 F
GS
[1 0 0 1 0 0] CT
-15.572 4.28 moveto 
1 -1 scale
(10) t 
GR
GR
GS
[1 0 0 1 68.2 276] CT
0.149 GC
/Helvetica 14 F
GS
[1 0 0 1 0 0] CT
-15.572 4.28 moveto 
1 -1 scale
(20) t 
GR
GR
GS
[1 0 0 1 68.2 227] CT
0.149 GC
/Helvetica 14 F
GS
[1 0 0 1 0 0] CT
-15.572 4.28 moveto 
1 -1 scale
(30) t 
GR
GR
GS
[1 0 0 1 68.2 178] CT
0.149 GC
/Helvetica 14 F
GS
[1 0 0 1 0 0] CT
-15.572 4.28 moveto 
1 -1 scale
(40) t 
GR
GR
GS
[1 0 0 1 68.2 129] CT
0.149 GC
/Helvetica 14 F
GS
[1 0 0 1 0 0] CT
-15.572 4.28 moveto 
1 -1 scale
(50) t 
GR
GR
GS
[1 0 0 1 68.2 80] CT
0.149 GC
/Helvetica 14 F
GS
[1 0 0 1 0 0] CT
-15.572 4.28 moveto 
1 -1 scale
(60) t 
GR
GR
GS
[1 0 0 1 68.2 31] CT
0.149 GC
/Helvetica 14 F
GS
[1 0 0 1 0 0] CT
-15.572 4.28 moveto 
1 -1 scale
(70) t 
GR
GR
GS
2 setlinecap
10.0 ML
2 LW
N
73 374 M
93.133 354.996 L
113.267 333.205 L
133.4 314.455 L
153.534 294.185 L
173.667 271.38 L
193.801 251.11 L
213.934 225.771 L
234.068 215.636 L
254.201 214.369 L
274.335 210.568 L
294.468 204.234 L
314.601 195.365 L
334.735 181.429 L
354.868 172.561 L
375.002 158.625 L
395.135 143.422 L
415.269 132.02 L
435.402 118.084 L
455.536 106.682 L
S
GR
GS
2 setlinecap
10.0 ML
2 LW
N
76.5 373.5 M
75.621 371.379 L
73.5 370.5 L
71.379 371.379 L
70.5 373.5 L
71.379 375.621 L
73.5 376.5 L
75.621 375.621 L
76.5 373.5 L
S
GR
GS
2 setlinecap
10.0 ML
2 LW
N
96.5 354.5 M
95.621 352.379 L
93.5 351.5 L
91.379 352.379 L
90.5 354.5 L
91.379 356.621 L
93.5 357.5 L
95.621 356.621 L
96.5 354.5 L
S
GR
GS
2 setlinecap
10.0 ML
2 LW
N
116.5 333.5 M
115.621 331.379 L
113.5 330.5 L
111.379 331.379 L
110.5 333.5 L
111.379 335.621 L
113.5 336.5 L
115.621 335.621 L
116.5 333.5 L
S
GR
GS
2 setlinecap
10.0 ML
2 LW
N
136.5 314.5 M
135.621 312.379 L
133.5 311.5 L
131.379 312.379 L
130.5 314.5 L
131.379 316.621 L
133.5 317.5 L
135.621 316.621 L
136.5 314.5 L
S
GR
GS
2 setlinecap
10.0 ML
2 LW
N
156.5 294.5 M
155.621 292.379 L
153.5 291.5 L
151.379 292.379 L
150.5 294.5 L
151.379 296.621 L
153.5 297.5 L
155.621 296.621 L
156.5 294.5 L
S
GR
GS
2 setlinecap
10.0 ML
2 LW
N
176.5 271.5 M
175.621 269.379 L
173.5 268.5 L
171.379 269.379 L
170.5 271.5 L
171.379 273.621 L
173.5 274.5 L
175.621 273.621 L
176.5 271.5 L
S
GR
GS
2 setlinecap
10.0 ML
2 LW
N
196.5 251.5 M
195.621 249.379 L
193.5 248.5 L
191.379 249.379 L
190.5 251.5 L
191.379 253.621 L
193.5 254.5 L
195.621 253.621 L
196.5 251.5 L
S
GR
GS
2 setlinecap
10.0 ML
2 LW
N
216.5 225.5 M
215.621 223.379 L
213.5 222.5 L
211.379 223.379 L
210.5 225.5 L
211.379 227.621 L
213.5 228.5 L
215.621 227.621 L
216.5 225.5 L
S
GR
GS
2 setlinecap
10.0 ML
2 LW
N
237.5 215.5 M
236.621 213.379 L
234.5 212.5 L
232.379 213.379 L
231.5 215.5 L
232.379 217.621 L
234.5 218.5 L
236.621 217.621 L
237.5 215.5 L
S
GR
GS
2 setlinecap
10.0 ML
2 LW
N
257.5 214.5 M
256.621 212.379 L
254.5 211.5 L
252.379 212.379 L
251.5 214.5 L
252.379 216.621 L
254.5 217.5 L
256.621 216.621 L
257.5 214.5 L
S
GR
GS
2 setlinecap
10.0 ML
2 LW
N
277.5 210.5 M
276.621 208.379 L
274.5 207.5 L
272.379 208.379 L
271.5 210.5 L
272.379 212.621 L
274.5 213.5 L
276.621 212.621 L
277.5 210.5 L
S
GR
GS
2 setlinecap
10.0 ML
2 LW
N
297.5 204.5 M
296.621 202.379 L
294.5 201.5 L
292.379 202.379 L
291.5 204.5 L
292.379 206.621 L
294.5 207.5 L
296.621 206.621 L
297.5 204.5 L
S
GR
GS
2 setlinecap
10.0 ML
2 LW
N
317.5 195.5 M
316.621 193.379 L
314.5 192.5 L
312.379 193.379 L
311.5 195.5 L
312.379 197.621 L
314.5 198.5 L
316.621 197.621 L
317.5 195.5 L
S
GR
GS
2 setlinecap
10.0 ML
2 LW
N
337.5 181.5 M
336.621 179.379 L
334.5 178.5 L
332.379 179.379 L
331.5 181.5 L
332.379 183.621 L
334.5 184.5 L
336.621 183.621 L
337.5 181.5 L
S
GR
GS
2 setlinecap
10.0 ML
2 LW
N
357.5 172.5 M
356.621 170.379 L
354.5 169.5 L
352.379 170.379 L
351.5 172.5 L
352.379 174.621 L
354.5 175.5 L
356.621 174.621 L
357.5 172.5 L
S
GR
GS
2 setlinecap
10.0 ML
2 LW
N
378.5 158.5 M
377.621 156.379 L
375.5 155.5 L
373.379 156.379 L
372.5 158.5 L
373.379 160.621 L
375.5 161.5 L
377.621 160.621 L
378.5 158.5 L
S
GR
GS
2 setlinecap
10.0 ML
2 LW
N
398.5 143.5 M
397.621 141.379 L
395.5 140.5 L
393.379 141.379 L
392.5 143.5 L
393.379 145.621 L
395.5 146.5 L
397.621 145.621 L
398.5 143.5 L
S
GR
GS
2 setlinecap
10.0 ML
2 LW
N
418.5 132.5 M
417.621 130.379 L
415.5 129.5 L
413.379 130.379 L
412.5 132.5 L
413.379 134.621 L
415.5 135.5 L
417.621 134.621 L
418.5 132.5 L
S
GR
GS
2 setlinecap
10.0 ML
2 LW
N
438.5 118.5 M
437.621 116.379 L
435.5 115.5 L
433.379 116.379 L
432.5 118.5 L
433.379 120.621 L
435.5 121.5 L
437.621 120.621 L
438.5 118.5 L
S
GR
GS
2 setlinecap
10.0 ML
2 LW
N
458.5 106.5 M
457.621 104.379 L
455.5 103.5 L
453.379 104.379 L
452.5 106.5 L
453.379 108.621 L
455.5 109.5 L
457.621 108.621 L
458.5 106.5 L
S
GR
GS
1 0 0 RC
2 setlinecap
10.0 ML
2 LW
N
73 374 M
93.133 356.897 L
113.267 337.26 L
133.4 318.889 L
153.534 303.686 L
173.667 292.284 L
193.801 269.48 L
213.934 261.878 L
234.068 249.209 L
254.201 249.209 L
274.335 236.54 L
294.468 230.206 L
314.601 227.672 L
334.735 218.803 L
354.868 215.003 L
S
GR
GS
1 0 0 RC
2 setlinecap
10.0 ML
2 LW
N
68 373.5 M
79 373.5 L
S
GR
GS
1 0 0 RC
2 setlinecap
10.0 ML
2 LW
N
73.5 379 M
73.5 368 L
S
GR
GS
1 0 0 RC
2 setlinecap
10.0 ML
2 LW
N
88 356.5 M
99 356.5 L
S
GR
GS
1 0 0 RC
2 setlinecap
10.0 ML
2 LW
N
93.5 362 M
93.5 351 L
S
GR
GS
1 0 0 RC
2 setlinecap
10.0 ML
2 LW
N
108 337.5 M
119 337.5 L
S
GR
GS
1 0 0 RC
2 setlinecap
10.0 ML
2 LW
N
113.5 343 M
113.5 332 L
S
GR
GS
1 0 0 RC
2 setlinecap
10.0 ML
2 LW
N
128 318.5 M
139 318.5 L
S
GR
GS
1 0 0 RC
2 setlinecap
10.0 ML
2 LW
N
133.5 324 M
133.5 313 L
S
GR
GS
1 0 0 RC
2 setlinecap
10.0 ML
2 LW
N
148 303.5 M
159 303.5 L
S
GR
GS
1 0 0 RC
2 setlinecap
10.0 ML
2 LW
N
153.5 309 M
153.5 298 L
S
GR
GS
1 0 0 RC
2 setlinecap
10.0 ML
2 LW
N
168 292.5 M
179 292.5 L
S
GR
GS
1 0 0 RC
2 setlinecap
10.0 ML
2 LW
N
173.5 298 M
173.5 287 L
S
GR
GS
1 0 0 RC
2 setlinecap
10.0 ML
2 LW
N
188 269.5 M
199 269.5 L
S
GR
GS
1 0 0 RC
2 setlinecap
10.0 ML
2 LW
N
193.5 275 M
193.5 264 L
S
GR
GS
1 0 0 RC
2 setlinecap
10.0 ML
2 LW
N
208 261.5 M
219 261.5 L
S
GR
GS
1 0 0 RC
2 setlinecap
10.0 ML
2 LW
N
213.5 267 M
213.5 256 L
S
GR
GS
1 0 0 RC
2 setlinecap
10.0 ML
2 LW
N
229 249.5 M
240 249.5 L
S
GR
GS
1 0 0 RC
2 setlinecap
10.0 ML
2 LW
N
234.5 255 M
234.5 244 L
S
GR
GS
1 0 0 RC
2 setlinecap
10.0 ML
2 LW
N
249 249.5 M
260 249.5 L
S
GR
GS
1 0 0 RC
2 setlinecap
10.0 ML
2 LW
N
254.5 255 M
254.5 244 L
S
GR
GS
1 0 0 RC
2 setlinecap
10.0 ML
2 LW
N
269 236.5 M
280 236.5 L
S
GR
GS
1 0 0 RC
2 setlinecap
10.0 ML
2 LW
N
274.5 242 M
274.5 231 L
S
GR
GS
1 0 0 RC
2 setlinecap
10.0 ML
2 LW
N
289 230.5 M
300 230.5 L
S
GR
GS
1 0 0 RC
2 setlinecap
10.0 ML
2 LW
N
294.5 236 M
294.5 225 L
S
GR
GS
1 0 0 RC
2 setlinecap
10.0 ML
2 LW
N
309 227.5 M
320 227.5 L
S
GR
GS
1 0 0 RC
2 setlinecap
10.0 ML
2 LW
N
314.5 233 M
314.5 222 L
S
GR
GS
1 0 0 RC
2 setlinecap
10.0 ML
2 LW
N
329 218.5 M
340 218.5 L
S
GR
GS
1 0 0 RC
2 setlinecap
10.0 ML
2 LW
N
334.5 224 M
334.5 213 L
S
GR
GS
1 0 0 RC
2 setlinecap
10.0 ML
2 LW
N
349 215.5 M
360 215.5 L
S
GR
GS
1 0 0 RC
2 setlinecap
10.0 ML
2 LW
N
354.5 221 M
354.5 210 L
S
GR
GS
0 0 1 RC
2 setlinecap
10.0 ML
2 LW
N
73 374 M
93.133 354.363 L
113.267 342.327 L
133.4 323.324 L
153.534 306.854 L
173.667 289.117 L
193.801 273.914 L
213.934 253.643 L
234.068 230.839 L
254.201 209.301 L
274.335 186.497 L
294.468 166.227 L
314.601 145.956 L
334.735 129.486 L
354.868 110.482 L
375.002 101.614 L
395.135 83.877 L
415.269 72.475 L
S
GR
GS
0 0 1 RC
2 setlinecap
10.0 ML
2 LW
N
71.16 375.84 M
71.16 371.16 L
75.84 371.16 L
75.84 375.84 L
71.16 375.84 L
S
GR
GS
0 0 1 RC
2 setlinecap
10.0 ML
2 LW
N
91.16 356.84 M
91.16 352.16 L
95.84 352.16 L
95.84 356.84 L
91.16 356.84 L
S
GR
GS
0 0 1 RC
2 setlinecap
10.0 ML
2 LW
N
111.16 344.84 M
111.16 340.16 L
115.84 340.16 L
115.84 344.84 L
111.16 344.84 L
S
GR
GS
0 0 1 RC
2 setlinecap
10.0 ML
2 LW
N
131.16 325.84 M
131.16 321.16 L
135.84 321.16 L
135.84 325.84 L
131.16 325.84 L
S
GR
GS
0 0 1 RC
2 setlinecap
10.0 ML
2 LW
N
151.16 308.84 M
151.16 304.16 L
155.84 304.16 L
155.84 308.84 L
151.16 308.84 L
S
GR
GS
0 0 1 RC
2 setlinecap
10.0 ML
2 LW
N
171.16 291.84 M
171.16 287.16 L
175.84 287.16 L
175.84 291.84 L
171.16 291.84 L
S
GR
GS
0 0 1 RC
2 setlinecap
10.0 ML
2 LW
N
191.16 275.84 M
191.16 271.16 L
195.84 271.16 L
195.84 275.84 L
191.16 275.84 L
S
GR
GS
0 0 1 RC
2 setlinecap
10.0 ML
2 LW
N
211.16 255.84 M
211.16 251.16 L
215.84 251.16 L
215.84 255.84 L
211.16 255.84 L
S
GR
GS
0 0 1 RC
2 setlinecap
10.0 ML
2 LW
N
232.16 232.84 M
232.16 228.16 L
236.84 228.16 L
236.84 232.84 L
232.16 232.84 L
S
GR
GS
0 0 1 RC
2 setlinecap
10.0 ML
2 LW
N
252.16 211.84 M
252.16 207.16 L
256.84 207.16 L
256.84 211.84 L
252.16 211.84 L
S
GR
GS
0 0 1 RC
2 setlinecap
10.0 ML
2 LW
N
272.16 188.84 M
272.16 184.16 L
276.84 184.16 L
276.84 188.84 L
272.16 188.84 L
S
GR
GS
0 0 1 RC
2 setlinecap
10.0 ML
2 LW
N
292.16 168.84 M
292.16 164.16 L
296.84 164.16 L
296.84 168.84 L
292.16 168.84 L
S
GR
GS
0 0 1 RC
2 setlinecap
10.0 ML
2 LW
N
312.16 147.84 M
312.16 143.16 L
316.84 143.16 L
316.84 147.84 L
312.16 147.84 L
S
GR
GS
0 0 1 RC
2 setlinecap
10.0 ML
2 LW
N
332.16 131.84 M
332.16 127.16 L
336.84 127.16 L
336.84 131.84 L
332.16 131.84 L
S
GR
GS
0 0 1 RC
2 setlinecap
10.0 ML
2 LW
N
352.16 112.84 M
352.16 108.16 L
356.84 108.16 L
356.84 112.84 L
352.16 112.84 L
S
GR
GS
0 0 1 RC
2 setlinecap
10.0 ML
2 LW
N
373.16 103.84 M
373.16 99.16 L
377.84 99.16 L
377.84 103.84 L
373.16 103.84 L
S
GR
GS
0 0 1 RC
2 setlinecap
10.0 ML
2 LW
N
393.16 85.84 M
393.16 81.16 L
397.84 81.16 L
397.84 85.84 L
393.16 85.84 L
S
GR
GS
0 0 1 RC
2 setlinecap
10.0 ML
2 LW
N
413.16 74.84 M
413.16 70.16 L
417.84 70.16 L
417.84 74.84 L
413.16 74.84 L
S
GR
GS
1 GC
N
83 103 M
83 41 L
217 41 L
217 103 L
cp
f
GR
GS
[1 0 0 1 121.9285 52.5] CT
/Helvetica 20 F
GS
[1 0 0 1 0 0] CT
0 5.9 moveto 
1 -1 scale
(Cylindrical) t 
GR
GR
GS
2 setlinecap
10.0 ML
2 LW
N
88.989 52.5 M
118.934 52.5 L
S
GR
GS
2 setlinecap
10.0 ML
2 LW
N
106.5 52.5 M
105.621 50.379 L
103.5 49.5 L
101.379 50.379 L
100.5 52.5 L
101.379 54.621 L
103.5 55.5 L
105.621 54.621 L
106.5 52.5 L
S
GR
GS
[1 0 0 1 121.9285 72] CT
/Helvetica 20 F
GS
[1 0 0 1 0 0] CT
0 5.9 moveto 
1 -1 scale
(Ribbed) t 
GR
GR
GS
1 0 0 RC
2 setlinecap
10.0 ML
2 LW
N
88.989 72 M
118.934 72 L
S
GR
GS
1 0 0 RC
2 setlinecap
10.0 ML
2 LW
N
98 71.5 M
109 71.5 L
S
GR
GS
1 0 0 RC
2 setlinecap
10.0 ML
2 LW
N
103.5 77 M
103.5 66 L
S
GR
GS
[1 0 0 1 121.9285 91.5] CT
/Helvetica 20 F
GS
[1 0 0 1 0 0] CT
0 5.9 moveto 
1 -1 scale
(Pleated) t 
GR
GR
GS
0 0 1 RC
2 setlinecap
10.0 ML
2 LW
N
88.989 91.5 M
118.934 91.5 L
S
GR
GS
0 0 1 RC
2 setlinecap
10.0 ML
2 LW
N
101.16 93.84 M
101.16 89.16 L
105.84 89.16 L
105.84 93.84 L
101.16 93.84 L
S
GR
GS
0.149 GC
2 setlinecap
10.0 ML
N
83 103 M
83 41 L
217 41 L
217 103 L
83 103 L
S
GR
%%Trailer
%%Pages: 1
%%EOF
